Spring_Final_Project/Operator/FLOAT_MUL/mul.vcd
$date
	Fri May 23 20:46:06 2025
$end
$version
	Icarus Verilog
$end
$timescale
	1ps
$end
$scope module FLOAT_MUL_tb $end
$var wire 64 ! result [63:0] $end
$var wire 1 " ready $end
$var reg 1 # clk $end
$var reg 64 $ num1 [63:0] $end
$var reg 64 % num2 [63:0] $end
$var reg 1 & rstn $end
$var reg 64 ' t1 [63:0] $end
$var reg 64 ( t2 [63:0] $end
$var reg 64 ) t3 [63:0] $end
$var reg 1 * valid $end
$var integer 32 + errors [31:0] $end
$var integer 32 , fd [31:0] $end
$var integer 32 - i [31:0] $end
$var integer 32 . j [31:0] $end
$var integer 32 / k [31:0] $end
$var integer 32 0 r [31:0] $end
$var integer 32 1 timeout [31:0] $end
$scope module uut $end
$var wire 1 2 check_denor1 $end
$var wire 1 3 check_denor2 $end
$var wire 1 # clk $end
$var wire 64 4 num1 [63:0] $end
$var wire 1 5 num1_zero $end
$var wire 64 6 num2 [63:0] $end
$var wire 1 7 num2_zero $end
$var wire 1 " ready $end
$var wire 1 8 round_up $end
$var wire 1 & rstn $end
$var wire 1 * valid $end
$var wire 1 9 zero $end
$var wire 64 : result [63:0] $end
$var wire 17 ; pip9_y [16:0] $end
$var wire 54 < pip9_w [53:0] $end
$var wire 27 = pip11_mn [26:0] $end
$var wire 1 > Sticky $end
$var wire 1 ? Round $end
$var wire 1 @ LSB $end
$var wire 1 A Guard $end
$var reg 64 B pip0_num1 [63:0] $end
$var reg 64 C pip0_num2 [63:0] $end
$var reg 1 D pip0_valid $end
$var reg 48 E pip10_AB_remain [47:0] $end
$var reg 12 F pip10_exponent [11:0] $end
$var reg 28 G pip10_m [27:0] $end
$var reg 32 H pip10_n [31:0] $end
$var reg 1 I pip10_sign $end
$var reg 1 J pip10_valid $end
$var reg 12 K pip11_exponent [11:0] $end
$var reg 106 L pip11_mantissa [105:0] $end
$var reg 1 M pip11_sign $end
$var reg 1 N pip11_valid $end
$var reg 11 O pip12_exponent [10:0] $end
$var reg 106 P pip12_mantissa [105:0] $end
$var reg 1 Q pip12_sign $end
$var reg 1 R pip12_valid $end
$var reg 11 S pip13_exponent [10:0] $end
$var reg 52 T pip13_mantissa [51:0] $end
$var reg 1 U pip13_sign $end
$var reg 1 V pip13_valid $end
$var reg 11 W pip1_exponent1 [10:0] $end
$var reg 11 X pip1_exponent2 [10:0] $end
$var reg 53 Y pip1_mantissa2 [52:0] $end
$var reg 1 Z pip1_sign1 $end
$var reg 1 [ pip1_sign2 $end
$var reg 1 \ pip1_valid $end
$var reg 1 ] pip1_zero $end
$var reg 12 ^ pip2_exponent [11:0] $end
$var reg 1 _ pip2_sign $end
$var reg 1 ` pip2_valid $end
$var reg 1 a pip2_zero $end
$var reg 12 b pip3_exponent [11:0] $end
$var reg 1 c pip3_sign $end
$var reg 1 d pip3_valid $end
$var reg 12 e pip4_exponent [11:0] $end
$var reg 1 f pip4_sign $end
$var reg 1 g pip4_valid $end
$var reg 12 h pip5_exponent [11:0] $end
$var reg 1 i pip5_sign $end
$var reg 1 j pip5_valid $end
$var reg 12 k pip6_exponent [11:0] $end
$var reg 1 l pip6_sign $end
$var reg 1 m pip6_valid $end
$var reg 12 n pip7_exponent [11:0] $end
$var reg 1 o pip7_sign $end
$var reg 1 p pip7_valid $end
$var reg 32 q pip8_A_remain [31:0] $end
$var reg 4 r pip8_C_remain [3:0] $end
$var reg 12 s pip8_exponent [11:0] $end
$var reg 1 t pip8_sign $end
$var reg 1 u pip8_valid $end
$var reg 54 v pip8_w [53:0] $end
$var reg 17 w pip8_x [16:0] $end
$var reg 17 x pip8_y [16:0] $end
$var reg 38 y pip8_z [37:0] $end
$var reg 102 z pip9_AB [101:0] $end
$var reg 58 { pip9_CD [57:0] $end
$var reg 12 | pip9_exponent [11:0] $end
$var reg 1 } pip9_sign $end
$var reg 1 ~ pip9_valid $end
$var integer 32 !" i [31:0] $end
$upscope $end
$upscope $end
$enddefinitions $end
#0
$dumpvars
b110101 !"
0~
0}
b0 |
b0 {
b0 z
b0 y
b0 x
b0 w
b0 v
0u
0t
b0 s
b0 r
b0 q
0p
0o
b0 n
0m
0l
b0 k
0j
0i
b0 h
0g
0f
b0 e
0d
0c
b0 b
0a
0`
0_
b0 ^
0]
0\
0[
0Z
b0 Y
b0 X
b0 W
0V
0U
b0 T
b0 S
0R
0Q
b0 P
b0 O
0N
0M
b0 L
b0 K
0J
0I
b0 H
b0 G
b0 F
b0 E
0D
b0 C
b0 B
0A
0@
0?
0>
b0 =
b0 <
b0 ;
b0 :
19
08
17
bx 6
15
bx 4
13
12
b11000011010100000 1
b11 0
b0 /
bx .
b1111101000 -
b10000000000000000000000000000011 ,
b0 +
0*
b1101000111110011100010110001110001111001010100100000000100001101 )
b1101000000010110110110010010010010101100101011010111100000001001 (
b100000111001011010111110001011110100110001101011000010010111110 '
0&
bx %
bx $
0#
0"
b0 !
$end
#5000
b100 !"
b11000011010011111 1
1#
#10000
0#
#15000
x9
x7
x3
x5
x2
bx C
bx B
1]
b1 X
b1 W
b110000000001 b
b0 .
b110101 !"
b11000011010011110 1
1&
1#
#20000
b100001011010000110010010100010101000110010101111111100110000011 %
b100001011010000110010010100010101000110010101111111100110000011 6
b1100101010010110010111000001000110001111001011010110100100101000 $
b1100101010010110010111000001000110001111001011010110100100101000 4
1*
b1 .
0#
#25000
09
07
03
05
02
b110000000001 e
1a
b10 ^
b1xxxxxxxxxxxxxxxxxxxxxxxxxxxxxxxxxxxxxxxxxxxxxxxxxxxx Y
x]
bx X
bx W
x[
xZ
1D
b100001011010000110010010100010101000110010101111111100110000011 C
b1100101010010110010111000001000110001111001011010110100100101000 B
b11 !"
b11000011010011101 1
1#
#30000
b11011110010110010011001000011110010101011001110000010011011101 %
b11011110010110010011001000011110010101011001110000010011011101 6
b1100110011000010110110111000101011000001011110100101111000111000 $
b1100110011000010110110111000101011000001011110100101111000111000 4
b10 .
0#
#35000
b11011110010110010011001000011110010101011001110000010011011101 C
b1100110011000010110110111000101011000001011110100101111000111000 B
0]
b10000101101 X
b10010101001 W
1\
0[
1Z
b10000110010010100010101000110010101111111100110000011 Y
xa
bx ^
x_
b0 b
b110000000001 h
b110101 !"
b11000011010011100 1
1#
#40000
b11010011100010000110011000011110101011010111101101001111000001 %
b11010011100010000110011000011110101011010111101101001111000001 6
b100000101011110110111101011101111101100100100000010100111110110 $
b100000101011110110111101011101111101100100100000010100111110110 4
b11 .
0#
#45000
b110000000001 k
b0 e
xc
bx b
1`
0a
b100011010110 ^
1_
b10110010011001000011110010101011001110000010011011101 Y
b1101111001 X
b10011001100 W
b11010011100010000110011000011110101011010111101101001111000001 C
b100000101011110110111101011101111101100100100000010100111110110 B
b11 !"
b11000011010011011 1
1#
#50000
b100110011101101011010111010011100000101111110101001111011000010 %
b100110011101101011010111010011100000101111110101001111011000010 6
b10111101010000101111101000011000101110001111001010001010011010 $
b10111101010000101111101000011000101110001111001010001010011010 4
b100 .
0#
#55000
b100110011101101011010111010011100000101111110101001111011000010 C
b10111101010000101111101000011000101110001111001010001010011010 B
b1101001110 X
b10000010101 W
0Z
b10010000110011000011110101011010111101101001111000001 Y
b100001000101 ^
1c
b10011010111 b
1d
bx e
xf
b0 h
b110000000001 n
b110101 !"
b11000011010011010 1
1#
#60000
b11001010111010010100001101000101111110110011111100111110000111 %
b11001010111010010100001101000101111110110011111100111110000111 6
b11010111011011000111010111000001110011011100010111000001011100 $
b11010111011011000111010111000001110011011100010111000001011100 4
b101 .
0#
#65000
b110000000001 s
b0 k
bx h
xi
b10011010111 e
1g
1f
b10001000110 b
b11101100011 ^
0_
b11101011010111010011100000101111110101001111011000010 Y
b10011001110 X
b1011110101 W
b11001010111010010100001101000101111110110011111100111110000111 C
b11010111011011000111010111000001110011011100010111000001011100 B
b11 !"
b11000011010011001 1
1#
#70000
b11011011111011111101110100011010110110011010010111000110000001 %
b11011011111011111101110100011010110110011010010111000110000001 6
b1100001100000001011011000111111010011011111000000011011011001001 $
b1100001100000001011011000111111010011011111000000011011011001001 4
b110 .
0#
#75000
b11011011111011111101110100011010110110011010010111000110000001 C
b1100001100000001011011000111111010011011111000000011011011001001 B
b1100101011 X
b1101011101 W
b11010010100001101000101111110110011111100111110000111 Y
b11111000011 ^
0c
b1101100100 b
b10001000110 e
b10011010111 h
1j
1i
bx k
xl
b0 n
b110000000001 |
b110101 !"
b11000011010011000 1
1#
#80000
b11001111101010101101100110000010110101101001010010011110011110 %
b11001111101010101101100110000010110101101001010010011110011110 6
b1010110011111000010011110100100100000101100010101100100010101011 $
b1010110011111000010011110100100100000101100010101100100010101011 4
b111 .
0#
#85000
b110000000001 F
b0 s
bx n
xo
b10011010111 k
1m
1l
b10001000110 h
b1101100100 e
0f
b1111000100 b
b11010001000 ^
b11011111101110100011010110110011010010111000110000001 Y
b1101101111 X
b10000110000 W
1Z
b11001111101010101101100110000010110101101001010010011110011110 C
b1010110011111000010011110100100100000101100010101100100010101011 B
b11 !"
b11000011010010111 1
1#
#90000
b1100110101101100000111110100011110101010000000110111100100000110 %
b1100110101101100000111110100011110101010000000110111100100000110 6
b100010100000001100000110011111011101110000001110001011101100001 $
b100010100000001100000110011111011101110000001110001011101100001 4
b1000 .
0#
#95000
b1100110101101100000111110100011110101010000000110111100100000110 C
b100010100000001100000110011111011101110000001110001011101100001 B
b1100111110 X
b1011001111 W
b11010101101100110000010110101101001010010011110011110 Y
b11110011111 ^
1_
b1010001001 b
b1111000100 e
b1101100100 h
0i
b10001000110 k
b10011010111 n
1p
1o
bx y
bx ;
bx x
bx w
bx <
bx v
bx r
bx q
bx s
xt
b0 |
b110000000001 K
b110101 !"
b11000011010010110 1
1#
#100000
b100110011000010110011110010111111011101101100111001111000000011 %
b100110011000010110011110010111111011101101100111001111000000011 6
b1011000000100000100110010011101101000111010100001101010100111011 $
b1011000000100000100110010011101101000111010100001101010100111011 4
b1001 .
0#
#105000
b1011001011100000 ;
b10001100101000101011010111111000000100010000011101010 <
b10000000001 O
b0 F
bx {
bx z
bx |
x}
b1000110001111001011010110100100101000 y
b1011001011100000 x
b10000010000110111 w
b10001100101000101011010111111000000100010000011101001 v
b0 r
b11100000111001011011101111000 q
b10011010111 s
1u
1t
b10001000110 n
b1101100100 k
0l
b1111000100 h
b1010001001 e
1c
b1110100000 b
b11000001101 ^
b11100000111110100011110101010000000110111100100000110 Y
b10011010110 X
b10001010000 W
1[
0Z
b100110011000010110011110010111111011101101100111001111000000011 C
b1011000000100000100110010011101101000111010100001101010100111011 B
b11 !"
b11000011010010101 1
1#
#110000
b11001101001010100011101000011101101010010101000010100001100110 %
b11001101001010100011101000011101101010010101000010100001100110 6
b1011101010101100000011010001000000110100000001010110011111110100 $
b1011101010101100000011010001000000110100000001010110011111110100 4
b1010 .
0#
#115000
bx =
b11001101001010100011101000011101101010010101000010100001100110 C
b1011101010101100000011010001000000110100000001010110011111110100 B
b10011001100 X
b1100000010 W
0[
1Z
b10010110011110010111111011101101100111001111000000011 Y
b100100100110 ^
b1000001110 b
b1110100000 e
1f
b1010001001 h
b1111000100 k
b1101100100 n
0o
b1111011001010000010000100000110001101 y
b1100111101101110 ;
b1100111101101110 x
b10001001001101001 w
b101101000110010100111111000111110101100111010100110 <
b101101000110010100111111000111110101100111010100101 v
b1110000101001000011011001011000 q
b10001000110 s
b101100101110000010001100011110010110101101001001010000000 {
b10001100101000101011010111111000000100010000011101010000001000011011100011100000111001011011101111000 z
b10011010111 |
1~
1}
bx G
bx H
bx E
bx F
xI
b0 K
b100000000010000000000000000000000000000000000000000000000000000 !
b100000000010000000000000000000000000000000000000000000000000000 :
b10000000001 S
b110101 !"
b11000011010010100 1
1#
#120000
b1100110110010010110101100111110001000100011100011110110001011110 %
b1100110110010010110101100111110001000100011100011110110001011110 6
b1100110111111001111111010111010000110011001011001100010110111010 $
b1100110111111001111111010111010000110011001011001100010110111010 4
b1011 .
0#
#125000
b10111011101010101011011111 =
b0 O
bx L
bx K
xM
b10111011101010101011011110 G
b10110001110110001011001101101010 H
b1000011011100011100000111001011011101111000 E
b10011010111 F
1J
1I
b110011110110111011110110010100000100001000001100011010000 {
b101101000110010100111111000111110101100111010100110000100100110100101110000101001000011011001011000 z
b10001000110 |
b11001101101010001000100010111100110100 y
b10001010111010100 ;
b10001010111010011 x
b10001111101011000 w
b11000101000001110001111001011010101010110011111111 <
b11000101000001110001111001011010101010110011111110 v
b1100 r
b11100101100110010110010001110110 q
b1101100100 s
0t
b1111000100 n
b1010001001 k
b1110100000 h
1i
b1000001110 e
b10100100111 b
b11111001110 ^
b11010100011101000011101101010010101000010100001100110 Y
b1100110100 X
b1110101010 W
b1100110110010010110101100111110001000100011100011110110001011110 C
b1100110111111001111111010111010000110011001011001100010110111010 B
b11 !"
b11000011010010011 1
1#
#130000
b1010101110001111001100010010001111001110010100000011010110010101 %
b1010101110001111001100010010001111001110010100000011010110010101 6
b1100111000001010111111101011011010011011110011100100000001011001 $
b1100111000001010111111101011011010011011110011100100000001011001 4
b1100 .
0#
#135000
x8
b11010010010000001000101101 =
x@
xA
x?
x>
b1010101110001111001100010010001111001110010100000011010110010101 C
b1100111000001010111111101011011010011011110011100100000001011001 B
b10011011001 X
b10011011111 W
1[
b10010110101100111110001000100011100011110110001011110 Y
b11011011110 ^
b1111001111 b
b10100100111 e
b1000001110 h
b1110100000 k
1l
b1010001001 n
b1001100110011110011011110011010110111 y
b1111001011001010 ;
b1111001011001010 x
b1111100100010010 w
b111000010101000111011000010111110001001000110111011 <
b111000010101000111011000010111110001001000110111011 v
b10 r
b1000010101100100100010010110100 q
b1111000100 s
b1000101011101010010011011010100010001000101111001101001100 {
b11000101000001110001111001011010101010110011111111000111110101100011100101100110010110010001110110 z
b1101100100 |
0}
b11010010010000001000101100 G
b10011001011111101110011101110110 H
b100100110100101110000101001000011011001011000 E
b10001000110 F
b101110111010101010110111110110001110110001011001101101010000001000011011100011100000111001011011101111000 L
b10011010111 K
1N
1M
bx P
bx O
xQ
b0 !
b0 :
b0 S
b110101 !"
b11000011010010010 1
1#
#140000
b100111001110001110010110001010011010001010111010101101110111101 %
b100111001110001110010110001010011010001010111010101101110111101 6
b101010011011101000000100101111111011001101000000011101000111000 $
b101010011011101000000100101111111011001101000000011101000111000 4
b1101 .
0#
#145000
18
0@
1A
0?
1>
b100010111010111101010100110 =
bx T
bx S
bx !
bx :
xU
b101110111010101010110111110110001110110001011001101101010000001000011011100011100000111001011011101111000 P
b10011010111 O
1R
1Q
b110100100100000010001011010011001011111101110011101110110000100100110100101110000101001000011011001011000 L
b10001000110 K
b100010111010111101010100101 G
b10011011100011011010000001001011 H
b111110101100011100101100110010110010001110110 E
b1101100100 F
0I
b111100101100101010011001100111100110111100110101101110010 {
b111000010101000111011000010111110001001000110111011111110010001001001000010101100100100010010110100 z
b1111000100 |
b1011010111011100110000101011010010101 y
b10110000001111110 ;
b10110000001111110 x
b10001110011001000 w
b1000100011110110001110011011011000011101010010010011 <
b1000100011110110001110011011011000011101010010010010 v
b1000 r
b10111101000100001010010010000100 q
b1010001001 s
b1110100000 n
1o
b1000001110 k
b10100100111 h
b1111001111 e
b1011011111 b
b100110111000 ^
0_
b11111001100010010001111001110010100000011010110010101 Y
b1010111000 X
b10011100000 W
b100111001110001110010110001010011010001010111010101101110111101 C
b101010011011101000000100101111111011001101000000011101000111000 B
b11 !"
b11000011010010001 1
1#
#150000
b100100001001110011100110101001101100001110111010100101110011000 %
b100100001001110011100110101001101100001110111010100101110011000 6
b1011100001110101110011010000010011000111111010110110010110001000 $
b1011100001110101110011010000010011000111111010110110010110001000 4
b1110 .
0#
#155000
08
b11110110010011111110000011 =
1@
0A
1?
b100100001001110011100110101001101100001110111010100101110011000 C
b1011100001110101110011010000010011000111111010110110010110001000 B
b10011100111 X
b10101001101 W
0[
0Z
b10001110010110001010011010001010111010101101110111101 Y
b11110011000 ^
0c
b10110111001 b
b1011011111 e
b1111001111 h
b10100100111 k
b1000001110 n
b11010110100111000010100101110001110011 y
b1110101100111000 ;
b1110101100110111 x
b11100111001111001 w
b10000110101000111111000111101010100110011000010010101 <
b10000110101000111111000111101010100110011000010010100 v
b11 r
b11100010100110110101010001001001 q
b1110100000 s
1t
b1011000000111111010110101110111001100001010110100101011000 {
b1000100011110110001110011011011000011101010010010011000111001100100010111101000100001010010010000100 z
b1010001001 |
b11110110010011111110000011 G
b1111111110101101111110100101101 H
b111110010001001001000010101100100100010010110100 E
b1111000100 F
b1000101110101111010101001100011011100011011010000001001011000111110101100011100101100110010110010001110110 L
b1101100100 K
0M
b110100100100000010001011010011001011111101110011101110110000100100110100101110000101001000011011001011000 P
b10001000110 O
b111011101010101011011111011000111011000101100110111 T
b10011010111 S
1"
1V
b1100110101110111011101010101011011111011000111011000101100110111 !
b1100110101110111011101010101011011111011000111011000101100110111 :
1U
b110101 !"
b11000011010010000 1
1#
#160000
b1011010011100010100001011011110000000010011001011001100010001100 %
b1011010011100010100001011011110000000010011001011001100010001100 6
b1011110110010111001011010111100110010001101101110100011110001010 $
b1011110110010111001011010111100110010001101101110100011110001010 4
b1111 .
0#
#165000
0@
b101100100110001100110011110 =
b1010010010000001000101101001100101111110111001110111 T
b1100010001101010010010000001000101101001100101111110111001110111 !
b1100010001101010010010000001000101101001100101111110111001110111 :
b10001000110 S
b100010111010111101010100110001101110001101101000000100101100011111010110001110010110011001011001000111011 P
b1101100101 O
0Q
b111101100100111111100000111111111110101101111110100101101111110010001001001000010101100100100010010110100 L
b1111000100 K
b101100100110001100110011110 G
b1010100111001110011110111101011 H
b111001100100010111101000100001010010010000100 E
b1010001001 F
b111010110011100010101101001110000101001011100011100110011 {
b10000110101000111111000111101010100110011000010010101110011100111100111100010100110110101010001001001 z
b1110100000 |
1}
b1011010101001000000011000011000010101 y
b10011110000000110 ;
b10011110000000110 x
b11001001101011101 w
b10001010100011000110011100101000100000011110011000101 <
b10001010100011000110011100101000100000011110011000100 v
b1110 r
b11001101011100001110011010001010 q
b1000001110 s
b10100100111 n
b1111001111 k
b1011011111 h
b10110111001 e
0f
b1110011001 b
b101000110100 ^
b11110011100110101001101100001110111010100101110011000 Y
b10010000100 X
b1110000111 W
1Z
b1011010011100010100001011011110000000010011001011001100010001100 C
b1011110110010111001011010111100110010001101101110100011110001010 B
b11 !"
b11000011010001111 1
b1 /
1#
#170000
b1100101101010100011110011101100110111000101100101001101000110011 %
b1100101101010100011110011101100110111000101100101001101000110011 6
b10101101000110010111011100100100101100010111011011101111010100 $
b10101101000110010111011100100100101100010111011011101111010100 4
b10000 .
0#
#175000
18
b11110011101000101110110001 =
1A
b1100101101010100011110011101100110111000101100101001101000110011 C
b10101101000110010111011100100100101100010111011011101111010100 B
b1101001110 X
b1111011001 W
1[
b10010100001011011110000000010011001011001100010001100 Y
b100000001011 ^
1_
b11000110101 b
b1110011001 e
b10110111001 h
0i
b1011011111 k
b1111001111 n
b10111000100000100011000110100011101001 y
b1111010100101101 ;
b1111010100101100 x
b1000110001111101 w
b10001000111100101110100110101010110111101100001011 <
b10001000111100101110100110101010110111101100001011 v
b1100 r
b10011110010110100110010101000110 q
b10100100111 s
b1001111000000011010110101010010000000110000110000101011110 {
b10001010100011000110011100101000100000011110011000101100100110101110111001101011100001110011010001010 z
b1000001110 |
b11110011101000101110110000 G
b10101101111110001111011111001000 H
b110011100111100111100010100110110101010001001001 E
b1110100000 F
1I
b1011001001100011001100111101010100111001110011110111101011000111001100100010111101000100001010010010000100 L
b1010001001 K
b111101100100111111100000111111111110101101111110100101101111110010001001001000010101100100100010010110100 P
b1111000100 O
b1011101011110101010011000110111000110110100000010 T
b1101100101 S
b11011001010001011101011110101010011000110111000110110100000010 !
b11011001010001011101011110101010011000110111000110110100000010 :
0U
b110101 !"
b10 /
b11000011010001110 1
1#
#180000
b1011010010110000111000111001010001011100001100010001110101101101 %
b1011010010110000111000111001010001011100001100010001110101101101 6
b1100010011010000000001100010111110001011001101001011100101111010 $
b1100010011010000000001100010111110001011001101001011100101111010 4
b10001 .
0#
#185000
08
1@
0A
b101000100101011110111101110 =
b1110110010011111110000011111111111010110111111010011 T
b11110001001110110010011111110000011111111111010110111111010011 !
b11110001001110110010011111110000011111111111010110111111010011 :
b1111000100 S
b101100100110001100110011110101010011100111001111011110101100011100110010001011110100010000101001001000010 P
b1010001010 O
b111100111010001011101100010101101111110001111011111001000110011100111100111100010100110110101010001001001 L
b1110100000 K
1M
b101000100101011110111101110 G
b1110101001010001001111000100011 H
b100100110101110111001101011100001110011010001010 E
b1000001110 F
b111101010010110101110001000001000110001101000111010011100 {
b10001000111100101110100110101010110111101100001011100011000111110110011110010110100110010101000110 z
b10100100111 |
b10001010110000001110101110111111100010 y
b1001010101100011 ;
b1001010101100010 x
b1110001000100011 w
b1101011011110000000101110000011110100000010000001001 <
b1101011011110000000101110000011110100000010000001001 v
b110 r
b11000000110011011110100110110001 q
b1111001111 s
b1011011111 n
b10110111001 k
0l
b1110011001 h
b11000110101 e
1c
b10000001100 b
b11100100111 ^
0_
b10100011110011101100110111000101100101001101000110011 Y
b10010110101 X
b1010110100 W
0Z
b1011010010110000111000111001010001011100001100010001110101101101 C
b1100010011010000000001100010111110001011001101001011100101111010 B
b11 !"
b11000011010001101 1
b11 /
1#
#190000
b1100011001111000110111111001000100100010010110010101110110011101 %
b1100011001111000110111111001000100100010010110010101110110011101 6
b10110000111000000111110110110110110011101011000001100101101100 $
b10110000111000000111110110110110110011101011000001100101101100 4
b10010 .
0#
#195000
18
b11110110001111110101011011 =
0@
1A
0?
b1100011001111000110111111001000100100010010110010101110110011101 C
b10110000111000000111110110110110110011101011000001100101101100 B
b1101001011 X
b10001001101 W
1Z
b10000111000111001010001011100001100010001110101101101 Y
b11101101001 ^
1_
0c
b1100101000 b
b10000001100 e
1f
b11000110101 h
b1110011001 k
b10110111001 n
0o
b1101001010100100010001100100011101100 y
b10110110010101001 ;
b10110110010101001 x
b11010100010010 w
b1111100111100001010110000111000001111101101010010110 <
b1111100111100001010110000111000001111101101010010110 v
b1000 r
b10110110011101011000101100111000 q
b1011011111 s
b100101010110001100010101100000011101011101111111000100110 {
b1101011011110000000101110000011110100000010000001001111000100010001111000000110011011110100110110001 z
b1111001111 |
b11110110001111110101011011 G
b101111011100100000100110100111 H
b100011000111110110011110010110100110010101000110 E
b10100100111 F
b1010001001010111101111011101110101001010001001111000100011100100110101110111001101011100001110011010001010 L
b1000001110 K
b111100111010001011101100010101101111110001111011111001000110011100111100111100010100110110101010001001001 P
b1110100000 O
1Q
b110010011000110011001111010101001110011100111101111 T
b10100010100110010011000110011001111010101001110011100111101111 !
b10100010100110010011000110011001111010101001110011100111101111 :
b1010001010 S
b110101 !"
b100 /
b11000011010001100 1
1#
#200000
b100011010000100001011100100110011000110101100101010000010101001 %
b100011010000100001011100100110011000110101100101010000010101001 6
b100100000000010110111110111001110000110100010110000001101010000 $
b100100000000010110111110111001110000110100010110000001101010000 4
b10011 .
0#
#205000
08
1@
0A
b10011100000110101001011000 =
b1110011101000101110110001010110111111000111101111101 T
b1110100000 S
b1011101000001110011101000101110110001010110111111000111101111101 !
b1011101000001110011101000101110110001010110111111000111101111101 :
1U
b101000100101011110111101110111010100101000100111100010001110010011010111011100110101110000111001101000101 P
b1000001111 O
b111101100011111101010110110101111011100100000100110100111100011000111110110011110010110100110010101000110 L
b10100100111 K
b10011100000110101001011000 G
b1110100001010010000001000101111 H
b111000100010001111000000110011011110100110110001 E
b1111001111 F
b1011011001010100111010010101001000100011001000111011001000 {
b1111100111100001010110000111000001111101101010010110001101010001001010110110011101011000101100111000 z
b1011011111 |
b10001010111001100100100101111001110001 y
b1110100111101001 ;
b1110100111101000 x
b1110110100111000 w
b10101110001100111110011011001111100111111010000001101 <
b10101110001100111110011011001111100111111010000001101 v
b100 r
b10111111110100100001001001001100 q
b10110111001 s
0t
b1110011001 n
b11000110101 k
b10000001100 h
1i
b1100101000 e
0f
1c
b1101101010 b
b11110011000 ^
0_
b11000110111111001000100100010010110010101110110011101 Y
b10001100111 X
b1011000011 W
0Z
b100011010000100001011100100110011000110101100101010000010101001 C
b100100000000010110111110111001110000110100010110000001101010000 B
b11 !"
b11000011010001011 1
b101 /
1#
#210000
b1100111100110000101011000101010001100001010001011100100100010000 %
b1100111100110000101011000101010001100001010001011100100100010000 6
b11111101110111001100011010111110111110011100111101100100010010 $
b11111101110111001100011010111110111110011100111101100100010010 4
b10100 .
0#
#215000
b101110100011110001101110101 =
0@
1?
b1100111100110000101011000101010001100001010001011100100100010000 C
b11111101110111001100011010111110111110011100111101100100010010 B
b10001101000 X
b10010000000 W
0[
b10100001011100100110011000110101100101010000010101001 Y
b11100101010 ^
1_
0c
b1110011001 b
b1101101010 e
1f
b1100101000 h
0i
b10000001100 k
1l
b11000110101 n
b10000111001101110111111001110010101100 y
b11010001001101100 ;
b11010001001101011 x
b11000101111110001 w
b101001011101000011110001000001101011111100001100110 <
b101001011101000011110001000001101011111100001100101 v
b111 r
b11100001011011110000011001101 q
b1110011001 s
b111010011110100100010101110011001001001011110011100010100 {
b10101110001100111110011011001111100111111010000001101111011010011100010111111110100100001001001001100 z
b10110111001 |
0}
b101110100011110001101110101 G
b1001111100101000110100101011110 H
b1101010001001010110110011101011000101100111000 E
b1011011111 F
b100111000001101010010110001110100001010010000001000101111111000100010001111000000110011011110100110110001 L
b1111001111 K
b111101100011111101010110110101111011100100000100110100111100011000111110110011110010110100110010101000110 P
b10100100111 O
b100010010101111011110111011101010010100010011110001 T
b1010000011110100010010101111011110111011101010010100010011110001 !
b1010000011110100010010101111011110111011101010010100010011110001 :
b1000001111 S
b110101 !"
b110 /
b11000011010001010 1
1#
#220000
b11101011110000111001111001110101011001101100001110011001010011 %
b11101011110000111001111001110101011001101100001110011001010011 6
b1100011101100100011001111100010010001111010010110001111110011001 $
b1100011101100100011001111100010010001111010010110001111110011001 4
b10101 .
0#
#225000
18
1A
b11110100110011000101010000 =
b1110110001111110101011011010111101110010000010011010 T
b1101001001111110110001111110101011011010111101110010000010011010 !
b1101001001111110110001111110101011011010111101110010000010011010 :
b10100100111 S
b100111000001101010010110001110100001010010000001000101111111000100010001111000000110011011110100110110001 P
b1111001111 O
b1011101000111100011011101011001111100101000110100101011110001101010001001010110110011101011000101100111000 L
b1011011111 K
b11110100110011000101010000 G
b1110011000110011101101100100001 H
b111011010011100010111111110100100001001001001100 E
b10110111001 F
0I
b1101000100110110000001110011011101111110011100101011000111 {
b101001011101000011110001000001101011111100001100110100010111111000100011100001011011110000011001101 z
b1110011001 |
b10010111010111001110100011110111011011 y
b1111011010010100 ;
b1111011010010011 x
b11010011000111100 w
b10111000000110011110111101010100100111001000101101111 <
b10111000000110011110111101010100100111001000101101110 v
b1000 r
b1111110010101001110001101011000 q
b11000110101 s
b10000001100 n
1o
b1100101000 k
0l
b1101101010 h
1i
b1110011001 e
0f
1c
b1100101011 b
b100011101000 ^
0_
b10000101011000101010001100001010001011100100100010000 Y
b10011110011 X
b1111110111 W
1[
b11101011110000111001111001110101011001101100001110011001010011 C
b1100011101100100011001111100010010001111010010110001111110011001 B
b11 !"
b11000011010001001 1
b111 /
1#
#230000
b11010110111000000011011101001010010010111100000011011011011010 %
b11010110111000000011011101001010010010111100000011011011011010 6
b100011101110010000011111111101010001000001010110001010011011101 $
b100011101110010000011111111101010001000001010110001010011011101 4
b10110 .
0#
#235000
b110100101000000110101001000 =
b11010110111000000011011101001010010010111100000011011011011010 C
b100011101110010000011111111101010001000001010110001010011011101 B
b1110101111 X
b10001110110 W
0[
1Z
b10000111001111001110101011001101100001110011001010011 Y
b100011101010 ^
1_
0c
b10011101001 b
b1100101011 e
1f
b1110011001 h
0i
b1101101010 k
1l
b1100101000 n
0o
b100011110110110110010101111001011111 y
b10100011100000011 ;
b10100011100000011 x
b1110110000101111 w
b1001110100100011001011110011111000101100110011010000 <
b1001110100100011001011110011111000101100110011010000 v
b0 r
b11011000111010110010000011000000 q
b10000001100 s
1t
b111101101001010000101110101110011101000111101110110111000 {
b10111000000110011110111101010100100111001000101101111101001100011110001111110010101001110001101011000 z
b11000110101 |
b110100101000000110101001000 G
b1100110001011111100001100101101 H
b100010111111000100011100001011011110000011001101 E
b1110011001 F
b111101001100110001010100001110011000110011101101100100001111011010011100010111111110100100001001001001100 L
b10110111001 K
0M
b101110100011110001101110101100111110010100011010010101111000110101000100101011011001110101100010110011100 P
b1011100000 O
b11100000110101001011000111010000101001000000100011 T
b1011110011110011100000110101001011000111010000101001000000100011 !
b1011110011110011100000110101001011000111010000101001000000100011 :
b1111001111 S
b110101 !"
b1000 /
b11000011010001000 1
1#
#240000
b11100001101001010111001001000000111001010101100110111100011011 %
b11100001101001010111001001000000111001010101100110111100011011 6
b101001010100111011101001011001110101111111111001001110110110011 $
b101001010100111011101001011001110101111111111001001110110110011 4
b10111 .
0#
