Spring_Final_Project/Operator/mont_add/mont_add_tb.vcd
$date
	Tue Jun 17 17:59:50 2025
$end
$version
	Icarus Verilog
$end
$timescale
	1ps
$end
$scope module tb_mont_add $end
$var wire 16 ! result [15:0] $end
$var wire 1 " out_valid $end
$var reg 1 # clk $end
$var reg 16 $ in_A [15:0] $end
$var reg 16 % in_B [15:0] $end
$var reg 1 & in_valid $end
$var reg 1 ' rst_n $end
$var integer 32 ( err [31:0] $end
$var integer 32 ) i [31:0] $end
$var integer 32 * j [31:0] $end
$scope module dut $end
$var wire 1 # clk $end
$var wire 16 + in_A [15:0] $end
$var wire 16 , in_B [15:0] $end
$var wire 1 & in_valid $end
$var wire 1 ' rst_n $end
$var wire 16 - result [15:0] $end
$var wire 1 " out_valid $end
$var wire 1 . cla_out_valid $end
$var wire 18 / cla2_result [17:0] $end
$var wire 16 0 cla1_result_tmp [15:0] $end
$var wire 18 1 cla1_result [17:0] $end
$scope module CLA17_1 $end
$var wire 17 2 A [16:0] $end
$var wire 17 3 B [16:0] $end
$var wire 1 4 Cin $end
$var wire 1 # clk $end
$var wire 1 & in_valid $end
$var wire 1 ' rst_n $end
$var wire 2 5 stage1_result_fa [1:0] $end
$var wire 18 6 result [17:0] $end
$var reg 1 . out_valid $end
$var reg 1 7 stage0_Cin $end
$var reg 17 8 stage0_in_A [16:0] $end
$var reg 17 9 stage0_in_B [16:0] $end
$var reg 1 : stage0_invalid $end
$var integer 32 ; i [31:0] $end
$scope module CLA1 $end
$var wire 8 < A [7:0] $end
$var wire 8 = B [7:0] $end
$var wire 1 > Cin $end
$var wire 9 ? result [8:0] $end
$var reg 9 @ C [8:0] $end
$var reg 8 A G [7:0] $end
$var reg 8 B P [7:0] $end
$var reg 8 C S [7:0] $end
$var integer 32 D i [31:0] $end
$upscope $end
$scope module CLA2 $end
$var wire 8 E A [7:0] $end
$var wire 8 F B [7:0] $end
$var wire 1 G Cin $end
$var wire 9 H result [8:0] $end
$var reg 9 I C [8:0] $end
$var reg 8 J G [7:0] $end
$var reg 8 K P [7:0] $end
$var reg 8 L S [7:0] $end
$var integer 32 M i [31:0] $end
$upscope $end
$scope module CLA3 $end
$var wire 8 N A [7:0] $end
$var wire 8 O B [7:0] $end
$var wire 1 P Cin $end
$var wire 9 Q result [8:0] $end
$var reg 9 R C [8:0] $end
$var reg 8 S G [7:0] $end
$var reg 8 T P [7:0] $end
$var reg 8 U S [7:0] $end
$var integer 32 V i [31:0] $end
$upscope $end
$scope module FA1 $end
$var wire 1 W A $end
$var wire 1 X B $end
$var wire 1 Y Cin $end
$var wire 1 Z Sum $end
$var wire 1 [ Cout $end
$upscope $end
$scope module FA2 $end
$var wire 1 \ A $end
$var wire 1 ] B $end
$var wire 1 ^ Cin $end
$var wire 1 _ Sum $end
$var wire 1 ` Cout $end
$upscope $end
$upscope $end
$scope module CLA17_2 $end
$var wire 17 a A [16:0] $end
$var wire 17 b B [16:0] $end
$var wire 1 c Cin $end
$var wire 1 # clk $end
$var wire 1 . in_valid $end
$var wire 1 ' rst_n $end
$var wire 2 d stage1_result_fa [1:0] $end
$var wire 18 e result [17:0] $end
$var reg 1 " out_valid $end
$var reg 1 f stage0_Cin $end
$var reg 17 g stage0_in_A [16:0] $end
$var reg 17 h stage0_in_B [16:0] $end
$var reg 1 i stage0_invalid $end
$var integer 32 j i [31:0] $end
$scope module CLA1 $end
$var wire 8 k A [7:0] $end
$var wire 8 l B [7:0] $end
$var wire 1 m Cin $end
$var wire 9 n result [8:0] $end
$var reg 9 o C [8:0] $end
$var reg 8 p G [7:0] $end
$var reg 8 q P [7:0] $end
$var reg 8 r S [7:0] $end
$var integer 32 s i [31:0] $end
$upscope $end
$scope module CLA2 $end
$var wire 8 t A [7:0] $end
$var wire 8 u B [7:0] $end
$var wire 1 v Cin $end
$var wire 9 w result [8:0] $end
$var reg 9 x C [8:0] $end
$var reg 8 y G [7:0] $end
$var reg 8 z P [7:0] $end
$var reg 8 { S [7:0] $end
$var integer 32 | i [31:0] $end
$upscope $end
$scope module CLA3 $end
$var wire 8 } A [7:0] $end
$var wire 8 ~ B [7:0] $end
$var wire 1 !" Cin $end
$var wire 9 "" result [8:0] $end
$var reg 9 #" C [8:0] $end
$var reg 8 $" G [7:0] $end
$var reg 8 %" P [7:0] $end
$var reg 8 &" S [7:0] $end
$var integer 32 '" i [31:0] $end
$upscope $end
$scope module FA1 $end
$var wire 1 (" A $end
$var wire 1 )" B $end
$var wire 1 *" Cin $end
$var wire 1 +" Sum $end
$var wire 1 ," Cout $end
$upscope $end
$scope module FA2 $end
$var wire 1 -" A $end
$var wire 1 ." B $end
$var wire 1 /" Cin $end
$var wire 1 0" Sum $end
$var wire 1 1" Cout $end
$upscope $end
$upscope $end
$upscope $end
$upscope $end
$enddefinitions $end
#0
$dumpvars
01"
10"
1/"
0."
0-"
0,"
0+"
0*"
0)"
0("
b1000 '"
b1 &"
b0 %"
b0 $"
b1 #"
b1 ""
1!"
b0 ~
b0 }
b1000 |
b0 {
b0 z
b0 y
b0 x
b0 w
0v
b0 u
b0 t
b1000 s
b0 r
b0 q
b0 p
b0 o
b0 n
0m
b0 l
b0 k
b10 j
0i
b0 h
b0 g
0f
b0 e
b0 d
0c
b11100111111111111 b
b0 a
0`
1_
1^
0]
0\
0[
0Z
0Y
0X
0W
b1000 V
b1 U
b0 T
b0 S
b1 R
b1 Q
1P
b0 O
b0 N
b1000 M
b0 L
b0 K
b0 J
b0 I
b0 H
0G
b0 F
b0 E
b1000 D
b0 C
b0 B
b0 A
b0 @
b0 ?
0>
b0 =
b0 <
b10 ;
0:
b0 9
b0 8
07
b0 6
b0 5
04
b0 3
b0 2
b0 1
b0 0
b0 /
0.
b0 -
b0 ,
b0 +
b0 *
bx )
b0 (
0'
0&
b0 %
b0 $
0#
0"
b0 !
$end
#5000
b10 j
b10 ;
1#
#10000
0#
#15000
b10 ;
b10 j
1#
#20000
0#
#25000
b10 j
b10 ;
1#
#30000
0#
#35000
b10 ;
b10 j
1#
#40000
0#
#45000
b11111111 n
b11111111 r
b11001111 w
b11001111 {
b11010000 ""
b11010000 &"
b11111 #"
b11111111 q
b1000 s
b11001111 z
b1000 |
b11001111 %"
b1000 '"
1+"
00"
11"
b11111111 l
b11001111 u
b11001111 ~
1)"
1."
b11100111111111111 h
b10 j
b10 ;
1'
1#
#50000
0#
#55000
b0 !
b0 -
b1 d
b11100111111111111 /
b11100111111111111 e
b10 ;
b10 j
1#
#60000
0#
#65000
b10 j
b10 ;
b0 )
1#
#70000
0#
#75000
1&
b10001110110111 3
b10001110110111 %
b10001110110111 ,
b1100011001000 2
b1100011001000 $
b1100011001000 +
b10 ;
b10 j
b1 )
1#
#80000
0#
#85000
b101111111 ?
b1111111 C
b100000000 @
b111011 H
b111011 L
b111100 Q
b111100 U
b111 R
b10000000 A
b1111111 B
b1000 D
b111011 K
b1000 M
b111011 T
b1000 V
b10110111 =
b100011 F
b100011 O
b11001000 <
b11000 E
b11000 N
1:
b10001110110111 9
b1100011001000 8
b1001010111110 3
b1001010111110 %
b1001010111110 ,
b1101010101000 2
b1101010101000 $
b1101010101000 +
b10 j
b10 ;
b10 )
1#
#90000
0#
#95000
b101100110 ?
b1100110 C
b101110000 @
b101101 Q
b101101 U
b100101 R
b101100 H
b101100 L
b100100 I
b10101000 A
b10110 B
b1000 D
b10010 S
b1000 T
b1000 V
b10010 J
b1000 K
b1000 M
b11110001111111 a
b11110001111111 0
b10111110 =
b10010 F
b10010 O
b10101000 <
b11010 E
b11010 N
b11110001111111 1
b11110001111111 6
b1001010111110 9
b1101010101000 8
1.
b10010010010010 3
b10010010010010 %
b10010010010010 ,
b10100110001001 2
b10100110001001 $
b10100110001001 +
b10 ;
b10 j
b11 )
1#
#100000
0#
#105000
b101111110 n
b1111110 r
b111111110 o
b100001100 ""
b1100 &"
b111111111 #"
b100001011 w
b1011 {
b111111000 x
b100011011 ?
b11011 C
b100000000 @
b1001101 H
b1001101 L
b1000000 I
b1001110 Q
b1001110 U
b1000011 R
b10000000 q
b1111111 p
b1000 s
b11110011 %"
b1100 $"
b1000 '"
b11110011 z
b1100 y
b1000 |
b10110101100110 a
b10110101100110 0
b10000000 A
b11011 B
b1000 D
b100000 J
b1101 K
b1000 M
b100000 S
b1101 T
b1000 V
b1111111 k
b111100 t
b111100 }
b10110101100110 1
b10110101100110 6
b10010010 =
b100100 F
b100100 O
b10001001 <
b101001 E
b101001 N
1i
b11110001111111 g
b10010010010010 9
b10100110001001 8
b111000110111 3
b111000110111 %
b111000110111 ,
b1101110000101 2
b1101110000101 $
b1101110000101 +
b10 j
b10 ;
b100 )
1#
#110000
0#
#115000
b10 d
b10111100 ?
b10111100 C
b1110 @
b101010 Q
b101010 U
b111111 R
b101001 H
b101001 L
b111100 I
b101100101 n
b1100101 r
b111111100 o
b11111100 w
b11111100 {
b11110 x
b11111101 ""
b11111101 &"
b11111 #"
b10110010 B
b101 A
b1000 D
b10101 T
b1010 S
b1000 V
b10101 K
b1010 J
b1000 M
b100111000011011 a
b100111000011011 0
b10011001 q
b1100110 p
b1000 s
b11100010 z
b1101 y
b1000 |
b11100010 %"
b1101 $"
b1000 '"
b110111 =
b1110 F
b1110 O
b10000101 <
b11011 E
b11011 N
b100111000011011 1
b100111000011011 6
b1100110 k
b101101 t
b101101 }
b100000110001111110 /
b100000110001111110 e
b110001111110 !
b110001111110 -
b111000110111 9
b1101110000101 8
b10110101100110 g
1"
b10010110111111 3
b10010110111111 %
b10010110111111 ,
b10011110110000 2
b10011110110000 $
b10011110110000 +
b10 ;
b10 j
b101 )
1#
#120000
0#
#125000
b1 d
b10110101100110 !
b10110101100110 -
b100011010 n
b11010 r
b111111110 o
b100011110 ""
b11110 &"
b110011111 #"
b100011101 w
b11101 {
b110011100 x
b101101111 ?
b1101111 C
b101100000 @
b1001100 H
b1001100 L
b1001110 I
b1001101 Q
b1001101 U
b1001111 R
b11100100 q
b11011 p
b1000 s
b10000001 %"
b1001110 $"
b1000 '"
b10000001 z
b1001110 y
b1000 |
b10100110111100 a
b10100110111100 0
b1111 B
b10110000 A
b1000 D
b10 K
b100101 J
b1000 M
b10 T
b100101 S
b1000 V
b11111110101100101 /
b11111110101100101 e
b11011 k
b1001110 t
b1001110 }
b10100110111100 1
b10100110111100 6
b10111111 =
b100101 F
b100101 O
b10110000 <
b100111 E
b100111 N
b100111000011011 g
b10010110111111 9
b10011110110000 8
b10101010100111 3
b10101010100111 %
b10101010100111 ,
b100010110000 2
b100010110000 $
b100010110000 +
b10 j
b10 ;
b110 )
1#
#130000
b1 *
0#
#135000
b10 d
b101010111 ?
b1010111 C
b101000000 @
b110011 Q
b110011 U
b10001 R
b110010 H
b110010 L
b10000 I
b110111011 n
b10111011 r
b111111000 o
b11111000 w
b11111000 {
b11110 x
b11111001 ""
b11111001 &"
b11111 #"
b10100000 A
b10111 B
b1000 D
b100010 T
b1000 S
b1000 V
b100010 K
b1000 J
b1000 M
b100110101101111 a
b100110101101111 0
b1000011 q
b10111100 p
b1000 s
b11100110 z
b1001 y
b1000 |
b11100110 %"
b1001 $"
b1000 '"
b10100111 =
b101010 F
b101010 O
b1000 E
b1000 N
b100110101101111 1
b100110101101111 6
b10111100 k
b101001 t
b101001 }
b100001111000011010 /
b100001111000011010 e
b1111000011010 !
b1111000011010 -
b10101010100111 9
b100010110000 8
b10100110111100 g
b1010011000101 3
b1010011000101 %
b1010011000101 ,
b1011000001000 2
b1011000001000 $
b1011000001000 +
b10 ;
b10 j
b111 )
1#
#140000
b10 *
0#
#145000
b1 d
b10100110111100 !
b10100110111100 -
b101101110 n
b1101110 r
b111111110 o
b100011101 ""
b11101 &"
b110011111 #"
b100011100 w
b11100 {
b110011110 x
b11001101 ?
b11001101 C
b0 @
b101010 H
b101010 L
b101000 I
b101011 Q
b101011 U
b101001 R
b10010000 q
b1101111 p
b1000 s
b10000010 %"
b1001101 $"
b1000 '"
b10000010 z
b1001101 y
b1000 |
b11001101010111 a
b11001101010111 0
b0 A
b11001101 B
b1000 D
b10 K
b10100 J
b1000 M
b10 T
b10100 S
b1000 V
b11111100110111011 /
b11111100110111011 e
b1101111 k
b1001101 t
b1001101 }
b11001101010111 1
b11001101010111 6
b11000101 =
b10100 F
b10100 O
b1000 <
b10110 E
b10110 N
b100110101101111 g
b1010011000101 9
b1011000001000 8
b101001010010 3
b101001010010 %
b101001010010 ,
b1010100101110 2
b1010100101110 $
b1010100101110 +
b10 j
b10 ;
b1000 )
1#
#150000
b11 *
0#
#155000
b10 d
b10000000 ?
b10000000 C
b11111100 @
b100000 Q
b100000 U
b111111 R
b11111 H
b11111 L
b0 I
b101010110 n
b1010110 r
b100000010 w
b10 {
b111111110 x
b100000011 ""
b11 &"
b111111111 #"
b10 A
b1111100 B
b1000 D
b0 S
b11111 T
b1000 V
b0 J
b11111 K
b1000 M
b10101011001101 a
b10101011001101 0
b10101000 q
b1010111 p
b1000 s
b11111100 z
b11 y
b1000 |
b11111100 %"
b11 $"
b1000 '"
b1010010 =
b1010 F
b1010 O
b101110 <
b10101 E
b10101 N
b10101011001101 1
b10101011001101 6
b1010111 k
b110011 t
b110011 }
b100001110101101110 /
b100001110101101110 e
b1110101101110 !
b1110101101110 -
b101001010010 9
b1010100101110 8
b11001101010111 g
b1001111000101 3
b1001111000101 %
b1001111000101 ,
b1011010110101 2
b1011010110101 $
b1011010110101 +
b10 ;
b10 j
b1001 )
1#
#160000
b100 *
0#
#165000
b1101010110 !
b1101010110 -
b111001100 n
b11001100 r
b11111010 ""
b11111010 &"
b11111 #"
b11111001 w
b11111001 {
b11100 x
b101111010 ?
b1111010 C
b100001010 @
b101001 H
b101001 L
b101100 I
b101010 Q
b101010 U
b101111 R
b110010 q
b11001101 p
b1000 s
b11100101 %"
b1010 $"
b1000 '"
b11100101 z
b1010 y
b1000 |
b1111110000000 a
b1111110000000 0
b1110000 B
b10000101 A
b1000 D
b101 K
b10010 J
b1000 M
b101 T
b10010 S
b1000 V
b100000001101010110 /
b100000001101010110 e
b11001101 k
b101010 t
b101010 }
b1111110000000 1
b1111110000000 6
b11000101 =
b10011 F
b10011 O
b10110101 <
b10110 E
b10110 N
b10101011001101 g
b1001111000101 9
b1011010110101 8
b1001111101 3
b1001111101 %
b1001111101 ,
b10101111001000 2
b10101111001000 $
b10101111001000 +
b10 j
b10 ;
b1010 )
1#
#170000
b101 *
0#
#175000
b1 d
b101000101 ?
b1000101 C
b111110000 @
b101110 Q
b101110 U
b111 R
b101101 H
b101101 L
b100 I
b101111111 n
b1111111 r
b100000000 o
b11101110 w
b11101110 {
b111110 x
b11101111 ""
b11101111 &"
b111111 #"
b10101011001101 !
b10101011001101 -
b10110101 B
b1001000 A
b1000 D
b10 S
b101001 T
b1000 V
b10 J
b101001 K
b1000 M
b10101001111010 a
b10101001111010 0
b1111111 q
b10000000 p
b1000 s
b11010000 z
b1111 y
b1000 |
b11010000 %"
b1111 $"
b1000 '"
b1111101 =
b10 F
b10 O
b11001000 <
b101011 E
b101011 N
b10101001111010 1
b10101001111010 6
b10000000 k
b11111 t
b11111 }
b11111101011001100 /
b11111101011001100 e
b1001111101 9
b10101111001000 8
b1111110000000 g
b1000100101101 3
b1000100101101 %
b1000100101101 ,
b1010000000111 2
b1010000000111 $
b1010000000111 +
b10 ;
b10 j
b1011 )
1#
#180000
b110 *
0#
#185000
b101111001 n
b1111001 r
b111111100 o
b11111010 ""
b11111010 &"
b11111 #"
b11111001 w
b11111001 {
b11100 x
b110100 ?
b110100 C
b11110 @
b100101 H
b100101 L
b100000 I
b100110 Q
b100110 U
b100011 R
b10000101 q
b1111010 p
b1000 s
b11100101 %"
b1010 $"
b1000 '"
b11100101 z
b1010 y
b1000 |
b10111001000101 a
b10111001000101 0
b101010 B
b101 A
b1000 D
b101 K
b10000 J
b1000 M
b101 T
b10000 S
b1000 V
b1111110000000 !
b1111110000000 -
b11110111101111111 /
b11110111101111111 e
b1111010 k
b101010 t
b101010 }
b10111001000101 1
b10111001000101 6
b101101 =
b10001 F
b10001 O
b111 <
b10100 E
b10100 N
b10101001111010 g
b1000100101101 9
b1010000000111 8
b1110100110100 3
b1110100110100 %
b1110100110100 ,
b1110101 2
b1110101 $
b1110101 +
b10 j
b10 ;
b1100 )
1#
#190000
b111 *
0#
#195000
b10101001 ?
b10101001 C
b11101000 @
b11110 Q
b11110 U
b11 R
b11101 H
b11101 L
b0 I
b101000100 n
b1000100 r
b111111110 o
b11111101 w
b11111101 {
b11111110 ""
b11111110 &"
b1000001 B
b110100 A
b1000 D
b0 S
b11101 T
b1000 V
b0 J
b11101 K
b1000 M
b10010100110100 a
b10010100110100 0
b10111010 q
b1000101 p
b1000 s
b11100001 z
b1110 y
b1000 |
b11100001 %"
b1110 $"
b1000 '"
b110100 =
b11101 F
b11101 O
b1110101 <
b0 E
b0 N
b10010100110100 1
b10010100110100 6
b1000101 k
b101110 t
b101110 }
b11111101001111001 /
b11111101001111001 e
b10101001111010 !
b10101001111010 -
b1110100110100 9
b1110101 8
b10111001000101 g
b10101001010100 3
b10101001010100 %
b10101001010100 ,
b1111001100010 2
b1111001100010 $
b1111001100010 +
b10 ;
b10 j
b1101 )
1#
#200000
b1000 *
0#
#205000
b100110011 n
b110011 r
b111111000 o
b11110101 ""
b11110101 &"
b11110100 w
b11110100 {
b11110 x
b10110110 ?
b10110110 C
b10000000 @
b1001000 H
b1001000 L
b1111100 I
b1001001 Q
b1001001 U
b1111101 R
b11001011 q
b110100 p
b1000 s
b11101010 %"
b101 $"
b1000 '"
b11101010 z
b101 y
b1000 |
b1110110101001 a
b1110110101001 0
b1000000 A
b110110 B
b1000 D
b1010 J
b110100 K
b1000 M
b1010 S
b110100 T
b1000 V
b10111001000101 !
b10111001000101 -
b11111111001000100 /
b11111111001000100 e
b110100 k
b100101 t
b100101 }
b1110110101001 1
b1110110101001 6
b1010100 =
b101010 F
b101010 O
b1100010 <
b11110 E
b11110 N
b10010100110100 g
b10101001010100 9
b1111001100010 8
b101111001101 3
b101111001101 %
b101111001101 ,
b1101101011011 2
b1101101011011 $
b1101101011011 +
b10 j
b10 ;
b1110 )
1#
#210000
b1001 *
0#
#215000
b100101000 ?
b101000 C
b110111110 @
b100111 Q
b100111 U
b110111 R
b100110 H
b100110 L
b110110 I
b110101000 n
b10101000 r
b111111110 o
b11101100 w
b11101100 {
b111110 x
b11101101 ""
b11101101 &"
b111111 #"
b10010110 B
b1001001 A
b1000 D
b10000 T
b1011 S
b1000 V
b10000 K
b1011 J
b1000 M
b100100010110110 a
b100100010110110 0
b1010110 q
b10101001 p
b1000 s
b11010010 z
b1101 y
b1000 |
b11010010 %"
b1101 $"
b1000 '"
b11001101 =
b1011 F
b1011 O
b1011011 <
b11011 E
b11011 N
b100100010110110 1
b100100010110110 6
b10101001 k
b11101 t
b11101 }
b11111010100110011 /
b11111010100110011 e
b10010100110100 !
b10010100110100 -
b101111001101 9
b1101101011011 8
b1110110101001 g
b10101010101101 3
b10101010101101 %
b10101010101101 ,
b100000000000 2
b100000000000 $
b100000000000 +
b10 ;
b10 j
b1111 )
1#
#220000
b1010 *
0#
#225000
b110110101 n
b10110101 r
b111111100 o
b100011000 ""
b11000 &"
b110011111 #"
b100010111 w
b10111 {
b110010000 x
b10101101 ?
b10101101 C
b0 @
b110010 H
b110010 L
b10000 I
b110011 Q
b110011 U
b10001 R
b1001001 q
b10110110 p
b1000 s
b10000111 %"
b1001000 $"
b1000 '"
b10000111 z
b1001000 y
b1000 |
b10011100101000 a
b10011100101000 0
b10101101 B
b0 A
b1000 D
b100010 K
b1000 J
b1000 M
b100010 T
b1000 S
b1000 V
b1110110101001 !
b1110110101001 -
b11110110110101000 /
b11110110110101000 e
b10110110 k
b1001000 t
b1001000 }
b10011100101000 1
b10011100101000 6
b10101101 =
b101010 F
b101010 O
b0 <
b1000 E
b1000 N
b100100010110110 g
b10101010101101 9
b100000000000 8
b11000101101 3
b11000101101 %
b11000101101 ,
b1000011001101 2
b1000011001101 $
b1000011001101 +
b10 j
b10 ;
b10000 )
1#
#230000
b1011 *
0#
#235000
b10 d
b11111010 ?
b11111010 C
b11010 @
b10111 Q
b10111 U
b1 R
b10110 H
b10110 L
b0 I
b100100111 n
b100111 r
b111110000 o
b11110110 w
b11110110 {
b11110 x
b11110111 ""
b11110111 &"
b11111 #"
b11100000 B
b1101 A
b1000 D
b0 S
b10110 T
b1000 V
b0 J
b10110 K
b1000 M
b11001010101101 a
b11001010101101 0
b11010111 q
b101000 p
b1000 s
b11101000 z
b111 y
b1000 |
b11101000 %"
b111 $"
b1000 '"
b101101 =
b110 F
b110 O
b11001101 <
b10000 E
b10000 N
b11001010101101 1
b11001010101101 6
b101000 k
b100111 t
b100111 }
b100001100010110101 /
b100001100010110101 e
b1100010110101 !
b1100010110101 -
b11000101101 9
b1000011001101 8
b10011100101000 g
b10110101111110 3
b10110101111110 %
b10110101111110 ,
b101111111111 2
b101111111111 $
b101111111111 +
b10 ;
b10 j
b10001 )
1#
#240000
b1100 *
0#
#245000
b1 d
b10011100101000 !
b10011100101000 -
b110101100 n
b10101100 r
b111111110 o
b100000010 ""
b10 &"
b111111111 #"
b100000001 w
b1 {
b111111100 x
b101111101 ?
b1111101 C
b111111100 @
b111000 H
b111000 L
b11110 I
b111001 Q
b111001 U
b11111 R
b1010010 q
b10101101 p
b1000 s
b11111101 %"
b10 $"
b1000 '"
b11111101 z
b10 y
b1000 |
b1011011111010 a
b1011011111010 0
b10000001 B
b1111110 A
b1000 D
b100110 K
b1001 J
b1000 M
b100110 T
b1001 S
b1000 V
b11111011100100111 /
b11111011100100111 e
b10101101 k
b110010 t
b110010 }
b1011011111010 1
b1011011111010 6
b1111110 =
b101101 F
b101101 O
b11111111 <
b1011 E
b1011 N
b11001010101101 g
b10110101111110 9
b101111111111 8
b100100100001 3
b100100100001 %
b100100100001 ,
b11001000111 2
b11001000111 $
b11001000111 +
b10 j
b10 ;
b10010 )
1#
#250000
b1101 *
0#
#255000
b10 d
b1101000 ?
b1101000 C
b1110 @
b10000 Q
b10000 U
b1111 H
b1111 L
b0 I
b111111001 n
b11111001 r
b111111100 o
b11100101 w
b11100101 {
b111100 x
b11100110 ""
b11100110 &"
b111111 #"
b1100110 B
b1 A
b1000 D
b1111 T
b0 S
b1000 V
b1111 K
b0 J
b1000 M
b11100101111101 a
b11100101111101 0
b101 q
b11111010 p
b1000 s
b11011001 z
b110 y
b1000 |
b11011001 %"
b110 $"
b1000 '"
b100001 =
b1001 F
b1001 O
b1000111 <
b110 E
b110 N
b11100101111101 1
b11100101111101 6
b11111010 k
b10110 t
b10110 }
b100000001010101100 /
b100000001010101100 e
b1010101100 !
b1010101100 -
b100100100001 9
b11001000111 8
b1011011111010 g
b10101001101011 3
b10101001101011 %
b10101001101011 ,
b10011010010001 2
b10011010010001 $
b10011010010001 +
b10 ;
b10 j
b10011 )
1#
#260000
b1110 *
0#
#265000
b1 d
b1011011111010 !
b1011011111010 -
b101111100 n
b1111100 r
b111111110 o
b100001001 ""
b1001 &"
b111111111 #"
b100001000 w
b1000 {
b111111110 x
b11111100 ?
b11111100 C
b110 @
b1010000 H
b1010000 L
b1011100 I
b1010001 Q
b1010001 U
b1011101 R
b10000010 q
b1111101 p
b1000 s
b11110110 %"
b1001 $"
b1000 '"
b11110110 z
b1001 y
b1000 |
b111101101000 a
b111101101000 0
b11111010 B
b1000 D
b100010 J
b1100 K
b1000 M
b100010 S
b1100 T
b1000 V
b11110011011111001 /
b11110011011111001 e
b1111101 k
b111001 t
b111001 }
b111101101000 1
b111101101000 6
b1101011 =
b101010 F
b101010 O
b10010001 <
b100110 E
b100110 N
b11100101111101 g
b10101001101011 9
b10011010010001 8
b1111011101000 3
b1111011101000 %
b1111011101000 ,
b111100001110 2
b111100001110 $
b111100001110 +
b10 j
b10 ;
b10100 )
1#
#270000
b1111 *
0#
#275000
b10 d
b11110110 ?
b11110110 C
b10000 @
b101110 Q
b101110 U
b111111 R
b101101 H
b101101 L
b111100 I
b101100111 n
b1100111 r
b111110000 o
b11011110 w
b11011110 {
b11110 x
b11011111 ""
b11011111 &"
b11111 #"
b11100110 B
b1000 A
b1000 D
b1110 S
b10001 T
b1000 V
b1110 J
b10001 K
b1000 M
b101000011111100 a
b101000011111100 0
b10010111 q
b1101000 p
b1000 s
b11000000 z
b1111 y
b1000 |
b11000000 %"
b1111 $"
b1000 '"
b11101000 =
b11110 F
b11110 O
b1110 <
b1111 E
b1111 N
b101000011111100 1
b101000011111100 6
b1101000 k
b1111 t
b1111 }
b100000100101111100 /
b100000100101111100 e
b100101111100 !
b100101111100 -
b1111011101000 9
b111100001110 8
b111101101000 g
b10 ;
b10 j
1#
#280000
b10000 *
0#
#285000
b1 d
b111101101000 !
b111101101000 -
b111111011 n
b11111011 r
b111111000 o
b100100000 ""
b100000 &"
b110111111 #"
b100011111 w
b11111 {
b110000000 x
b11 q
b11111100 p
b1000 s
b10011111 %"
b1000000 $"
b1000 '"
b10011111 z
b1000000 y
b1000 |
b10110111110110 a
b10110111110110 0
b11101111101100111 /
b11101111101100111 e
b11111100 k
b1010000 t
b1010000 }
b10110111110110 1
b10110111110110 6
b101000011111100 g
b10 j
b10 ;
1#
#290000
b10001 *
0#
#295000
b10 d
b111110101 n
b11110101 r
b111111100 o
b11111100 w
b11111100 {
b11110 x
b11111101 ""
b11111101 &"
b11111 #"
b1001 q
b11110110 p
b1000 s
b11100010 z
b1101 y
b1000 |
b11100010 %"
b1101 $"
b1000 '"
b11110110 k
b101101 t
b101101 }
b100010000011111011 /
b100010000011111011 e
b10000011111011 !
b10000011111011 -
b10110111110110 g
b10 ;
b10 j
1#
#300000
b10010 *
0#
#305000
b1 d
b10110111110110 !
b10110111110110 -
b11111110111110101 /
b11111110111110101 e
b10 j
b10 ;
1#
#310000
b10011 *
0#
#315000
b10 ;
b10 j
1#
#320000
b10100 *
0#
#325000
b10 j
b10 ;
1#
#330000
0#
#335000
b10 ;
b10 j
1#
#340000
0#
#345000
b10 j
b10 ;
1#
#350000
0#
#355000
b10 ;
b10 j
1#
#360000
0#
#365000
b10 j
b10 ;
1#
#370000
0#
#375000
b10 ;
b10 j
1#
#380000
0#
#385000
b10 j
b10 ;
1#
#390000
0#
#395000
b10 ;
b10 j
1#
#400000
0#
#405000
b10 j
b10 ;
1#
#410000
0#
#415000
b10 ;
b10 j
1#
#420000
0#
#425000
b10 j
b10 ;
1#
#430000
0#
#435000
b10 ;
b10 j
1#
#440000
0#
#445000
b10 j
b10 ;
1#
#450000
0#
#455000
b10 ;
b10 j
1#
#460000
0#
#465000
b10 j
b10 ;
1#
#470000
0#
#475000
b10 ;
b10 j
1#
#480000
0#
#485000
b10 j
b10 ;
1#
#490000
0#
#495000
b10 ;
b10 j
1#
#500000
0#
#505000
b10 j
b10 ;
1#
#510000
0#
#515000
b10 ;
b10 j
1#
