Spring_Final_Project/Operator/FLOAT_ADD/add.vcd
$date
	Fri May 23 20:47:53 2025
$end
$version
	Icarus Verilog
$end
$timescale
	1ps
$end
$scope module FLOAT_ADD_tb $end
$var wire 64 ! result [63:0] $end
$var wire 1 " ready $end
$var reg 1 # clk $end
$var reg 64 $ num1 [63:0] $end
$var reg 64 % num2 [63:0] $end
$var reg 1 & rstn $end
$var reg 64 ' t1 [63:0] $end
$var reg 64 ( t2 [63:0] $end
$var reg 64 ) t3 [63:0] $end
$var reg 1 * valid $end
$var integer 32 + errors [31:0] $end
$var integer 32 , fd [31:0] $end
$var integer 32 - i [31:0] $end
$var integer 32 . j [31:0] $end
$var integer 32 / k [31:0] $end
$var integer 32 0 r [31:0] $end
$var integer 32 1 timeout [31:0] $end
$scope module uut $end
$var wire 1 2 check_denor1 $end
$var wire 1 3 check_denor2 $end
$var wire 1 # clk $end
$var wire 64 4 num1 [63:0] $end
$var wire 64 5 num2 [63:0] $end
$var wire 1 " ready $end
$var wire 1 6 round_up1 $end
$var wire 1 7 round_up2 $end
$var wire 1 & rstn $end
$var wire 1 * valid $end
$var wire 64 8 result [63:0] $end
$var wire 64 9 pip7_result [63:0] $end
$var wire 53 : pip3_mantissa2_tmp [52:0] $end
$var wire 53 ; pip3_mantissa1_tmp [52:0] $end
$var wire 105 < pip2_mantissa2_shifted [104:0] $end
$var wire 105 = pip2_mantissa2_shift [104:0] $end
$var wire 105 > pip2_mantissa1_shifted [104:0] $end
$var wire 105 ? pip2_mantissa1_shift [104:0] $end
$var wire 1 @ Sticky_2 $end
$var wire 1 A Sticky_1 $end
$var wire 1 B Round_2 $end
$var wire 1 C Round_1 $end
$var wire 1 D LSB_2 $end
$var wire 1 E LSB_1 $end
$var wire 1 F Guard_2 $end
$var wire 1 G Guard_1 $end
$var reg 6 H lod_pos [5:0] $end
$var reg 11 I pip1_exponent1 [10:0] $end
$var reg 11 J pip1_exponent2 [10:0] $end
$var reg 52 K pip1_mantissa1 [51:0] $end
$var reg 52 L pip1_mantissa2 [51:0] $end
$var reg 1 M pip1_sign1 $end
$var reg 1 N pip1_sign2 $end
$var reg 1 O pip1_valid $end
$var reg 11 P pip2_exponent1 [10:0] $end
$var reg 11 Q pip2_exponent2 [10:0] $end
$var reg 12 R pip2_exponent_diff [11:0] $end
$var reg 53 S pip2_mantissa1 [52:0] $end
$var reg 53 T pip2_mantissa2 [52:0] $end
$var reg 1 U pip2_sign1 $end
$var reg 1 V pip2_sign2 $end
$var reg 1 W pip2_valid $end
$var reg 11 X pip3_exponent1 [10:0] $end
$var reg 11 Y pip3_exponent2 [10:0] $end
$var reg 53 Z pip3_mantissa1 [52:0] $end
$var reg 53 [ pip3_mantissa1_next [52:0] $end
$var reg 53 \ pip3_mantissa2 [52:0] $end
$var reg 53 ] pip3_mantissa2_next [52:0] $end
$var reg 1 ^ pip3_sign1 $end
$var reg 1 _ pip3_sign2 $end
$var reg 1 ` pip3_valid $end
$var reg 1 a pip4_compare $end
$var reg 11 b pip4_exponent1 [10:0] $end
$var reg 11 c pip4_exponent2 [10:0] $end
$var reg 53 d pip4_mantissaA [52:0] $end
$var reg 53 e pip4_mantissaB [52:0] $end
$var reg 1 f pip4_sign1 $end
$var reg 1 g pip4_sign2 $end
$var reg 1 h pip4_valid $end
$var reg 54 i pip5_add [53:0] $end
$var reg 1 j pip5_complement $end
$var reg 1 k pip5_complement_tmp $end
$var reg 11 l pip5_exponent [10:0] $end
$var reg 54 m pip5_mantissa [53:0] $end
$var reg 1 n pip5_sign $end
$var reg 1 o pip5_sign_tmp $end
$var reg 54 p pip5_sub [53:0] $end
$var reg 1 q pip5_valid $end
$var reg 11 r pip6_exponent [10:0] $end
$var reg 54 s pip6_mantissa [53:0] $end
$var reg 1 t pip6_sign $end
$var reg 1 u pip6_valid $end
$var reg 11 v pip7_exponent [10:0] $end
$var reg 54 w pip7_mantissa [53:0] $end
$var reg 1 x pip7_sign $end
$var reg 1 y pip7_valid $end
$var reg 11 z pip8_exponent [10:0] $end
$var reg 52 { pip8_mantissa [51:0] $end
$var reg 54 | pip8_mantissa_shift [53:0] $end
$var reg 1 } pip8_sign $end
$var reg 1 ~ pip8_valid $end
$var reg 6 !" shift [5:0] $end
$upscope $end
$upscope $end
$enddefinitions $end
#0
$dumpvars
b110100 !"
0~
0}
b0 |
b0 {
b0 z
0y
0x
b0 w
b0 v
0u
0t
b0 s
b0 r
0q
b0 p
0o
0n
b0 m
b0 l
0k
0j
b0 i
0h
0g
0f
b0 e
b0 d
b0 c
b0 b
0a
0`
0_
0^
b0 ]
b0 \
b0 [
b0 Z
b0 Y
b0 X
0W
0V
0U
b0 T
b0 S
b0 R
b0 Q
b0 P
0O
0N
0M
b0 L
b0 K
b0 J
b0 I
b0 H
0G
0F
0E
0D
0C
0B
0A
0@
b0 ?
b0 >
b0 =
b0 <
b0 ;
b0 :
b0 9
b0 8
07
06
bx 5
bx 4
13
12
b11000011010100000 1
b11 0
b0 /
bx .
b1111101000 -
b10000000000000000000000000000011 ,
b0 +
0*
b100011100110001100101111010111110101001100011010011011101001111 )
b100011100110001100101111010111110101001100011010011011101001111 (
b1011110101101010010100011010111110000101101100011010111011100001 '
0&
bx %
bx $
0#
0"
b0 !
$end
#1000
b11000011010011111 1
1#
#2000
0#
#3000
x3
x2
bx L
bx K
bx J
bx I
xN
xM
b111110011000000000000000000000000000000000000000000000000000000 !
b111110011000000000000000000000000000000000000000000000000000000 8
b11111001100 z
b0 .
b11000011010011110 1
1&
1#
#4000
b1011000001001001110100000111010110001011010011001101011101001001 %
b1011000001001001110100000111010110001011010011001101011101001001 5
b1011110001100011100010101000011010000010011001100101100000001001 $
b1011110001100011100010101000011010000010011001100101100000001001 4
1*
b1 .
0#
#5000
x6
x7
bx ]
bx [
bx ;
xE
xG
xC
xA
bx :
xD
xF
xB
x@
03
02
b1xxxxxxxxxxxxxxxxxxxxxxxxxxxxxxxxxxxxxxxxxxxxxxxxxxxx0000000000000000000000000000000000000000000000000000 =
b1xxxxxxxxxxxxxxxxxxxxxxxxxxxxxxxxxxxxxxxxxxxxxxxxxxxx T
b1xxxxxxxxxxxxxxxxxxxxxxxxxxxxxxxxxxxxxxxxxxxxxxxxxxxx0000000000000000000000000000000000000000000000000000 ?
b1xxxxxxxxxxxxxxxxxxxxxxxxxxxxxxxxxxxxxxxxxxxxxxxxxxxx S
bx >
bx <
bx R
bx Q
bx P
xV
xU
1O
b1001110100000111010110001011010011001101011101001001 L
b11100010101000011010000010011001100101100000001001 K
b1100000100 J
b1111000110 I
1N
1M
b11000011010011101 1
1#
#6000
b101010010100101011111010010101001001100101101101010011001100100 %
b101010010100101011111010010101001001100101101101010011001100100 5
b1100010111110000110000011110001101101011101101001010000111101001 $
b1100010111110000110000011110001101101011101101001010000111101001 4
b10 .
0#
#7000
06
b0 ]
b0 [
07
b0 ;
0E
0G
0C
0A
b0 :
0D
0F
0B
0@
b101011111010010101001001100101101101010011001100100 L
b110000011110001101101011101101001010000111101001 K
b10101001010 J
b10001011111 I
0N
b110011101000001110101100010110100110011010111010010010000000000000000000000000000000000000000000000000000 =
b11001110100000111010110001011010011001101011101001001 T
b100111000101010000110100000100110011001011000000010010000000000000000000000000000000000000000000000000000 ?
b10011100010101000011010000010011001100101100000001001 S
b0 >
b0 <
b11000010 R
b1100000100 Q
b1111000110 P
1W
1V
1U
b1xxxxxxxxxxxxxxxxxxxxxxxxxxxxxxxxxxxxxxxxxxxxxxxxxxxx \
bx Z
bx Y
bx X
x_
x^
b11000011010011100 1
1#
#8000
b1100101001001010111111001111110111001100110111110010010000110101 %
b1100101001001010111111001111110111001100110111110010010000110101 5
b100000010000101011110111110010101010111100110110000100100001010 $
b100000010000101011110111110010101010111100110110000100100001010 4
b11 .
0#
#9000
xo
bx p
bx i
xa
b1xxxxxxxxxxxxxxxxxxxxxxxxxxxxxxxxxxxxxxxxxxxxxxxxxxxx e
bx d
bx c
bx b
xg
xf
b0 \
b10011100010101000011010000010011001100101100000001001 Z
b1111000110 Y
b1111000110 X
1`
1_
1^
b101010111110100101010010011001011011010100110011001000000000000000000000000000000000000000000000000000000 =
b10101011111010010101001001100101101101010011001100100 T
b100001100000111100011011010111011010010100001111010010000000000000000000000000000000000000000000000000000 ?
b10000110000011110001101101011101101001010000111101001 S
b111100010101 R
b10101001010 Q
b10001011111 P
0V
b1010111111001111110111001100110111110010010000110101 L
b101011110111110010101010111100110110000100100001010 K
b10010100100 J
b10000001000 I
1N
0M
b11000011010011011 1
1#
#10000
b1101010001000000101110110101011001101010101101100010111111101111 %
b1101010001000000101110110101011001101010101101100010111111101111 5
b10111111011011111011010000011101100001110011001100011100110001 $
b10111111011011111011010000011101100001110011001100011100110001 4
b100 .
0#
#11000
1o
b10011100010101000011010000010011001100101100000001001 p
b10011100010101000011010000010011001100101100000001001 i
b101110110101011001101010101101100010111111101111 L
b1011111011010000011101100001110011001100011100110001 K
b10101000100 J
b1011111101 I
b110101111110011111101110011001101111100100100001101010000000000000000000000000000000000000000000000000000 =
b11010111111001111110111001100110111110010010000110101 T
b101010111101111100101010101111001101100001001000010100000000000000000000000000000000000000000000000000000 ?
b10101011110111110010101010111100110110000100100001010 S
b111101100100 R
b10010100100 Q
b10000001000 P
1V
0U
b10101011111010010101001001100101101101010011001100100 \
b0 Z
b10101001010 Y
b10101001010 X
0_
1a
b0 e
b10011100010101000011010000010011001100101100000001001 d
1h
b1111000110 c
b1111000110 b
1g
1f
bx m
bx l
xn
b11000011010011010 1
1#
#12000
b1100111101010100110110001110011001010000101000010101000001011100 %
b1100111101010100110110001110011001010000101000010101000001011100 5
b11101000101010111000011100111001011110100111100101000011010000 $
b11101000101010111000011100111001011110100111100101000011010000 4
b101 .
0#
#13000
0o
b10101011111010010101001001100101101101010011001100100 p
b10101011111010010101001001100101101101010011001100100 i
bx s
bx r
xt
b10011100010101000011010000010011001100101100000001001 m
b1111000110 l
1n
1q
0a
b10101011111010010101001001100101101101010011001100100 d
b10101001010 c
b10101001010 b
0g
b11010111111001111110111001100110111110010010000110101 \
b10010100100 Y
b10010100100 X
1_
0^
b100001011101101010110011010101011011000101111111011110000000000000000000000000000000000000000000000000000 =
b10000101110110101011001101010101101100010111111101111 T
b110111110110100000111011000011100110011000111001100010000000000000000000000000000000000000000000000000000 ?
b11011111011010000011101100001110011001100011100110001 S
b110110111001 R
b10101000100 Q
b1011111101 P
b100110110001110011001010000101000010101000001011100 L
b1010111000011100111001011110100111100101000011010000 K
b10011110101 J
b1110100010 I
b11000011010011001 1
1#
#14000
b10110111011001001011001011000101001011110111110110011011011110 %
b10110111011001001011001011000101001011110111110110011011011110 5
b1101001110000000001100111000101110010111001110100101010100101001 $
b1101001110000000001100111000101110010111001110100101010100101001 4
b110 .
0#
#15000
1k
1o
b100101000000110000001000110011001000001101101111001011 p
b11010111111001111110111001100110111110010010000110101 i
bx |
bx !"
b0xx H
b0xxxxxxxxxxxxxxxxxxxxxxxxxxxxxxxxxxxxxxxxxxxxxxxxxxxx 9
b1001001011001011000101001011110111110110011011011110 L
b1100111000101110010111001110100101010100101001 K
b1011011101 J
b10100111000 I
0N
1M
b101001101100011100110010100001010000101010000010111000000000000000000000000000000000000000000000000000000 =
b10100110110001110011001010000101000010101000001011100 T
b110101110000111001110010111101001111001010000110100000000000000000000000000000000000000000000000000000000 ?
b11010111000011100111001011110100111100101000011010000 S
b111010101101 R
b10011110101 Q
b1110100010 P
b10000101110110101011001101010101101100010111111101111 \
b10101000100 Y
b10101000100 X
b11010111111001111110111001100110111110010010000110101 e
b0 d
b10010100100 c
b10010100100 b
1g
0f
b10101011111010010101001001100101101101010011001100100 m
b10101001010 l
0n
b10011100010101000011010000010011001100101100000001001 s
b1111000110 r
1t
1u
bx w
bx v
xx
b11000011010011000 1
1#
#16000
b100010001110000110001111011111001010111101111110100100111010011 %
b100010001110000110001111011111001010111101111110100100111010011 5
b11111000110001110011000010101111001110100010111011000101101101 $
b11111000110001110011000010101111001110100010111011000101101101 4
b111 .
0#
#17000
b11100010101000011010000010011001100101100000001001000 |
b11 !"
b110001 H
b11100010101000011010000010011001100101100000001001 9
b101111010001001010100110010101010010011101000000010001 p
b10000101110110101011001101010101101100010111111101111 i
bx {
bx z
bx !
bx 8
x}
b10011100010101000011010000010011001100101100000001001 w
b1111000110 v
1x
1y
b10101011111010010101001001100101101101010011001100100 s
b10101001010 r
0t
b100101000000110000001000110011001000001101101111001011 m
1j
b10010100100 l
1n
b10000101110110101011001101010101101100010111111101111 e
b10101000100 c
b10101000100 b
b10100110110001110011001010000101000010101000001011100 \
b10011110101 Y
b10011110101 X
b110010010110010110001010010111101111101100110110111100000000000000000000000000000000000000000000000000000 =
b11001001011001011000101001011110111110110011011011110 T
b100000011001110001011100101110011101001010101001010010000000000000000000000000000000000000000000000000000 ?
b10000001100111000101110010111001110100101010100101001 S
b1001011011 R
b1011011101 Q
b10100111000 P
0V
1U
b110001111011111001010111101111110100100111010011 L
b1110011000010101111001110100010111011000101101101 K
b10001000111 J
b1111100011 I
0M
b11000011010010111 1
1#
#18000
b1011111100010011110001011111100010000111100100111010010010010101 %
b1011111100010011110001011111100010000111100100111010010010010101 5
b1011001000000101000100110011110101011100011011100110110001000000 $
b1011001000000101000100110011110101011100011011100110110001000000 4
b1000 .
0#
#19000
1A
b101011001001110001100110101111010111101010111110100100 p
b10100110110001110011001010000101000010101000001011100 i
b10101111101001010100100110010110110101001100110010000 |
b10 !"
b110010 H
b101011111010010101001001100101101101010011001100100 9
b11110001011111100010000111100100111010010010010101 L
b101000100110011110101011100011011100110110001000000 K
b1111110001 J
b1100100000 I
1N
1M
b100001100011110111110010101111011111101001001110100110000000000000000000000000000000000000000000000000000 =
b10000110001111011111001010111101111110100100111010011 T
b100011100110000101011110011101000101110110001011011010000000000000000000000000000000000000000000000000000 ?
b10001110011000010101111001110100010111011000101101101 S
b10001 >
b111110011100 R
b10001000111 Q
b1111100011 P
0U
b0 \
b10000001100111000101110010111001110100101010100101001 Z
b10100111000 Y
b10100111000 X
0_
1^
b10100110110001110011001010000101000010101000001011100 e
b10011110101 c
b10011110101 b
b101111010001001010100110010101010010011101000000010001 m
b10101000100 l
b11010111111001111110111001100110111110010010000110101 s
b10010100100 r
1t
b10101011111010010101001001100101101101010011001100100 w
b10101001010 v
0x
b11100010101000011010000010011001100101100000001001 {
b1111000110 z
1"
1~
b1011110001100011100010101000011010000010011001100101100000001001 !
b1011110001100011100010101000011010000010011001100101100000001001 8
1}
b11000011010010110 1
1#
#20000
b10110000010010100010011101111000100000011000100011011010111100 %
b10110000010010100010011101111000100000011000100011011010111100 5
b11100010101001011000110110110000001110100100110000001111001101 $
b11100010101001011000110110110000001110100100110000001111001101 4
b1001 .
0#
#21000
b110101111110011111101110011001101111100100100001101010 |
b1 !"
b110011 H
b1010111111001111110111001100110111110010010000110101 9
b101111110011000111010001101000110001011010101011010111 p
b10000001100111000101110010111001110100101010100101001 i
0A
b101011111010010101001001100101101101010011001100100 {
b10101001010 z
b101010010100101011111010010101001001100101101101010011001100100 !
b101010010100101011111010010101001001100101101101010011001100100 8
0}
b11010111111001111110111001100110111110010010000110101 w
b10010100100 v
1x
b10000101110110101011001101010101101100010111111101111 s
b10101000100 r
b101011001001110001100110101111010111101010111110100100 m
b10011110101 l
1a
b10000001100111000101110010111001110100101010100101001 e
b10100111000 c
b10100111000 b
0g
1f
b10000110001111011111001010111101111110100100111010011 \
b0 Z
b10001000111 Y
b10001000111 X
0^
b100111100010111111000100001111001001110100100100101010000000000000000000000000000000000000000000000000000 =
b10011110001011111100010000111100100111010010010010101 T
b101010001001100111101010111000110111001101100010000000000000000000000000000000000000000000000000000000000 ?
b10101000100110011110101011100011011100110110001000000 S
b0 >
b111100101111 R
b1111110001 Q
b1100100000 P
1V
1U
b10100010011101111000100000011000100011011010111100 L
b1001011000110110110000001110100100110000001111001101 K
b1011000001 J
b1110001010 I
0N
0M
b11000011010010101 1
b1 /
1#
#22000
b1100110110000100000101110010001001111000001100010101111100101101 %
b1100110110000100000101110010001001111000001100010101111100101101 5
b11111010100100110101001001010000100110010000110110111001111000 $
b11111010100100110101001001010000100110010000110110111001111000 4
b1010 .
0#
#23000
0k
0o
b101111001110000100000110101000010000001011011000101101 p
b10000110001111011111001010111101111110100100111010011 i
b10111011010101100110101010110110001011111110111100000 |
b101 !"
b101111 H
b101110110101011001101010101101100010111111101111 9
b100000101110010001001111000001100010101111100101101 L
b100110101001001010000100110010000110110111001111000 K
b10011011000 J
b1111101010 I
1N
b100101000100111011110001000000110001000110110101111000000000000000000000000000000000000000000000000000000 =
b10010100010011101111000100000011000100011011010111100 T
b110010110001101101100000011101001001100000011110011010000000000000000000000000000000000000000000000000000 ?
b11001011000110110110000001110100100110000001111001101 S
b11001001 R
b1011000001 Q
b1110001010 P
0V
0U
b10011110001011111100010000111100100111010010010010101 \
b1111110001 Y
b1111110001 X
1_
1^
0a
b10000110001111011111001010111101111110100100111010011 e
b10001000111 c
b10001000111 b
0f
b101111110011000111010001101000110001011010101011010111 m
b10100111000 l
b10100110110001110011001010000101000010101000001011100 s
b10011110101 r
b10000101110110101011001101010101101100010111111101111 w
b10101000100 v
b1010111111001111110111001100110111110010010000110101 {
b10010100100 z
b1100101001001010111111001111110111001100110111110010010000110101 !
b1100101001001010111111001111110111001100110111110010010000110101 8
1}
b10 /
b11000011010010100 1
1#
#24000
b1101000100010100101100100010110110001101101100010100110111011110 %
b1101000100010100101100100010110110001101101100010100110111011110 5
b1011100000110011111110010001001100000011100010011001100011101111 $
b1011100000110011111110010001001100000011100010011001100011101111 4
b1011 .
0#
#25000
b10011011000111001100101000010100001010100000101110000 |
b10 !"
b110010 H
b100110110001110011001010000101000010101000001011100 9
1o
b101100001110100000011101111000011011000101101101101011 p
b10011110001011111100010000111100100111010010010010101 i
b101110110101011001101010101101100010111111101111 {
b1101010001000000101110110101011001101010101101100010111111101111 !
b1101010001000000101110110101011001101010101101100010111111101111 8
b10101000100 z
b10100110110001110011001010000101000010101000001011100 w
b10011110101 v
b10000001100111000101110010111001110100101010100101001 s
b10100111000 r
b10000110001111011111001010111101111110100100111010011 m
0j
b10001000111 l
0n
b10011110001011111100010000111100100111010010010010101 e
b1111110001 c
b1111110001 b
1g
1f
b0 \
b11001011000110110110000001110100100110000001111001101 Z
b1110001010 Y
b1110001010 X
0_
0^
b101000001011100100010011110000011000101011111001011010000000000000000000000000000000000000000000000000000 =
b10100000101110010001001111000001100010101111100101101 T
b101001101010010010100001001100100001101101110011110000000000000000000000000000000000000000000000000000000 ?
b10100110101001001010000100110010000110110111001111000 S
b111100010010 R
b10011011000 Q
b1111101010 P
1V
b100101100100010110110001101101100010100110111011110 L
b11111110010001001100000011100010011001100011101111 K
b10100010001 J
b1110000011 I
1M
b11000011010010011 1
b11 /
1#
#26000
b11001001001010111011011000110111101001001000110000000100001011 %
b11001001001010111011011000110111101001001000110000000100001011 5
b1100011001011000010100001100001011101100101110011101011111100111 $
b1100011001011000010100001100001011101100101110011101011111100111 4
b1100 .
0#
#27000
0o
b11001011000110110110000001110100100110000001111001101 p
b11001011000110110110000001110100100110000001111001101 i
b11001110001011100101110011101001010101001010010000000 |
b111 !"
b101101 H
b1100111000101110010111001110100101010100101001 9
b1010111011011000110111101001001000110000000100001011 L
b1000010100001100001011101100101110011101011111100111 K
b1100100100 J
b10001100101 I
0N
b101001011001000101101100011011011000101001101110111100000000000000000000000000000000000000000000000000000 =
b10100101100100010110110001101101100010100110111011110 T
b100111111100100010011000000111000100110011000111011110000000000000000000000000000000000000000000000000000 ?
b10011111110010001001100000011100010011001100011101111 S
b111001110010 R
b10100010001 Q
b1110000011 P
1U
b10100000101110010001001111000001100010101111100101101 \
b0 Z
b10011011000 Y
b10011011000 X
1_
1a
b0 e
b11001011000110110110000001110100100110000001111001101 d
b1110001010 c
b1110001010 b
0g
0f
b10011110001011111100010000111100100111010010010010101 m
b1111110001 l
1n
b10000110001111011111001010111101111110100100111010011 s
b10001000111 r
0t
b10000001100111000101110010111001110100101010100101001 w
b10100111000 v
b100110110001110011001010000101000010101000001011100 {
b1100111101010100110110001110011001010000101000010101000001011100 !
b1100111101010100110110001110011001010000101000010101000001011100 8
b10011110101 z
b100 /
b11000011010010010 1
1#
#28000
b11110100111000101001010100010111110111011011011101101001100101 %
b11110100111000101001010100010111110111011011011101101001100101 5
b11010010011101100110001001110110000101100101101110011000101100 $
b11010010011101100110001001110110000101100101101110011000101100 4
b1101 .
0#
#29000
b11000111101111100101011110111111010010011101001100000 |
b101 !"
b101111 H
b110001111011111001010111101111110100100111010011 9
1k
1o
b101011111010001101110110000111110011101010000011010011 p
b10100000101110010001001111000001100010101111100101101 i
b1100111000101110010111001110100101010100101001 {
b1101001110000000001100111000101110010111001110100101010100101001 !
b1101001110000000001100111000101110010111001110100101010100101001 8
b10100111000 z
b10000110001111011111001010111101111110100100111010011 w
b10001000111 v
0x
b10011110001011111100010000111100100111010010010010101 s
b1111110001 r
1t
b11001011000110110110000001110100100110000001111001101 m
b1110001010 l
0n
0a
b10100000101110010001001111000001100010101111100101101 e
b0 d
b10011011000 c
b10011011000 b
1g
b10100101100100010110110001101101100010100110111011110 \
b10100010001 Y
b10100010001 X
1^
b110101110110110001101111010010010001100000001000010110000000000000000000000000000000000000000000000000000 =
b11010111011011000110111101001001000110000000100001011 T
b110000101000011000010111011001011100111010111111001110000000000000000000000000000000000000000000000000000 ?
b11000010100001100001011101100101110011101011111100111 S
b101000001 R
b1100100100 Q
b10001100101 P
0V
b1000101001010100010111110111011011011101101001100101 L
b1101100110001001110110000101100101101110011000101100 K
b1111010011 J
b1101001001 I
0M
b11000011010010001 1
b101 /
1#
#30000
b1101000110110100000110001111011001011111110100000001010001000111 %
b1101000110110100000110001111011001011111110100000001010001000111 5
b1010101111100111010000101110001101011101000011000010000110100011 $
b1010101111100111010000101110001101011101000011000010000110100011 4
b1110 .
0#
#31000
0k
b101011010011011101001001110010010011101011001000100010 p
b10100101100100010110110001101101100010100110111011110 i
b11110001011111100010000111100100111010010010010101000 |
b11 !"
b110001 H
b11110001011111100010000111100100111010010010010101 9
b100000110001111011001011111110100000001010001000111 L
b111010000101110001101011101000011000010000110100011 K
b10100011011 J
b1010111110 I
1N
1M
b110001010010101000101111101110110110111011010011001010000000000000000000000000000000000000000000000000000 =
b11000101001010100010111110111011011011101101001100101 T
b111011001100010011101100001011001011011100110001011000000000000000000000000000000000000000000000000000000 ?
b11101100110001001110110000101100101101110011000101100 S
b111101110110 R
b1111010011 Q
b1101001001 P
0U
b0 \
b11000010100001100001011101100101110011101011111100111 Z
b10001100101 Y
b10001100101 X
0_
b10100101100100010110110001101101100010100110111011110 e
b10100010001 c
b10100010001 b
1f
b101011111010001101110110000111110011101010000011010011 m
1j
b10011011000 l
1n
b11001011000110110110000001110100100110000001111001101 s
b1110001010 r
0t
b10011110001011111100010000111100100111010010010010101 w
b1111110001 v
1x
b110001111011111001010111101111110100100111010011 {
b10001000111 z
b100010001110000110001111011111001010111101111110100100111010011 !
b100010001110000110001111011111001010111101111110100100111010011 8
0}
b110 /
b11000011010010000 1
1#
#32000
b1011010100100001010111110011010111100111010110100011101111010100 %
b1011010100100001010111110011010111100111010110100011101111010100 5
b101001010010001010011011110011111010010010001101110100111111111 $
b101001010010001010011011110011111010010010001101110100111111111 4
b1111 .
0#
#33000
b110010110001101101100000011101001001100000011110011010 |
b1 !"
b110011 H
b1001011000110110110000001110100100110000001111001101 9
1k
b100111101011110011110100010011010001100010100000011001 p
b11000010100001100001011101100101110011101011111100111 i
b11110001011111100010000111100100111010010010010101 {
b1111110001 z
b1011111100010011110001011111100010000111100100111010010010010101 !
b1011111100010011110001011111100010000111100100111010010010010101 8
1}
b11001011000110110110000001110100100110000001111001101 w
b1110001010 v
0x
b10100000101110010001001111000001100010101111100101101 s
b10011011000 r
1t
b10100101100100010110110001101101100010100110111011110 m
0j
b10100010001 l
1a
b11000010100001100001011101100101110011101011111100111 e
b10001100101 c
b10001100101 b
0g
b11000101001010100010111110111011011011101101001100101 \
b0 Z
b1111010011 Y
b1111010011 X
0^
b101000001100011110110010111111101000000010100010001110000000000000000000000000000000000000000000000000000 =
b10100000110001111011001011111110100000001010001000111 T
b101110100001011100011010111010000110000100001101000110000000000000000000000000000000000000000000000000000 ?
b10111010000101110001101011101000011000010000110100011 S
b110110100011 R
b10100011011 Q
b1010111110 P
1V
1U
b1010111110011010111100111010110100011101111010100 L
b1010011011110011111010010010001101110100111111111 K
b1101010010 J
b10100101001 I
0M
b11000011010001111 1
b111 /
1#
#34000
b1011010110111011010110001000011011100100000101010101100001111000 %
b1011010110111011010110001000011011100100000101010101100001111000 5
b1011010101100011101110010011010110011001010111000000111100110011 $
b1011010101100011101110010011010110011001010111000000111100110011 4
b10000 .
0#
#35000
0k
0o
b100111010110101011101000001000100100100010010110011011 p
b11000101001010100010111110111011011011101101001100101 i
b10000010111001000100111100000110001010111110010110100 |
b10 !"
b110010 H
b100000101110010001001111000001100010101111100101101 9
b1011010110001000011011100100000101010101100001111000 L
b11101110010011010110011001010111000000111100110011 K
b1101011011 J
b1101010110 I
1M
b100010101111100110101111001110101101000111011110101000000000000000000000000000000000000000000000000000000 =
b10001010111110011010111100111010110100011101111010100 T
b100010100110111100111110100100100011011101001111111110000000000000000000000000000000000000000000000000000 ?
b10001010011011110011111010010010001101110100111111111 S
b111010111 R
b1101010010 Q
b10100101001 P
0U
b10100000110001111011001011111110100000001010001000111 \
b10100011011 Y
b10100011011 X
1_
1^
0a
b11000101001010100010111110111011011011101101001100101 e
b1111010011 c
b1111010011 b
0f
b100111101011110011110100010011010001100010100000011001 m
1j
b10001100101 l
b10100101100100010110110001101101100010100110111011110 s
b10100010001 r
b10100000101110010001001111000001100010101111100101101 w
b10011011000 v
1x
b1001011000110110110000001110100100110000001111001101 {
b1110001010 z
b11100010101001011000110110110000001110100100110000001111001101 !
b11100010101001011000110110110000001110100100110000001111001101 8
0}
b1000 /
b11000011010001110 1
1#
#36000
b1100011011111011100000011110010111001010100101000110010010111000 %
b1100011011111011100000011110010111001010100101000110010010111000 5
b1100110000100111101000001100101101011111101001101110011010000100 $
b1100110000100111101000001100101101011111101001101110011010000100 4
b10001 .
0#
#37000
16
b100111011100100110101100110010101110000001111010 [
b10010110010001011011000110110110001010011011101111000 |
b100101100100010110110001101101100010100110111011110 9
1o
b101011111001110000100110100000001011111110101110111001 p
b10100000110001111011001011111110100000001010001000111 i
b100111011100100110101100110010101110000001111001 ;
1E
1G
1A
b100000101110010001001111000001100010101111100101101 {
b10011011000 z
b1100110110000100000101110010001001111000001100010101111100101101 !
b1100110110000100000101110010001001111000001100010101111100101101 8
1}
b10100101100100010110110001101101100010100110111011110 w
b10100010001 v
b11000010100001100001011101100101110011101011111100111 s
b10001100101 r
b11000101001010100010111110111011011011101101001100101 m
0j
b1111010011 l
0n
b10100000110001111011001011111110100000001010001000111 e
b10100011011 c
b10100011011 b
1g
1f
b0 \
b10001010011011110011111010010010001101110100111111111 Z
b10100101001 Y
b10100101001 X
0^
b110110101100010000110111001000001010101011000011110000000000000000000000000000000000000000000000000000000 =
b11011010110001000011011100100000101010101100001111000 T
b100111011100100110101100110010101110000001111001100110000000000000000000000000000000000000000000000000000 ?
b10011101110010011010110011001010111000000111100110011 S
b1001110111001001101011001100101011100000011110011001100000000000000000000000000000000000000000000000 >
b111111111011 R
b1101011011 Q
b1101010110 P
1U
b1011100000011110010111001010100101000110010010111000 L
b111101000001100101101011111101001101110011010000100 K
b10001101111 J
b10011000010 I
b11000011010001101 1
b1001 /
1#
#38000
b100010011011010011111110100001101101011001011000001110000111000 %
b100010011011010011111110100001101101011001011000001110000111000 5
b1011001011101100110100011100010010011011000000110111101100110001 $
b1011001011101100110100011100010010011011000000110111101100110001 4
b10010 .
0#
#39000
b0 [
06
b0 ;
0E
0G
0A
1@
0o
b10001010011011110011111010010010001101110100111111111 p
b10001010011011110011111010010010001101110100111111111 i
b110000101000011000010111011001011100111010111111001110 |
b1 !"
b110011 H
b1000010100001100001011101100101110011101011111100111 9
b1010011111110100001101101011001011000001110000111000 L
b1100110100011100010010011011000000110111101100110001 K
b10001001101 J
b1100101110 I
0N
b110111000000111100101110010101001010001100100101110000000000000000000000000000000000000000000000000000000 =
b11011100000011110010111001010100101000110010010111000 T
b101111010000011001011010111111010011011100110100001000000000000000000000000000000000000000000000000000000 ?
b10111101000001100101101011111101001101110011010000100 S
b0 >
b1101110000001111001011 <
b1010011 R
b10001101111 Q
b10011000010 P
b11011010110001000011011100100000101010101100001111000 \
b100111011100100110101100110010101110000001111010 Z
b1101011011 Y
b1101011011 X
1^
1a
b0 e
b10001010011011110011111010010010001101110100111111111 d
b10100101001 c
b10100101001 b
0f
b10100000110001111011001011111110100000001010001000111 m
b10100011011 l
1n
b11000101001010100010111110111011011011101101001100101 s
b1111010011 r
0t
b11000010100001100001011101100101110011101011111100111 w
b10001100101 v
b100101100100010110110001101101100010100110111011110 {
b1101000100010100101100100010110110001101101100010100110111011110 !
b1101000100010100101100100010110110001101101100010100110111011110 8
b10100010001 z
b1010 /
b11000011010001100 1
1#
#40000
b1100011001011110101000001101100100111011100101011101110110100000 %
b1100011001011110101000001101100100111011100101011101110110100000 5
b100010000110101100001010101010001100100010100011100001110100100 $
b100010000110101100001010101010001100100010100011100001110100100 4
b10011 .
0#
