Spring_Final_Project/Operator/FLOAT_ADD/add.vcd
$date
	Sat May 24 12:33:19 2025
$end
$version
	Icarus Verilog
$end
$timescale
	1ps
$end
$scope module FLOAT_ADD_tb $end
$var wire 64 ! result [63:0] $end
$var wire 1 " ready $end
$var reg 1 # clk $end
$var reg 64 $ num1 [63:0] $end
$var reg 64 % num2 [63:0] $end
$var reg 1 & rstn $end
$var reg 64 ' t1 [63:0] $end
$var reg 64 ( t2 [63:0] $end
$var reg 64 ) t3 [63:0] $end
$var reg 1 * valid $end
$var integer 32 + errors [31:0] $end
$var integer 32 , fd [31:0] $end
$var integer 32 - i [31:0] $end
$var integer 32 . j [31:0] $end
$var integer 32 / k [31:0] $end
$var integer 32 0 r [31:0] $end
$var integer 32 1 timeout [31:0] $end
$scope module uut $end
$var wire 1 2 check_denor1 $end
$var wire 1 3 check_denor2 $end
$var wire 1 # clk $end
$var wire 64 4 num1 [63:0] $end
$var wire 64 5 num2 [63:0] $end
$var wire 1 " ready $end
$var wire 1 6 round_up1 $end
$var wire 1 7 round_up2 $end
$var wire 1 & rstn $end
$var wire 1 * valid $end
$var wire 64 8 result [63:0] $end
$var wire 53 9 pip3_mantissa2_tmp [52:0] $end
$var wire 53 : pip3_mantissa1_tmp [52:0] $end
$var wire 105 ; pip2_mantissa2_shifted [104:0] $end
$var wire 105 < pip2_mantissa2_shift [104:0] $end
$var wire 105 = pip2_mantissa1_shifted [104:0] $end
$var wire 105 > pip2_mantissa1_shift [104:0] $end
$var wire 1 ? Sticky_2 $end
$var wire 1 @ Sticky_1 $end
$var wire 1 A Round_2 $end
$var wire 1 B Round_1 $end
$var wire 1 C LSB_2 $end
$var wire 1 D LSB_1 $end
$var wire 1 E Guard_2 $end
$var wire 1 F Guard_1 $end
$var reg 11 G pip1_exponent1 [10:0] $end
$var reg 11 H pip1_exponent2 [10:0] $end
$var reg 52 I pip1_mantissa1 [51:0] $end
$var reg 52 J pip1_mantissa2 [51:0] $end
$var reg 1 K pip1_sign1 $end
$var reg 1 L pip1_sign2 $end
$var reg 1 M pip1_valid $end
$var reg 11 N pip2_exponent1 [10:0] $end
$var reg 11 O pip2_exponent2 [10:0] $end
$var reg 12 P pip2_exponent_diff [11:0] $end
$var reg 53 Q pip2_mantissa1 [52:0] $end
$var reg 53 R pip2_mantissa2 [52:0] $end
$var reg 1 S pip2_sign1 $end
$var reg 1 T pip2_sign2 $end
$var reg 1 U pip2_valid $end
$var reg 11 V pip3_exponent1 [10:0] $end
$var reg 11 W pip3_exponent2 [10:0] $end
$var reg 53 X pip3_mantissa1 [52:0] $end
$var reg 53 Y pip3_mantissa1_next [52:0] $end
$var reg 53 Z pip3_mantissa2 [52:0] $end
$var reg 53 [ pip3_mantissa2_next [52:0] $end
$var reg 1 \ pip3_sign1 $end
$var reg 1 ] pip3_sign2 $end
$var reg 1 ^ pip3_valid $end
$var reg 1 _ pip4_compare $end
$var reg 11 ` pip4_exponent1 [10:0] $end
$var reg 11 a pip4_exponent2 [10:0] $end
$var reg 53 b pip4_mantissaA [52:0] $end
$var reg 53 c pip4_mantissaB [52:0] $end
$var reg 1 d pip4_sign1 $end
$var reg 1 e pip4_sign2 $end
$var reg 1 f pip4_valid $end
$var reg 54 g pip5_add [53:0] $end
$var reg 1 h pip5_complement $end
$var reg 1 i pip5_complement_tmp $end
$var reg 11 j pip5_exponent [10:0] $end
$var reg 54 k pip5_mantissa [53:0] $end
$var reg 1 l pip5_sign $end
$var reg 1 m pip5_sign_tmp $end
$var reg 54 n pip5_sub [53:0] $end
$var reg 1 o pip5_valid $end
$var reg 11 p pip6_exponent [10:0] $end
$var reg 54 q pip6_mantissa [53:0] $end
$var reg 1 r pip6_sign $end
$var reg 1 s pip6_valid $end
$var reg 11 t pip7_exponent [10:0] $end
$var reg 54 u pip7_mantissa [53:0] $end
$var reg 1 v pip7_sign $end
$var reg 1 w pip7_valid $end
$var reg 11 x pip8_exponent [10:0] $end
$var reg 52 y pip8_mantissa [51:0] $end
$var reg 54 z pip8_mantissa_shift [53:0] $end
$var reg 1 { pip8_sign $end
$var reg 1 | pip8_valid $end
$var reg 6 } shift [5:0] $end
$var integer 32 ~ i [31:0] $end
$upscope $end
$upscope $end
$enddefinitions $end
#0
$dumpvars
b11111111111111111111111111111111 ~
b0 }
0|
0{
b0 z
b0 y
b0 x
0w
0v
b0 u
b0 t
0s
0r
b0 q
b0 p
0o
b0 n
0m
0l
b0 k
b0 j
0i
0h
b0 g
0f
0e
0d
b0 c
b0 b
b0 a
b0 `
0_
0^
0]
0\
b0 [
b0 Z
b0 Y
b0 X
b0 W
b0 V
0U
0T
0S
b0 R
b0 Q
b0 P
b0 O
b0 N
0M
0L
0K
b0 J
b0 I
b0 H
b0 G
0F
0E
0D
0C
0B
0A
0@
0?
b0 >
b0 =
b0 <
b0 ;
b0 :
b0 9
b0 8
07
06
bx 5
bx 4
13
12
b11000011010100000 1
b11 0
b0 /
bx .
b1111101000 -
b10000000000000000000000000000011 ,
b0 +
0*
b100000000001001000001110110011100001100100110000101100010010110 )
b100000000011111110011011100101100111001110011111010111110000000 (
b1100000000010011010010100001011110110011100000111000001100110101 '
0&
bx %
bx $
0#
0"
b0 !
$end
#1000
b11000011010011111 1
1#
#2000
0#
#3000
x3
x2
bx J
bx I
bx H
bx G
xL
xK
b0 .
b11000011010011110 1
1&
1#
#4000
b1100000000010110001001011001011101110100010011101010011100011010 %
b1100000000010110001001011001011101110100010011101010011100011010 5
b1100000000000001001000000100000100110110111010011110011110001001 $
b1100000000000001001000000100000100110110111010011110011110001001 4
1*
b1 .
0#
#5000
x6
x7
bx [
bx Y
bx :
xD
xF
xB
x@
bx 9
xC
xE
xA
x?
03
02
b1xxxxxxxxxxxxxxxxxxxxxxxxxxxxxxxxxxxxxxxxxxxxxxxxxxxx0000000000000000000000000000000000000000000000000000 <
b1xxxxxxxxxxxxxxxxxxxxxxxxxxxxxxxxxxxxxxxxxxxxxxxxxxxx R
b1xxxxxxxxxxxxxxxxxxxxxxxxxxxxxxxxxxxxxxxxxxxxxxxxxxxx0000000000000000000000000000000000000000000000000000 >
b1xxxxxxxxxxxxxxxxxxxxxxxxxxxxxxxxxxxxxxxxxxxxxxxxxxxx Q
bx =
bx ;
bx P
bx O
bx N
xT
xS
1M
b110001001011001011101110100010011101010011100011010 J
b1001000000100000100110110111010011110011110001001 I
b10000000001 H
b10000000000 G
1L
1K
b11000011010011101 1
1#
#6000
b1100000000100011010110110100011001111011100111010010101111100001 %
b1100000000100011010110110100011001111011100111010010101111100001 5
b1100000000000111011001011111111000001100000011010110100100011010 $
b1100000000000111011001011111111000001100000011010110100100011010 4
b10 .
0#
#7000
06
b0 [
b1000100100000010000010011011011101001111001111000100 Y
07
0D
1F
b1000100100000010000010011011011101001111001111000100 :
0B
0@
b0 9
0C
0E
0A
0?
b11010110110100011001111011100111010010101111100001 J
b111011001011111111000001100000011010110100100011010 I
b10000000010 H
b101100010010110010111011101000100111010100111000110100000000000000000000000000000000000000000000000000000 <
b10110001001011001011101110100010011101010011100011010 R
b100010010000001000001001101101110100111100111100010010000000000000000000000000000000000000000000000000000 >
b10001001000000100000100110110111010011110011110001001 Q
b10001001000000100000100110110111010011110011110001001000000000000000000000000000000000000000000000000000 =
b0 ;
b111111111111 P
b10000000001 O
b10000000000 N
1U
1T
1S
b1xxxxxxxxxxxxxxxxxxxxxxxxxxxxxxxxxxxxxxxxxxxxxxxxxxxx Z
bx X
bx W
bx V
x]
x\
b11000011010011100 1
1#
#8000
b100000000001111001101001111100001111010001101011110001001001011 %
b100000000001111001101001111100001111010001101011110001001001011 5
b1011111111110101010010100010110110001000100011011111111001100111 $
b1011111111110101010010100010110110001000100011011111111001100111 4
b11 .
0#
#9000
b101110110010111111110000011000000110101101001000110 Y
xm
bx n
bx g
b101110110010111111110000011000000110101101001000110 :
x_
b1xxxxxxxxxxxxxxxxxxxxxxxxxxxxxxxxxxxxxxxxxxxxxxxxxxxx c
bx b
bx a
bx `
xe
xd
b10110001001011001011101110100010011101010011100011010 Z
b1000100100000010000010011011011101001111001111000100 X
b10000000001 W
b10000000001 V
1^
1]
1\
b100110101101101000110011110111001110100101011111000010000000000000000000000000000000000000000000000000000 <
b10011010110110100011001111011100111010010101111100001 R
b101110110010111111110000011000000110101101001000110100000000000000000000000000000000000000000000000000000 >
b10111011001011111111000001100000011010110100100011010 Q
b1011101100101111111100000110000001101011010010001101000000000000000000000000000000000000000000000000000 =
b111111111110 P
b10000000010 O
b1111001101001111100001111010001101011110001001001011 J
b101010010100010110110001000100011011111111001100111 I
b10000000000 H
b1111111111 G
0L
b11000011010011011 1
1#
#10000
b100000000100011111111101101111110001001110101010000101011000111 %
b100000000100011111111101101111110001001110101010000101011000111 5
b100000000001001101000001100011111010101010110101111111110011010 $
b100000000001001101000001100011111010101010110101111111110011010 4
b100 .
0#
#11000
16
b1010101001010001011011000100010001101111111100110100 Y
b1010101001010001011011000100010001101111111100110011 :
1D
1m
b110010011010101000100100100111001001100100110010101010 n
b11110101101011011100000001111110000111001101011011110 g
b11111111101101111110001001110101010000101011000111 J
b1001101000001100011111010101010110101111111110011010 I
b10000000010 H
b10000000000 G
0K
b111110011010011111000011110100011010111100010010010110000000000000000000000000000000000000000000000000000 <
b11111001101001111100001111010001101011110001001001011 R
b101010100101000101101100010001000110111111110011001110000000000000000000000000000000000000000000000000000 >
b10101010010100010110110001000100011011111111001100111 Q
b10101010010100010110110001000100011011111111001100111000000000000000000000000000000000000000000000000000 =
b111111111111 P
b10000000000 O
b1111111111 N
0T
b10011010110110100011001111011100111010010101111100001 Z
b101110110010111111110000011000000110101101001000110 X
b10000000010 W
b10000000010 V
0_
b10110001001011001011101110100010011101010011100011010 c
b1000100100000010000010011011011101001111001111000100 b
1f
b10000000001 a
b10000000001 `
1e
1d
bx k
bx j
xl
b11000011010011010 1
1#
#12000
b1100000000011101110101001000100110011100001001011010111011110100 %
b1100000000011101110101001000100110011100001001011010111011110100 5
b1100000000011010011011110110111000000101011110000010110000111010 $
b1100000000011010011011110110111000000101011110000010110000111010 4
b101 .
0#
#13000
06
b110011010000011000111110101010101101011111111100110 Y
b110010011111100011100100000111011001100010111001100101 n
b11001001101001100010111111110101000001000011000100111 g
0D
b110011010000011000111110101010101101011111111100110 :
bx q
bx p
xr
b11110101101011011100000001111110000111001101011011110 k
b10000000001 j
1l
1o
b10011010110110100011001111011100111010010101111100001 c
b101110110010111111110000011000000110101101001000110 b
b10000000010 a
b10000000010 `
b11111001101001111100001111010001101011110001001001011 Z
b1010101001010001011011000100010001101111111100110100 X
b10000000000 W
b10000000000 V
0]
b100111111111011011111100010011101010100001010110001110000000000000000000000000000000000000000000000000000 <
b10011111111101101111110001001110101010000101011000111 R
b110011010000011000111110101010101101011111111100110100000000000000000000000000000000000000000000000000000 >
b11001101000001100011111010101010110101111111110011010 Q
b1100110100000110001111101010101011010111111111001101000000000000000000000000000000000000000000000000000 =
b111111111110 P
b10000000010 O
b10000000000 N
0S
b1101110101001000100110011100001001011010111011110100 J
b1010011011110110111000000101011110000010110000111010 I
b10000000001 H
b10000000001 G
1L
1K
b11000011010011001 1
1#
#14000
b1100000000100001100000001100100011010001000111000110101100101111 %
b1100000000100001100000001100100011010001000111000110101100101111 5
b11111111111100111001010110011100010011101101010110100110000100 $
b11111111111100111001010110011100010011101101010110100110000100 4
b110 .
0#
#15000
b11101110101001000100110011100001001011010111011110100 [
b11010011011110110111000000101011110000010110000111010 Y
b11010011011110110111000000101011110000010110000111010 :
0F
b11101110101001000100110011100001001011010111011110100 9
0m
b10100100011111110000110110101111011101110001100010111 n
b101001110110100000111100111110011111001110000101111111 g
bx z
b11111111111111111111111111111111 ~
b1100000001100100011010001000111000110101100101111 J
b1100111001010110011100010011101101010110100110000100 I
b10000000010 H
b1111111111 G
0K
b111011101010010001001100111000010010110101110111101000000000000000000000000000000000000000000000000000000 <
b11101110101001000100110011100001001011010111011110100 R
b110100110111101101110000001010111100000101100001110100000000000000000000000000000000000000000000000000000 >
b11010011011110110111000000101011110000010110000111010 Q
b110100110111101101110000001010111100000101100001110100000000000000000000000000000000000000000000000000000 =
b111011101010010001001100111000010010110101110111101000000000000000000000000000000000000000000000000000000 ;
b0 P
b10000000001 O
b10000000001 N
1T
1S
b10011111111101101111110001001110101010000101011000111 Z
b110011010000011000111110101010101101011111111100110 X
b10000000010 W
b10000000010 V
0\
b1010101001010001011011000100010001101111111100110100 c
b11111001101001111100001111010001101011110001001001011 b
b10000000000 a
b10000000000 `
0e
b11001001101001100010111111110101000001000011000100111 k
b10000000010 j
b11110101101011011100000001111110000111001101011011110 q
b10000000001 p
1r
1s
bx u
bx t
xv
b11000011010011000 1
1#
#16000
b1100000000100011001010110110111101000110010000110110001000101001 %
b1100000000100011001010110110111101000110010000110110001000101001 5
b100000000011011100111101000010100000000111000100010011001110001 $
b100000000011011100111101000010100000000111000100010011001110001 4
b111 .
0#
#17000
b0 [
b11100111001010110011100010011101101010110100110000 Y
b111101011010110111000000011111100001110011010110111100 z
b1 }
b11111111111111111111111111111111 ~
b110010011010010101001001101011100000011011010100011111 n
b11010011001110001000101111111001010111100101010101101 g
1F
b11100111001010110011100010011101101010110100110000 :
b0 9
bx y
bx x
bx !
bx 8
x{
b11110101101011011100000001111110000111001101011011110 u
b10000000001 t
1v
1w
b11001001101001100010111111110101000001000011000100111 q
b10000000010 p
b10100100011111110000110110101111011101110001100010111 k
b10000000000 j
0l
b10011111111101101111110001001110101010000101011000111 c
b110011010000011000111110101010101101011111111100110 b
b10000000010 a
b10000000010 `
0d
b11101110101001000100110011100001001011010111011110100 Z
b11010011011110110111000000101011110000010110000111010 X
b10000000001 W
b10000000001 V
1]
1\
b100011000000011001000110100010001110001101011001011110000000000000000000000000000000000000000000000000000 <
b10001100000001100100011010001000111000110101100101111 R
b111001110010101100111000100111011010101101001100001000000000000000000000000000000000000000000000000000000 >
b11100111001010110011100010011101101010110100110000100 Q
b111001110010101100111000100111011010101101001100001000000000000000000000000000000000000000000000000000 =
b0 ;
b111111111101 P
b10000000010 O
b1111111111 N
0S
b11001010110110111101000110010000110110001000101001 J
b1011100111101000010100000000111000100010011001110001 I
b10000000001 G
b11000011010010111 1
1#
#18000
b1011111111111001011010111110001110001111100011000001100010001010 %
b1011111111111001011010111110001110001111100011000001100010001010 5
b100000000100011001111000010101001001111001100110001001111100000 $
b100000000100011001111000010101001001111001100110001001111100000 4
b1000 .
0#
#19000
b1101110011110100001010000000011100010001001100111000 Y
b1101110011110100001010000000011100010001001100111000 :
1m
b111100100110101110010001101001010100100111110101000110 n
b111000010000111111011110100001100111011101101100101110 g
b110010011010011000101111111101010000010000110001001110 z
b11111111111111111111111111111111 ~
b1 }
b1001011010111110001110001111100011000001100010001010 J
b11001111000010101001001111001100110001001111100000 I
b1111111111 H
b10000000010 G
b100110010101101101111010001100100001101100010001010010000000000000000000000000000000000000000000000000000 <
b10011001010110110111101000110010000110110001000101001 R
b110111001111010000101000000001110001000100110011100010000000000000000000000000000000000000000000000000000 >
b11011100111101000010100000000111000100010011001110001 Q
b11011100111101000010100000000111000100010011001110001000000000000000000000000000000000000000000000000000 =
b111111111111 P
b10000000001 N
b10001100000001100100011010001000111000110101100101111 Z
b11100111001010110011100010011101101010110100110000 X
b10000000010 W
b10000000010 V
0\
b11101110101001000100110011100001001011010111011110100 c
b11010011011110110111000000101011110000010110000111010 b
b10000000001 a
b10000000001 `
1e
1d
b11010011001110001000101111111001010111100101010101101 k
b10000000010 j
b10100100011111110000110110101111011101110001100010111 q
b10000000000 p
0r
b11001001101001100010111111110101000001000011000100111 u
b10000000010 t
b1110101101011011100000001111110000111001101011011110 y
b10000000001 x
1"
1|
b1100000000011110101101011011100000001111110000111001101011011110 !
b1100000000011110101101011011100000001111110000111001101011011110 8
1{
b11000011010010110 1
1#
#20000
b100000000100000100001100111010010100001101100010111100011011011 %
b100000000100000100001100111010010100001101100010111100011011011 5
b100000000011110011010111110111011101100010100111100100000100001 $
b100000000011110011010111110111011101100010100111100100000100001 4
b1001 .
0#
#21000
b11001011010111110001110001111100011000001100010001 [
b0 Y
b10010001111111000011011010111101110111000110001011100 z
b11111111111111111111111111111111 ~
b10 }
1i
b110010000110111110010000010001010110100100001000000001 n
b10101000111010111010110110011100100110001100001011111 g
1A
b0 :
0F
b11001011010111110001110001111100011000001100010001 9
1C
b1001001101001100010111111110101000001000011000100111 y
b1100000000101001001101001100010111111110101000001000011000100111 !
b1100000000101001001101001100010111111110101000001000011000100111 8
b10000000010 x
b10100100011111110000110110101111011101110001100010111 u
b10000000000 t
0v
b11010011001110001000101111111001010111100101010101101 q
b10000000010 p
b111000010000111111011110100001100111011101101100101110 k
b10000000001 j
1l
b10001100000001100100011010001000111000110101100101111 c
b11100111001010110011100010011101101010110100110000 b
b10000000010 a
b10000000010 `
0d
b10011001010110110111101000110010000110110001000101001 Z
b1101110011110100001010000000011100010001001100111000 X
b110010110101111100011100011111000110000011000100010100000000000000000000000000000000000000000000000000000 <
b11001011010111110001110001111100011000001100010001010 R
b100110011110000101010010011110011001100010011111000000000000000000000000000000000000000000000000000000000 >
b10011001111000010101001001111001100110001001111100000 Q
b0 =
b110010110101111100011100011111000110000011000100010100000000000000000000000000000000000000000000000000 ;
b11 P
b1111111111 O
b10000000010 N
b100001100111010010100001101100010111100011011011 J
b1110011010111110111011101100010100111100100000100001 I
b10000000010 H
b10000000001 G
0L
b11000011010010101 1
b1 /
1#
#22000
b1011111111110000110011011000110110101010001010010000011100101011 %
b1011111111110000110011011000110110101010001010010000011100101011 5
b100000000011011110010001100111110101010111000001000010001011110 $
b100000000011011110010001100111110101010111000001000010001011110 4
b1010 .
0#
#23000
b0 [
b1111001101011111011101110110001010011110010000010000 Y
1F
b1111001101011111011101110110001010011110010000010000 :
b0 9
0C
0A
b111010101000111101001100111010001011011011000100001111 n
b100000111110101011000111000110101101000111010101100001 g
b110100110011100010001011111110010101111001010101011010 z
b11111111111111111111111111111111 ~
b1 }
b110011011000110110101010001010010000011100101011 J
b1011110010001100111110101010111000001000010001011110 I
b1111111111 H
1L
b100001000011001110100101000011011000101111000110110110000000000000000000000000000000000000000000000000000 <
b10000100001100111010010100001101100010111100011011011 R
b111100110101111101110111011000101001111001000001000010000000000000000000000000000000000000000000000000000 >
b11110011010111110111011101100010100111100100000100001 Q
b11110011010111110111011101100010100111100100000100001000000000000000000000000000000000000000000000000000 =
b0 ;
b111111111111 P
b10000000010 O
b10000000001 N
0T
b11001011010111110001110001111100011000001100010001 Z
b10011001111000010101001001111001100110001001111100000 X
b10011001010110110111101000110010000110110001000101001 c
b1101110011110100001010000000011100010001001100111000 b
b110010000110111110010000010001010110100100001000000001 k
1h
b10000000010 j
b111000010000111111011110100001100111011101101100101110 q
b10000000001 p
1r
b11010011001110001000101111111001010111100101010101101 u
b10000000010 t
b100100011111110000110110101111011101110001100010111 y
b10000000000 x
b100000000000100100011111110000110110101111011101110001100010111 !
b100000000000100100011111110000110110101111011101110001100010111 8
0{
b10 /
b1 +
b11000011010010100 1
1#
#24000
b1100000000000001010000011111111000101111100000110100000011100001 %
b1100000000000001010000011111111000101111100000110100000011100001 5
b100000000100011110101111001000111101110101011000010010011110100 $
b100000000100011110101111001000111101110101011000010010011110100 4
b1011 .
0#
#25000
17
b100001100110110001101101010100010100100000111001011 [
b0 Y
b111000010000111111011110100001100111011101101100101110 z
b11111111111111111111111111111111 ~
b1 }
0i
0m
b10000000011101010110111011101010000011001000011001111 n
b10110011010011010011011000001001001001001011011110001 g
b0 :
0F
b100001100110110001101101010100010100100000111001010 9
1E
1A
b1010011001110001000101111111001010111100101010101101 y
b100000000101010011001110001000101111111001010111100101010101101 !
b100000000101010011001110001000101111111001010111100101010101101 8
b10000000010 x
b11100001000011111101111010000110011101110110110010111 u
1v
b1101111001000001101111101110101001011011110111111111 q
b10000000010 p
b111010101000111101001100111010001011011011000100001111 k
1_
b11001011010111110001110001111100011000001100010001 c
b10011001111000010101001001111001100110001001111100000 b
b10000100001100111010010100001101100010111100011011011 Z
b1111001101011111011101110110001010011110010000010000 X
0]
b100001100110110001101101010100010100100000111001010110000000000000000000000000000000000000000000000000000 <
b10000110011011000110110101010001010010000011100101011 R
b110111100100011001111101010101110000010000100010111100000000000000000000000000000000000000000000000000000 >
b11011110010001100111110101010111000001000010001011110 Q
b0 =
b1000011001101100011011010101000101001000001110010101100000000000000000000000000000000000000000000000000 ;
b10 P
b1111111111 O
1T
b1010000011111111000101111100000110100000011100001 J
b11110101111001000111101110101011000010010011110100 I
b10000000000 H
b10000000010 G
b11000011010010011 1
b11 /
b10 +
1#
#26000
b1100000000100001110011011101100010001010100011111111100101001101 %
b1100000000100001110011011101100010001010100011111111100101001101 5
b100000000010011110000000101000100001101000101001011100111000001 $
b100000000010011110000000101000100001101000101001011100111000001 4
b1100 .
0#
#27000
b100010100000111111110001011111000001101000000111000 [
07
b100010100000111111110001011111000001101000000111000 9
0E
b111110101011111000001011010100011110000110101100110101 n
b11111101111000110110000010111110110110101110011101011 g
b11011110010000011011111011101010010110111101111111110 z
b11111111111111111111111111111111 ~
b1 }
b1110011011101100010001010100011111111100101001101 J
b11110000000101000100001101000101001011100111000001 I
b10000000010 H
b10000000001 G
b1000101000001111111100010111110000011010000001110000100000000000000000000000000000000000000000000000000 ;
b100010100000111111110001011111000001101000000111000010000000000000000000000000000000000000000000000000000 <
b10001010000011111111000101111100000110100000011100001 R
b100111101011110010001111011101010110000100100111101000000000000000000000000000000000000000000000000000000 >
b10011110101111001000111101110101011000010010011110100 Q
b10000000000 O
b10000000010 N
b100001100110110001101101010100010100100000111001011 Z
b11011110010001100111110101010111000001000010001011110 X
b10000000001 W
b10000000001 V
1]
0_
b10000100001100111010010100001101100010111100011011011 c
b1111001101011111011101110110001010011110010000010000 b
0e
b10000000011101010110111011101010000011001000011001111 k
0h
0l
b101010111000010110011000101110100100100111011110001 q
b1101111001000001101111101110101001011011110111111111 u
b1100001000011111101111010000110011101110110110010111 y
b1100000000101100001000011111101111010000110011101110110110010111 !
b1100000000101100001000011111101111010000110011101110110110010111 8
1{
b100 /
b11 +
b11000011010010010 1
1#
#28000
b1100000000010101001001011011101111011100111101101010000111000100 %
b1100000000010101001001011011101111011100111101101010000111000100 5
b100000000100000100001101101110001010111001011001010110101001010 $
b100000000100000100001101101110001010111001011001010110101001010 4
b1101 .
0#
#29000
b0 [
b1001111000000010100010000110100010100101110011100000 Y
b10101011100001011001100010111010010010011101111000100 z
b11111111111111111111111111111111 ~
b10 }
b10111100101010110110001000000010101100100001010010011 n
b11111111111000011001100010101011010101100011000101001 g
1F
b1001111000000010100010000110100010100101110011100000 :
b0 9
0A
b1011110010000011011111011101010010110111101111111110 y
b1100000000011011110010000011011111011101010010110111101111111110 !
b1100000000011011110010000011011111011101010010110111101111111110 8
b10000000001 x
b101010111000010110011000101110100100100111011110001 u
b10000000011101010110111011101010000011001000011001111 q
0r
b11111101111000110110000010111110110110101110011101011 k
1_
b100001100110110001101101010100010100100000111001011 c
b11011110010001100111110101010111000001000010001011110 b
b10000000001 a
b10000000001 `
1e
b100010100000111111110001011111000001101000000111000 Z
b10011110101111001000111101110101011000010010011110100 X
b10000000010 W
b10000000010 V
b100011100110111011000100010101000111111111001010011010000000000000000000000000000000000000000000000000000 <
b10001110011011101100010001010100011111111100101001101 R
b100111100000001010001000011010001010010111001110000010000000000000000000000000000000000000000000000000000 >
b10011110000000101000100001101000101001011100111000001 Q
b10011110000000101000100001101000101001011100111000001000000000000000000000000000000000000000000000000000 =
b0 ;
b111111111111 P
b10000000010 O
b10000000001 N
b101001001011011101111011100111101101010000111000100 J
b100001101101110001010111001011001010110101001010 I
b10000000001 H
b10000000010 G
b11000011010010001 1
b101 /
1#
#30000
b1011111111110101001111111001111110101110110101011001011110101100 %
b1011111111110101001111111001111110101110110101011001011110101100 5
b1100000000011111111000011001010111100111101010101100000100000001 $
b1100000000011111111000011001010111100111101010101100000100000001 4
b1110 .
0#
#31000
b1010100100101101110111101110011110110101000011100010 [
b0 Y
b0 :
0F
b1010100100101101110111101110011110110101000011100010 9
b1111100001110001001001100010110010110101010010111100 n
b11000001010000001000101111010100011001111010100101100 g
b11101010110111011101010000011001000011001111000000000 z
b11111111111111111111111111111111 ~
b1001 }
b101001111111001111110101110110101011001011110101100 J
b1111111000011001010111100111101010101100000100000001 I
b1111111111 H
b10000000001 G
1K
b101010010010110111011110111001111011010100001110001000000000000000000000000000000000000000000000000000000 <
b10101001001011011101111011100111101101010000111000100 R
b100001000011011011100010101110010110010101101010010100000000000000000000000000000000000000000000000000000 >
b10000100001101101110001010111001011001010110101001010 Q
b0 =
b10101001001011011101111011100111101101010000111000100000000000000000000000000000000000000000000000000000 ;
b1 P
b10000000001 O
b10000000010 N
b10001110011011101100010001010100011111111100101001101 Z
b1001111000000010100010000110100010100101110011100000 X
b100010100000111111110001011111000001101000000111000 c
b10011110101111001000111101110101011000010010011110100 b
b10000000010 a
b10000000010 `
b10111100101010110110001000000010101100100001010010011 k
b10000000001 j
b11111101111000110110000010111110110110101110011101011 q
b10000000011101010110111011101010000011001000011001111 u
0v
b101011100001011001100010111010010010011101111000100 y
b1100000000000101011100001011001100010111010010010011101111000100 !
b1100000000000101011100001011001100010111010010010011101111000100 8
b10000000000 x
b110 /
b100 +
b11000011010010000 1
1#
#32000
b1100000000100001100110010001111010000101010001111100010100111111 %
b1100000000100001100110010001111010000101010001111100010100111111 5
b1100000000010101100001110000000001101101101111001000010110101000 $
b1100000000010101100001110000000001101101101111001000010110101000 4
b1111 .
0#
#33000
b101010011111110011111101011101101010110010111101011 [
b111111011110001101100000101111101101101011100111010110 z
b11111111111111111111111111111111 ~
b1 }
1i
1m
b111000000100100100111111111011111110100110001110010011 n
b11011101011100000000100010001000110100101011000101101 g
b101010011111110011111101011101101010110010111101011 9
1C
b11101010110111011101010000011001000011001111 y
b10000000010 x
b100000000100000000011101010110111011101010000011001000011001111 !
b100000000100000000011101010110111011101010000011001000011001111 8
0{
b11111101111000110110000010111110110110101110011101011 u
b10111100101010110110001000000010101100100001010010011 q
b10000000001 p
b1111100001110001001001100010110010110101010010111100 k
b10000000010 j
0_
b10001110011011101100010001010100011111111100101001101 c
b1001111000000010100010000110100010100101110011100000 b
b1010100100101101110111101110011110110101000011100010 Z
b10000100001101101110001010111001011001010110101001010 X
b101010011111110011111101011101101010110010111101011000000000000000000000000000000000000000000000000000000 <
b10101001111111001111110101110110101011001011110101100 R
b111111110000110010101111001111010101011000001000000010000000000000000000000000000000000000000000000000000 >
b11111111000011001010111100111101010101100000100000001 Q
b1010100111111100111111010111011010101100101111010110000000000000000000000000000000000000000000000000000 ;
b10 P
b1111111111 O
b10000000001 N
1S
b1100110010001111010000101010001111100010100111111 J
b101100001110000000001101101101111001000010110101000 I
b10000000010 H
b11000011010001111 1
b111 /
b101 +
1#
#34000
b100000000011011010100110110100001001110010000010010110101010001 %
b100000000011011010100110110100001001110010000010010110101010001 5
b11111111110101110010110110100011101011100011010001001010001001 $
b11111111110101110010110110100011101011100011010001001010001001 4
b10000 .
0#
#35000
b0 [
b1010110000111000000000110110110111100100001011010100 Y
b1010110000111000000000110110110111100100001011010100 :
b0 9
0C
0i
0m
b101111100111111111001101000101100010101110001101000 n
b11011000110011011101001000101101001111111111000101100 g
b11110010101011011000100000001010110010000101001001100 z
b11111111111111111111111111111111 ~
b10 }
b1011010100110110100001001110010000010010110101010001 J
b101110010110110100011101011100011010001001010001001 I
b10000000001 H
b1111111111 G
0L
0K
b100011001100100011110100001010100011111000101001111110000000000000000000000000000000000000000000000000000 <
b10001100110010001111010000101010001111100010100111111 R
b101011000011100000000011011011011110010000101101010000000000000000000000000000000000000000000000000000000 >
b10101100001110000000001101101101111001000010110101000 Q
b10101100001110000000001101101101111001000010110101000000000000000000000000000000000000000000000000000000 =
b0 ;
b111111111111 P
b10000000010 O
b101010011111110011111101011101101010110010111101011 Z
b11111111000011001010111100111101010101100000100000001 X
b10000000001 W
b10000000001 V
1\
1_
b1010100100101101110111101110011110110101000011100010 c
b10000100001101101110001010111001011001010110101001010 b
b111000000100100100111111111011111110100110001110010011 k
1h
1l
b1111100001110001001001100010110010110101010010111100 q
b10000000010 p
b10111100101010110110001000000010101100100001010010011 u
b10000000001 t
b100000000101111101111000110110000010111110110110101110011101011 !
b100000000101111101111000110110000010111110110110101110011101011 8
b1111101111000110110000010111110110110101110011101011 y
b1000 /
b11000011010001110 1
1#
#36000
b100000000000101100110101100011110000111101001001011010110111110 %
b100000000000101100110101100011110000111101001001011010110111110 5
b1100000000010111100001100111001100000111011000100000100010101111 $
b1100000000010111100001100111001100000111011000100000100010101111 4
b10001 .
0#
