Spring_Final_Project/Operator/fiFFNTT_mul/CLA17/HDL/CLA17.vcd
$date
	Sun Jun 15 19:00:47 2025
$end
$version
	Icarus Verilog
$end
$timescale
	1ps
$end
$scope module CLA17_tb $end
$var wire 18 ! result [17:0] $end
$var wire 1 " out_valid $end
$var reg 17 # A [16:0] $end
$var reg 17 $ B [16:0] $end
$var reg 1 % Cin $end
$var reg 17 & a_bin [16:0] $end
$var reg 17 ' b_bin [16:0] $end
$var reg 1 ( clk $end
$var reg 1 ) in_valid $end
$var reg 1 * rstn $end
$var reg 17 + s_bin [16:0] $end
$var integer 32 , errors [31:0] $end
$var integer 32 - fd [31:0] $end
$var integer 32 . j [31:0] $end
$var integer 32 / k [31:0] $end
$var integer 32 0 pat_cnt [31:0] $end
$var integer 32 1 r [31:0] $end
$var integer 32 2 signed_sum [31:0] $end
$var integer 32 3 timeout [31:0] $end
$scope module uut $end
$var wire 17 4 A [16:0] $end
$var wire 17 5 B [16:0] $end
$var wire 1 % Cin $end
$var wire 1 ( clk $end
$var wire 1 ) in_valid $end
$var wire 1 * rst_n $end
$var wire 2 6 stage1_result_fa [1:0] $end
$var wire 18 7 result [17:0] $end
$var reg 1 " out_valid $end
$var reg 1 8 stage0_Cin $end
$var reg 17 9 stage0_in_A [16:0] $end
$var reg 17 : stage0_in_B [16:0] $end
$var reg 1 ; stage0_invalid $end
$var integer 32 < i [31:0] $end
$scope module CLA1 $end
$var wire 8 = A [7:0] $end
$var wire 8 > B [7:0] $end
$var wire 1 ? Cin $end
$var wire 9 @ result [8:0] $end
$var reg 9 A C [8:0] $end
$var reg 8 B G [7:0] $end
$var reg 8 C P [7:0] $end
$var reg 8 D S [7:0] $end
$var integer 32 E i [31:0] $end
$upscope $end
$scope module CLA2 $end
$var wire 8 F A [7:0] $end
$var wire 8 G B [7:0] $end
$var wire 1 H Cin $end
$var wire 9 I result [8:0] $end
$var reg 9 J C [8:0] $end
$var reg 8 K G [7:0] $end
$var reg 8 L P [7:0] $end
$var reg 8 M S [7:0] $end
$var integer 32 N i [31:0] $end
$upscope $end
$scope module CLA3 $end
$var wire 8 O A [7:0] $end
$var wire 8 P B [7:0] $end
$var wire 1 Q Cin $end
$var wire 9 R result [8:0] $end
$var reg 9 S C [8:0] $end
$var reg 8 T G [7:0] $end
$var reg 8 U P [7:0] $end
$var reg 8 V S [7:0] $end
$var integer 32 W i [31:0] $end
$upscope $end
$scope module FA1 $end
$var wire 1 X A $end
$var wire 1 Y B $end
$var wire 1 Z Cin $end
$var wire 1 [ Sum $end
$var wire 1 \ Cout $end
$upscope $end
$scope module FA2 $end
$var wire 1 ] A $end
$var wire 1 ^ B $end
$var wire 1 _ Cin $end
$var wire 1 ` Sum $end
$var wire 1 a Cout $end
$upscope $end
$upscope $end
$upscope $end
$enddefinitions $end
#0
$dumpvars
0a
1`
1_
0^
0]
0\
0[
0Z
0Y
0X
b1000 W
b1 V
b0 U
b0 T
b1 S
b1 R
1Q
b0 P
b0 O
b1000 N
b0 M
b0 L
b0 K
b0 J
b0 I
0H
b0 G
b0 F
b1000 E
b0 D
b0 C
b0 B
b0 A
b0 @
0?
b0 >
b0 =
b10 <
0;
b0 :
b0 9
08
b0 7
b0 6
b0 5
b0 4
b11000011010100000 3
bx 2
b11 1
b1111101000 0
b0 /
bx .
b10000000000000000000000000000011 -
b0 ,
b11000000111100001 +
0*
0)
0(
b11101000000000001 '
b11011000111100000 &
0%
b0 $
b0 #
0"
b0 !
$end
#5000
b10 <
b11000011010011111 3
1(
#10000
0(
#15000
b10 <
b11000011010011110 3
1*
1(
#20000
b11101000000000001 $
b11101000000000001 5
b10000000000 #
b10000000000 4
1)
b0 .
0(
#25000
b1 @
b1 D
b11010100 I
b11010100 M
b11010101 R
b11010101 V
b1 C
b1000 E
1[
0`
1a
b11010100 L
b1000 N
b11010100 U
b1000 W
b1 >
b11010000 G
b11010000 P
1Y
1^
b100 F
b100 O
1;
b11101000000000001 :
b10000000000 9
b10 <
b11000011010011101 3
1(
#30000
b10000000000000 #
b10000000000000 4
b1 .
0(
#35000
b11110001 R
b11110001 V
b11110000 I
b11110000 M
b11110000 U
b1000 W
b11110000 L
b1000 N
b100000 F
b100000 O
b1 6
b11101010000000001 !
b11101010000000001 7
b10000000000000 9
1"
b10 <
b11000011010011100 3
1(
#40000
b10000000 #
b10000000 4
b10 .
0(
#45000
b10000001 @
b10000001 D
b11010000 I
b11010000 M
b11010001 R
b11010001 V
b11111000000000001 !
b11111000000000001 7
b10000001 C
b1000 E
b11010000 L
b1000 N
b11010000 U
b1000 W
b10000000 =
b0 F
b0 O
b10000000 9
b10 <
b11000011010011011 3
b1 /
b11111111111111111101010000000001 2
1(
#50000
b11111111111111110 #
b11111111111111110 4
b11 .
0(
#55000
b11111111 @
b11111111 D
b111010000 R
b11010000 V
b111111111 S
b111001111 I
b11001111 M
b111100000 J
b11111111 C
b1000 E
b11010000 T
b101111 U
b1000 W
b11010000 K
b101111 L
b1000 N
0[
1\
1`
b11111110 =
b11111111 F
b11111111 O
1X
1]
b11101000010000001 !
b11101000010000001 7
b11111111111111110 9
b10 <
b10 /
b11111111111111111111000000000001 2
b11000011010011010 3
1(
#60000
b11000000000000000 #
b11000000000000000 4
b100 .
0(
#65000
b1 @
b1 D
b101010000 I
b1010000 M
b100000000 J
b101010001 R
b1010001 V
b100000001 S
b1 C
b1000 E
b10000000 K
b1010000 L
b1000 N
b10000000 T
b1010000 U
b1000 W
b11 6
b111100111111111111 !
b111100111111111111 7
b0 =
b10000000 F
b10000000 O
b11000000000000000 9
b10 <
b11000011010011001 3
b11 /
b11111111111111111101000010000001 2
1(
#70000
b11111000000000000 #
b11111000000000000 4
b101 .
0(
#75000
b111000001 R
b11000001 V
b111100001 S
b111000000 I
b11000000 M
b111100000 J
b100000 U
b11010000 T
b1000 W
b100000 L
b11010000 K
b1000 N
b11110000 F
b11110000 O
b110101000000000001 !
b110101000000000001 7
b11111000000000000 9
b10 <
b100 /
b11111111111111111100111111111111 2
b11000011010011000 3
1(
#80000
b11111111111111110 #
b11111111111111110 4
b110 .
0(
#85000
b11111111 @
b11111111 D
b111001111 I
b11001111 M
b111010000 R
b11010000 V
b111111111 S
b111100000000000001 !
b111100000000000001 7
b11111111 C
b1000 E
b101111 L
b1000 N
b101111 U
b1000 W
b11111110 =
b11111111 F
b11111111 O
b11111111111111110 9
b10 <
b11000011010010111 3
b101 /
b11111111111111110101000000000001 2
1(
#90000
b11111111111100000 #
b11111111111100000 4
b111 .
0(
#95000
b11100001 @
b11100001 D
b11100001 C
b1000 E
b11100000 =
b111100111111111111 !
b111100111111111111 7
b11111111111100000 9
b10 <
b110 /
b11111111111111111100000000000001 2
b11000011010010110 3
1(
#100000
b11111111111000000 #
b11111111111000000 4
b1000 .
0(
#105000
b11000001 @
b11000001 D
b11000001 C
b1000 E
b111100111111100001 !
b111100111111100001 7
b11000000 =
b11111111111000000 9
b10 <
b11000011010010101 3
b111 /
b11111111111111111100111111111111 2
1(
#110000
b11110000000000000 #
b11110000000000000 4
b1001 .
0(
#115000
b1 @
b1 D
b110110001 R
b10110001 V
b110000001 S
b110110000 I
b10110000 M
b110000000 J
b1 C
b1000 E
b11000000 T
b110000 U
b1000 W
b11000000 K
b110000 L
b1000 N
b0 =
b11100000 F
b11100000 O
b111100111111000001 !
b111100111111000001 7
b11110000000000000 9
b10 <
b1000 /
b11111111111111111100111111100001 2
b11000011010010100 3
1(
#120000
b100 #
b100 4
b1010 .
0(
#125000
b101 @
b101 D
b11010000 I
b11010000 M
b0 J
b11010001 R
b11010001 V
b1 S
b101 C
b1000 E
b0 K
b11010000 L
b1000 N
b0 T
b11010000 U
b1000 W
1[
0\
0`
b111011000000000001 !
b111011000000000001 7
b100 =
b0 F
b0 O
0X
0]
b100 9
b10 <
b11000011010010011 3
b1001 /
b11111111111111111100111111000001 2
1(
#130000
b11111110000000000 #
b11111110000000000 4
b1011 .
0(
#135000
b1 @
b1 D
b111001101 R
b11001101 V
b111100001 S
b111001100 I
b11001100 M
b111100000 J
b1 C
b1000 E
b11010000 T
b101100 U
b1000 W
b11010000 K
b101100 L
b1000 N
0[
1\
1`
b0 =
b11111100 F
b11111100 O
1X
1]
b1 6
b11101000000000101 !
b11101000000000101 7
b11111110000000000 9
b10 <
b1010 /
b11111111111111111011000000000001 2
b11000011010010010 3
1(
#140000
b11111000000000000 #
b11111000000000000 4
b1100 .
0(
#145000
b111000000 I
b11000000 M
b111000001 R
b11000001 V
b100000 L
b1000 N
b100000 U
b1000 W
b11 6
b111100110000000001 !
b111100110000000001 7
b11110000 F
b11110000 O
b11111000000000000 9
b10 <
b11000011010010001 3
b1011 /
b11111111111111111101000000000101 2
1(
#150000
b11111111111100000 #
b11111111111100000 4
b1101 .
0(
#155000
b11100001 @
b11100001 D
b111010000 R
b11010000 V
b111111111 S
b111001111 I
b11001111 M
b11100001 C
b1000 E
b101111 U
b1000 W
b101111 L
b1000 N
b111100000000000001 !
b111100000000000001 7
b11100000 =
b11111111 F
b11111111 O
b11111111111100000 9
b10 <
b1100 /
b11111111111111111100110000000001 2
b11000011010010000 3
1(
#160000
b10000000 #
b10000000 4
b1110 .
0(
#165000
b10000001 @
b10000001 D
b11010000 I
b11010000 M
b0 J
b11010001 R
b11010001 V
b1 S
b10000001 C
b1000 E
b0 K
b11010000 L
b1000 N
b0 T
b11010000 U
b1000 W
1[
0\
0`
b111100111111100001 !
b111100111111100001 7
b10000000 =
b0 F
b0 O
0X
0]
b10000000 9
b10 <
b11000011010001111 3
b1101 /
b11111111111111111100000000000001 2
1(
#170000
b100000000000 #
b100000000000 4
b1111 .
0(
#175000
b1 @
b1 D
b11011001 R
b11011001 V
b11011000 I
b11011000 M
b1 C
b1000 E
b11011000 U
b1000 W
b11011000 L
b1000 N
b0 =
b1000 F
b1000 O
b1 6
b11101000010000001 !
b11101000010000001 7
b100000000000 9
b10 <
b1110 /
b11111111111111111100111111100001 2
b11000011010001110 3
1(
#180000
b10000000000000000 #
b10000000000000000 4
b10000 .
0(
#185000
b11010000 I
b11010000 M
b11010001 R
b11010001 V
b11010000 L
b1000 N
b11010000 U
b1000 W
0[
1\
1`
b11101100000000001 !
b11101100000000001 7
b0 F
b0 O
1X
1]
b10000000000000000 9
b10 <
b11000011010001101 3
b1111 /
b11111111111111111101000010000001 2
1(
#190000
b1000000000000000 #
b1000000000000000 4
b10001 .
0(
#195000
b101010001 R
b1010001 V
b100000001 S
b101010000 I
b1010000 M
b100000000 J
b1010000 U
b10000000 T
b1000 W
b1010000 L
b10000000 K
b1000 N
1[
0\
0`
b10000000 F
b10000000 O
0X
0]
b101101000000000001 !
b101101000000000001 7
b10 6
b1000000000000000 9
b10 <
b10000 /
b11111111111111111101100000000001 2
b11000011010001100 3
1(
#200000
b11111111111111000 #
b11111111111111000 4
b10010 .
0(
#205000
b11111001 @
b11111001 D
b111001111 I
b11001111 M
b111100000 J
b111010000 R
b11010000 V
b111111111 S
b11111001 C
b1000 E
b11010000 K
b101111 L
b1000 N
b11010000 T
b101111 U
b1000 W
0[
1\
1`
b100101000000000001 !
b100101000000000001 7
b10 6
b11111000 =
b11111111 F
b11111111 O
1X
1]
b11111111111111000 9
b10 <
b11000011010001011 3
b10001 /
b1101000000000001 2
1(
#210000
b11111000000000000 #
b11111000000000000 4
b10011 .
0(
#215000
b1 @
b1 D
b111000001 R
b11000001 V
b111100001 S
b111000000 I
b11000000 M
b1 C
b1000 E
b100000 U
b1000 W
b100000 L
b1000 N
b0 =
b11110000 F
b11110000 O
b11 6
b111100111111111001 !
b111100111111111001 7
b11111000000000000 9
b10 <
b10010 /
b101000000000001 2
b11000011010001010 3
1(
#220000
b100000000000000 #
b100000000000000 4
b10100 .
0(
#225000
b100010000 I
b10000 M
b110000000 J
b100010001 R
b10001 V
b110000001 S
b10010000 L
b1000000 K
b1000 N
b10010000 U
b1000000 T
b1000 W
1[
0\
0`
b111100000000000001 !
b111100000000000001 7
b1000000 F
b1000000 O
0X
0]
b100000000000000 9
b10 <
b11000011010001001 3
b10011 /
b11111111111111111100111111111001 2
1(
#230000
b11111111111100000 #
b11111111111100000 4
b10101 .
0(
#235000
b11100001 @
b11100001 D
b111010000 R
b11010000 V
b111111111 S
b111001111 I
b11001111 M
b111100000 J
b11100001 C
b1000 E
b11010000 T
b101111 U
b1000 W
b11010000 K
b101111 L
b1000 N
0[
1\
1`
b11100000 =
b11111111 F
b11111111 O
1X
1]
b100001000000000001 !
b100001000000000001 7
b10 6
b11111111111100000 9
b10 <
b10100 /
b11111111111111111100000000000001 2
b11000011010001000 3
1(
#240000
b10000000000000000 #
b10000000000000000 4
b10110 .
0(
#245000
b1 @
b1 D
b11010000 I
b11010000 M
b0 J
b11010001 R
b11010001 V
b1 S
b1 C
b1000 E
b0 K
b11010000 L
b1000 N
b0 T
b11010000 U
b1000 W
b11 6
b111100111111100001 !
b111100111111100001 7
b0 =
b0 F
b0 O
b10000000000000000 9
b10 <
b11000011010000111 3
b10101 /
b1000000000001 2
1(
#250000
b11111110000000000 #
b11111110000000000 4
b10111 .
0(
#255000
b10 6
b111001101 R
b11001101 V
b111100001 S
b111001100 I
b11001100 M
b111100000 J
b11010000 T
b101100 U
b1000 W
b11010000 K
b101100 L
b1000 N
b11111100 F
b11111100 O
b101101000000000001 !
b101101000000000001 7
b11111110000000000 9
b10 <
b10110 /
b11111111111111111100111111100001 2
b11000011010000110 3
1(
#260000
b100000000000000 #
b100000000000000 4
b11000 .
0(
#265000
b11 6
b100010000 I
b10000 M
b110000000 J
b100010001 R
b10001 V
b110000001 S
b111100110000000001 !
b111100110000000001 7
b1000000 K
b10010000 L
b1000 N
b1000000 T
b10010000 U
b1000 W
1[
0\
0`
b1000000 F
b1000000 O
0X
0]
b100000000000000 9
b10 <
b11000011010000101 3
b10111 /
b1101000000000001 2
1(
#270000
b1000000 #
b1000000 4
b11001 .
0(
#275000
b1000001 @
b1000001 D
b11010001 R
b11010001 V
b1 S
b11010000 I
b11010000 M
b0 J
b1000001 C
b1000 E
b11010000 U
b0 T
b1000 W
b11010000 L
b0 K
b1000 N
b1000000 =
b0 F
b0 O
b100001000000000001 !
b100001000000000001 7
b10 6
b1000000 9
b10 <
b11000 /
b11111111111111111100110000000001 2
b11000011010000100 3
1(
#280000
b100000000 #
b100000000 4
b11010 .
0(
#285000
b1 6
b1 @
b1 D
b11010001 I
b11010001 M
b11010010 R
b11010010 V
b11 S
b1 C
b1000 E
b11010001 L
b1000 N
b11010001 U
b1000 W
b11101000001000001 !
b11101000001000001 7
b0 =
b1 F
b1 O
b100000000 9
b10 <
b11000011010000011 3
b11001 /
b1000000000001 2
1(
#290000
b10000000000 #
b10000000000 4
b11011 .
0(
#295000
b11010101 R
b11010101 V
b1 S
b11010100 I
b11010100 M
b11010100 U
b1000 W
b11010100 L
b1000 N
b100 F
b100 O
b11101000100000001 !
b11101000100000001 7
b10000000000 9
b10 <
b11010 /
b11111111111111111101000001000001 2
b11000011010000010 3
1(
#300000
b10 #
b10 4
b11100 .
0(
#305000
b11 @
b11 D
b11010000 I
b11010000 M
b11010001 R
b11010001 V
b11101010000000001 !
b11101010000000001 7
b11 C
b1000 E
b11010000 L
b1000 N
b11010000 U
b1000 W
b10 =
b0 F
b0 O
b10 9
b10 <
b11000011010000001 3
b11011 /
b11111111111111111101000100000001 2
1(
#310000
b11000000000000000 #
b11000000000000000 4
b11101 .
0(
#315000
b1 @
b1 D
b101010001 R
b1010001 V
b100000001 S
b101010000 I
b1010000 M
b100000000 J
b1 C
b1000 E
b1010000 U
b10000000 T
b1000 W
b1010000 L
b10000000 K
b1000 N
0[
1\
1`
b0 =
b10000000 F
b10000000 O
1X
1]
b11101000000000011 !
b11101000000000011 7
b11000000000000000 9
b10 <
b11100 /
b11111111111111111101010000000001 2
b11000011010000000 3
1(
#320000
b11111111111111100 #
b11111111111111100 4
b11110 .
0(
#325000
b11111101 @
b11111101 D
b111001111 I
b11001111 M
b111100000 J
b111010000 R
b11010000 V
b111111111 S
b11111101 C
b1000 E
b11010000 K
b101111 L
b1000 N
b11010000 T
b101111 U
b1000 W
b11 6
b110101000000000001 !
b110101000000000001 7
b11111100 =
b11111111 F
b11111111 O
b11111111111111100 9
b10 <
b11000011001111111 3
b11101 /
b11111111111111111101000000000011 2
1(
#330000
b10000000000000 #
b10000000000000 4
b11111 .
0(
#335000
b1 @
b1 D
b11110001 R
b11110001 V
b1 S
b11110000 I
b11110000 M
b0 J
b1 C
b1000 E
b0 T
b11110000 U
b1000 W
b0 K
b11110000 L
b1000 N
1[
0\
0`
b0 =
b100000 F
b100000 O
0X
0]
b111100111111111101 !
b111100111111111101 7
b10000000000000 9
b10 <
b11110 /
b11111111111111110101000000000001 2
b11000011001111110 3
1(
#340000
b11111000000000000 #
b11111000000000000 4
b100000 .
0(
#345000
b111000000 I
b11000000 M
b111100000 J
b111000001 R
b11000001 V
b111100001 S
b100000 L
b11010000 K
b1000 N
b100000 U
b11010000 T
b1000 W
0[
1\
1`
b1 6
b11111000000000001 !
b11111000000000001 7
b11110000 F
b11110000 O
1X
1]
b11111000000000000 9
b10 <
b11000011001111101 3
b11111 /
b11111111111111111100111111111101 2
1(
#350000
b11000000000000000 #
b11000000000000000 4
b100001 .
0(
#355000
b101010001 R
b1010001 V
b100000001 S
b101010000 I
b1010000 M
b100000000 J
b1010000 U
b10000000 T
b1000 W
b1010000 L
b10000000 K
b1000 N
b10000000 F
b10000000 O
b111100000000000001 !
b111100000000000001 7
b11 6
b11000000000000000 9
b10 <
b100000 /
b11111111111111111111000000000001 2
b11000011001111100 3
1(
#360000
b100000 #
b100000 4
b100010 .
0(
#365000
b100001 @
b100001 D
b11010000 I
b11010000 M
b0 J
b11010001 R
b11010001 V
b1 S
b110101000000000001 !
b110101000000000001 7
b100001 C
b1000 E
b11010000 L
b0 K
b1000 N
b11010000 U
b0 T
b1000 W
1[
0\
0`
b100000 =
b0 F
b0 O
0X
0]
b100000 9
b10 <
b11000011001111011 3
b100001 /
b11111111111111111100000000000001 2
1(
#370000
b11110000000000000 #
b11110000000000000 4
b100011 .
0(
#375000
b1 @
b1 D
b110110001 R
b10110001 V
b110000001 S
b110110000 I
b10110000 M
b110000000 J
b1 C
b1000 E
b11000000 T
b110000 U
b1000 W
b11000000 K
b110000 L
b1000 N
0[
1\
1`
b0 =
b11100000 F
b11100000 O
1X
1]
b1 6
b11101000000100001 !
b11101000000100001 7
b11110000000000000 9
b10 <
b100010 /
b11111111111111110101000000000001 2
b11000011001111010 3
1(
#380000
b1000000 #
b1000000 4
b100100 .
0(
#385000
b1000001 @
b1000001 D
b11010000 I
b11010000 M
b0 J
b11010001 R
b11010001 V
b1 S
b1000001 C
b1000 E
b0 K
b11010000 L
b1000 N
b0 T
b11010000 U
b1000 W
1[
0\
0`
b11 6
b111011000000000001 !
b111011000000000001 7
b1000000 =
b0 F
b0 O
0X
0]
b1000000 9
b10 <
b11000011001111001 3
b100011 /
b11111111111111111101000000100001 2
1(
#390000
b11111110000000000 #
b11111110000000000 4
b100101 .
0(
#395000
b1 @
b1 D
b111001101 R
b11001101 V
b111100001 S
b111001100 I
b11001100 M
b111100000 J
b1 C
b1000 E
b11010000 T
b101100 U
b1000 W
b11010000 K
b101100 L
b1000 N
0[
1\
1`
b0 =
b11111100 F
b11111100 O
1X
1]
b1 6
b11101000001000001 !
b11101000001000001 7
b11111110000000000 9
b10 <
b100100 /
b11111111111111111011000000000001 2
b11000011001111000 3
1(
#400000
b100110 .
0(
#405000
b11 6
b111100110000000001 !
b111100110000000001 7
b10 <
b11000011001110111 3
b100101 /
b11111111111111111101000001000001 2
1(
#410000
b11111111111111110 #
b11111111111111110 4
b100111 .
0(
#415000
b11111111 @
b11111111 D
b111001111 I
b11001111 M
b111010000 R
b11010000 V
b111111111 S
b11111111 C
b1000 E
b101111 L
b1000 N
b101111 U
b1000 W
b11111110 =
b11111111 F
b11111111 O
b11111111111111110 9
b10 <
b100110 /
b11111111111111111100110000000001 2
b11000011001110110 3
1(
#420000
b11111111111000000 #
b11111111111000000 4
b101000 .
0(
#425000
b11000001 @
b11000001 D
b11000001 C
b1000 E
b111100111111111111 !
b111100111111111111 7
b11000000 =
b11111111111000000 9
b10 <
b11000011001110101 3
b100111 /
1(
#430000
b11111111111100000 #
b11111111111100000 4
b101001 .
0(
#435000
b11100001 @
b11100001 D
b11100001 C
b1000 E
b11100000 =
b111100111111000001 !
b111100111111000001 7
b11111111111100000 9
b10 <
b101000 /
b11111111111111111100111111111111 2
b11000011001110100 3
1(
#440000
b10000000 #
b10000000 4
b101010 .
0(
#445000
b10000001 @
b10000001 D
b11010001 R
b11010001 V
b1 S
b11010000 I
b11010000 M
b0 J
b10000001 C
b1000 E
b0 T
b11010000 U
b1000 W
b0 K
b11010000 L
b1000 N
1[
0\
0`
b111100111111100001 !
b111100111111100001 7
b10000000 =
b0 F
b0 O
0X
0]
b10000000 9
b10 <
b11000011001110011 3
b101001 /
b11111111111111111100111111000001 2
1(
#450000
b101011 .
0(
#455000
b1 6
b11101000010000001 !
b11101000010000001 7
b10 <
b101010 /
b11111111111111111100111111100001 2
b11000011001110010 3
1(
#460000
b10000000000 #
b10000000000 4
b101100 .
0(
#465000
b1 @
b1 D
b11010100 I
b11010100 M
b11010101 R
b11010101 V
b1 C
b1000 E
b11010100 L
b1000 N
b11010100 U
b1000 W
b0 =
b100 F
b100 O
b10000000000 9
b10 <
b11000011001110001 3
b101011 /
b11111111111111111101000010000001 2
1(
#470000
b11000000000000000 #
b11000000000000000 4
b101101 .
0(
#475000
b101010001 R
b1010001 V
b100000001 S
b101010000 I
b1010000 M
b100000000 J
b10000000 T
b1010000 U
b1000 W
b10000000 K
b1010000 L
b1000 N
0[
1\
1`
b10000000 F
b10000000 O
1X
1]
b11101010000000001 !
b11101010000000001 7
b11000000000000000 9
b10 <
b101100 /
b11000011001110000 3
1(
#480000
b1000000 #
b1000000 4
b101110 .
0(
#485000
b1000001 @
b1000001 D
b11010000 I
b11010000 M
b0 J
b11010001 R
b11010001 V
b1 S
b1000001 C
b1000 E
b11010000 L
b0 K
b1000 N
b11010000 U
b0 T
b1000 W
1[
0\
0`
b110101000000000001 !
b110101000000000001 7
b11 6
b1000000 =
b0 F
b0 O
0X
0]
b1000000 9
b10 <
b11000011001101111 3
b101101 /
b11111111111111111101010000000001 2
1(
#490000
b1 #
b1 4
b101111 .
0(
#495000
b10 @
b10 D
b10 A
b0 C
b1 B
b1000 E
b1 =
b1 6
b11101000001000001 !
b11101000001000001 7
b1 9
b10 <
b101110 /
b11111111111111110101000000000001 2
b11000011001101110 3
1(
#500000
b11111100000000000 #
b11111100000000000 4
b110000 .
0(
#505000
b1 @
b1 D
b0 A
b111001001 R
b11001001 V
b111100001 S
b111001000 I
b11001000 M
b111100000 J
b1 C
b0 B
b1000 E
b11010000 T
b101000 U
b1000 W
b11010000 K
b101000 L
b1000 N
0[
1\
1`
b11101000000000010 !
b11101000000000010 7
b0 =
b11111000 F
b11111000 O
1X
1]
b11111100000000000 9
b10 <
b11000011001101101 3
b101111 /
b11111111111111111101000001000001 2
1(
#510000
b10000000 #
b10000000 4
b110001 .
0(
#515000
b10000001 @
b10000001 D
b11010000 I
b11010000 M
b0 J
b11010001 R
b11010001 V
b1 S
b10000001 C
b1000 E
b0 K
b11010000 L
b1000 N
b0 T
b11010000 U
b1000 W
1[
0\
0`
b10000000 =
b0 F
b0 O
0X
0]
b11 6
b111100100000000001 !
b111100100000000001 7
b10000000 9
b10 <
b110000 /
b11111111111111111101000000000010 2
b11000011001101100 3
1(
#520000
b11111111111100000 #
b11111111111100000 4
b110010 .
0(
#525000
b11100001 @
b11100001 D
b111010000 R
b11010000 V
b111111111 S
b111001111 I
b11001111 M
b111100000 J
b11100001 C
b1000 E
b11010000 T
b101111 U
b1000 W
b11010000 K
b101111 L
b1000 N
0[
1\
1`
b1 6
b11101000010000001 !
b11101000010000001 7
b11100000 =
b11111111 F
b11111111 O
1X
1]
b11111111111100000 9
b10 <
b11000011001101011 3
b110001 /
b11111111111111111100100000000001 2
1(
#530000
b10000000 #
b10000000 4
b110011 .
0(
#535000
b10000001 @
b10000001 D
b11010000 I
b11010000 M
b0 J
b11010001 R
b11010001 V
b1 S
b10000001 C
b1000 E
b0 K
b11010000 L
b1000 N
b0 T
b11010000 U
b1000 W
1[
0\
0`
b10000000 =
b0 F
b0 O
0X
0]
b11 6
b111100111111100001 !
b111100111111100001 7
b10000000 9
b10 <
b110010 /
b11111111111111111101000010000001 2
b11000011001101010 3
1(
#540000
b10 #
b10 4
b110100 .
0(
#545000
b11 @
b11 D
b11 C
b1000 E
b1 6
b11101000010000001 !
b11101000010000001 7
b10 =
b10 9
b10 <
b11000011001101001 3
b110011 /
b11111111111111111100111111100001 2
1(
#550000
b11111111111111111 #
b11111111111111111 4
b110101 .
0(
#555000
b100000000 @
b0 D
b111111110 A
b111010000 R
b11010000 V
b111111111 S
b111001111 I
b11001111 M
b111100000 J
b11111110 C
b1 B
b1000 E
b11010000 T
b101111 U
b1000 W
b11010000 K
b101111 L
b1000 N
0[
1\
1`
b11111111 =
b11111111 F
b11111111 O
1X
1]
b11101000000000011 !
b11101000000000011 7
b11111111111111111 9
b10 <
b110100 /
b11111111111111111101000010000001 2
b11000011001101000 3
1(
#560000
b100000000000000 #
b100000000000000 4
b110110 .
0(
#565000
b1 @
b1 D
b0 A
b100010000 I
b10000 M
b110000000 J
b100010001 R
b10001 V
b110000001 S
b1 C
b0 B
b1000 E
b1000000 K
b10010000 L
b1000 N
b1000000 T
b10010000 U
b1000 W
1[
0\
0`
b11 6
b111101000000000000 !
b111101000000000000 7
b0 =
b1000000 F
b1000000 O
0X
0]
b100000000000000 9
b10 <
b11000011001100111 3
b110101 /
b11111111111111111101000000000011 2
1(
#570000
b10 #
b10 4
b110111 .
0(
#575000
b11 @
b11 D
b11010001 R
b11010001 V
b1 S
b11010000 I
b11010000 M
b0 J
b11 C
b1000 E
b11010000 U
b0 T
b1000 W
b11010000 L
b0 K
b1000 N
b10 =
b0 F
b0 O
b10 6
b100001000000000001 !
b100001000000000001 7
b10 9
b10 <
b110110 /
b11111111111111111101000000000000 2
b11000011001100110 3
1(
#580000
b11111111100000000 #
b11111111100000000 4
b111000 .
0(
#585000
b1 6
b1 @
b1 D
b111001111 I
b11001111 M
b111100000 J
b111010000 R
b11010000 V
b111111111 S
b1 C
b1000 E
b11010000 K
b101111 L
b1000 N
b11010000 T
b101111 U
b1000 W
0[
1\
1`
b11101000000000011 !
b11101000000000011 7
b0 =
b11111111 F
b11111111 O
1X
1]
b11111111100000000 9
b10 <
b11000011001100101 3
b110111 /
b1000000000001 2
1(
#590000
b11111111111111000 #
b11111111111111000 4
b111001 .
0(
#595000
b11111001 @
b11111001 D
b11111001 C
b1000 E
b11111000 =
b11 6
b111100111100000001 !
b111100111100000001 7
b11111111111111000 9
b10 <
b111000 /
b11111111111111111101000000000011 2
b11000011001100100 3
1(
#600000
b11111110000000000 #
b11111110000000000 4
b111010 .
0(
#605000
b1 @
b1 D
b111001101 R
b11001101 V
b111100001 S
b111001100 I
b11001100 M
b1 C
b1000 E
b101100 U
b1000 W
b101100 L
b1000 N
b111100111111111001 !
b111100111111111001 7
b0 =
b11111100 F
b11111100 O
b11111110000000000 9
b10 <
b11000011001100011 3
b111001 /
b11111111111111111100111100000001 2
1(
#610000
b11111000000000000 #
b11111000000000000 4
b111011 .
0(
#615000
b111000000 I
b11000000 M
b111000001 R
b11000001 V
b100000 L
b1000 N
b100000 U
b1000 W
b11110000 F
b11110000 O
b111100110000000001 !
b111100110000000001 7
b11111000000000000 9
b10 <
b111010 /
b11111111111111111100111111111001 2
b11000011001100010 3
1(
#620000
b100000000000000 #
b100000000000000 4
b111100 .
0(
#625000
b100010001 R
b10001 V
b110000001 S
b100010000 I
b10000 M
b110000000 J
b111100000000000001 !
b111100000000000001 7
b10010000 U
b1000000 T
b1000 W
b10010000 L
b1000000 K
b1000 N
1[
0\
0`
b1000000 F
b1000000 O
0X
0]
b100000000000000 9
b10 <
b11000011001100001 3
b111011 /
b11111111111111111100110000000001 2
1(
#630000
b11111111111111000 #
b11111111111111000 4
b111101 .
0(
#635000
b11111001 @
b11111001 D
b111001111 I
b11001111 M
b111100000 J
b111010000 R
b11010000 V
b111111111 S
b11111001 C
b1000 E
b11010000 K
b101111 L
b1000 N
b11010000 T
b101111 U
b1000 W
0[
1\
1`
b11111000 =
b11111111 F
b11111111 O
1X
1]
b100001000000000001 !
b100001000000000001 7
b10 6
b11111111111111000 9
b10 <
b111100 /
b11111111111111111100000000000001 2
b11000011001100000 3
1(
#640000
b11111111111111111 #
b11111111111111111 4
b111110 .
0(
#645000
b100000000 @
b0 D
b111111110 A
b11111110 C
b1 B
b1000 E
b11 6
b111100111111111001 !
b111100111111111001 7
b11111111 =
b11111111111111111 9
b10 <
b11000011001011111 3
b111101 /
b1000000000001 2
1(
#650000
b1000000000 #
b1000000000 4
b111111 .
0(
#655000
b1 @
b1 D
b0 A
b11010011 R
b11010011 V
b1 S
b11010010 I
b11010010 M
b0 J
b1 C
b0 B
b1000 E
b0 T
b11010010 U
b1000 W
b0 K
b11010010 L
b1000 N
1[
0\
0`
b0 =
b10 F
b10 O
0X
0]
b111101000000000000 !
b111101000000000000 7
b1000000000 9
b10 <
b111110 /
b11111111111111111100111111111001 2
b11000011001011110 3
1(
#660000
b11111111111111110 #
b11111111111111110 4
b1000000 .
0(
