Spring_Final_Project/Operator/fiFFNTT_mul/CLA33/HDL/CLA33.vcd
$date
	Sun Jun 15 02:55:32 2025
$end
$version
	Icarus Verilog
$end
$timescale
	1ps
$end
$scope module CLA33_tb $end
$var wire 34 ! result [33:0] $end
$var wire 1 " out_valid $end
$var reg 33 # A [32:0] $end
$var reg 33 $ B [32:0] $end
$var reg 1 % Cin $end
$var reg 33 & a_bin [32:0] $end
$var reg 33 ' b_bin [32:0] $end
$var reg 1 ( clk $end
$var reg 1 ) in_valid $end
$var reg 1 * rstn $end
$var reg 33 + s_bin [32:0] $end
$var integer 32 , errors [31:0] $end
$var integer 32 - fd [31:0] $end
$var integer 32 . j [31:0] $end
$var integer 32 / k [31:0] $end
$var integer 32 0 pat_cnt [31:0] $end
$var integer 32 1 r [31:0] $end
$var integer 32 2 timeout [31:0] $end
$scope module uut $end
$var wire 33 3 A [32:0] $end
$var wire 33 4 B [32:0] $end
$var wire 1 % Cin $end
$var wire 1 ( clk $end
$var wire 1 ) in_valid $end
$var wire 1 * rst_n $end
$var wire 2 5 stage1_result_fa [1:0] $end
$var wire 34 6 result [33:0] $end
$var reg 1 " out_valid $end
$var reg 1 7 stage0_Cin $end
$var reg 33 8 stage0_in_A [32:0] $end
$var reg 33 9 stage0_in_B [32:0] $end
$var reg 1 : stage0_invalid $end
$var integer 32 ; i [31:0] $end
$scope module CLA1 $end
$var wire 8 < A [7:0] $end
$var wire 8 = B [7:0] $end
$var wire 1 > Cin $end
$var wire 9 ? result [8:0] $end
$var reg 9 @ C [8:0] $end
$var reg 8 A G [7:0] $end
$var reg 8 B P [7:0] $end
$var reg 8 C S [7:0] $end
$var integer 32 D i [31:0] $end
$upscope $end
$scope module CLA2 $end
$var wire 8 E A [7:0] $end
$var wire 8 F B [7:0] $end
$var wire 1 G Cin $end
$var wire 9 H result [8:0] $end
$var reg 9 I C [8:0] $end
$var reg 8 J G [7:0] $end
$var reg 8 K P [7:0] $end
$var reg 8 L S [7:0] $end
$var integer 32 M i [31:0] $end
$upscope $end
$scope module CLA3 $end
$var wire 8 N A [7:0] $end
$var wire 8 O B [7:0] $end
$var wire 1 P Cin $end
$var wire 9 Q result [8:0] $end
$var reg 9 R C [8:0] $end
$var reg 8 S G [7:0] $end
$var reg 8 T P [7:0] $end
$var reg 8 U S [7:0] $end
$var integer 32 V i [31:0] $end
$upscope $end
$scope module CLA4 $end
$var wire 8 W A [7:0] $end
$var wire 8 X B [7:0] $end
$var wire 1 Y Cin $end
$var wire 9 Z result [8:0] $end
$var reg 9 [ C [8:0] $end
$var reg 8 \ G [7:0] $end
$var reg 8 ] P [7:0] $end
$var reg 8 ^ S [7:0] $end
$var integer 32 _ i [31:0] $end
$upscope $end
$scope module CLA5 $end
$var wire 8 ` A [7:0] $end
$var wire 8 a B [7:0] $end
$var wire 1 b Cin $end
$var wire 9 c result [8:0] $end
$var reg 9 d C [8:0] $end
$var reg 8 e G [7:0] $end
$var reg 8 f P [7:0] $end
$var reg 8 g S [7:0] $end
$var integer 32 h i [31:0] $end
$upscope $end
$scope module CLA6 $end
$var wire 8 i A [7:0] $end
$var wire 8 j B [7:0] $end
$var wire 1 k Cin $end
$var wire 9 l result [8:0] $end
$var reg 9 m C [8:0] $end
$var reg 8 n G [7:0] $end
$var reg 8 o P [7:0] $end
$var reg 8 p S [7:0] $end
$var integer 32 q i [31:0] $end
$upscope $end
$scope module CLA7 $end
$var wire 8 r A [7:0] $end
$var wire 8 s B [7:0] $end
$var wire 1 t Cin $end
$var wire 9 u result [8:0] $end
$var reg 9 v C [8:0] $end
$var reg 8 w G [7:0] $end
$var reg 8 x P [7:0] $end
$var reg 8 y S [7:0] $end
$var integer 32 z i [31:0] $end
$upscope $end
$scope module FA1 $end
$var wire 1 { A $end
$var wire 1 | B $end
$var wire 1 } Cin $end
$var wire 1 ~ Sum $end
$var wire 1 !" Cout $end
$upscope $end
$scope module FA2 $end
$var wire 1 "" A $end
$var wire 1 #" B $end
$var wire 1 $" Cin $end
$var wire 1 %" Sum $end
$var wire 1 &" Cout $end
$upscope $end
$upscope $end
$upscope $end
$enddefinitions $end
#0
$dumpvars
0&"
1%"
1$"
0#"
0""
0!"
0~
0}
0|
0{
b1000 z
b1 y
b0 x
b0 w
b1 v
b1 u
1t
b0 s
b0 r
b1000 q
b0 p
b0 o
b0 n
b0 m
b0 l
0k
b0 j
b0 i
b1000 h
b1 g
b0 f
b0 e
b1 d
b1 c
1b
b0 a
b0 `
b1000 _
b0 ^
b0 ]
b0 \
b0 [
b0 Z
0Y
b0 X
b0 W
b1000 V
b1 U
b0 T
b0 S
b1 R
b1 Q
1P
b0 O
b0 N
b1000 M
b0 L
b0 K
b0 J
b0 I
b0 H
0G
b0 F
b0 E
b1000 D
b0 C
b0 B
b0 A
b0 @
b0 ?
0>
b0 =
b0 <
b10 ;
0:
b0 9
b0 8
07
b0 6
b0 5
b0 4
b0 3
b11000011010100000 2
b11 1
b1111101000 0
b0 /
bx .
b10000000000000000000000000000011 -
b0 ,
b111111011111111111110000000000000 +
0*
0)
0(
b111111111111111111110000000000000 '
b111111100000000000000000000000000 &
0%
b0 $
b0 #
0"
b0 !
$end
#5000
b10 ;
b11000011010011111 2
1(
#10000
0(
#15000
b10 ;
b11000011010011110 2
1*
1(
#20000
b100000000000000 $
b100000000000000 4
b1000000 #
b1000000 3
1)
b0 .
0(
#25000
b1000000 H
b1000000 L
b1000001 Q
b1000001 U
b1000000 ?
b1000000 C
b1000000 K
b1000 M
b1000000 T
b1000 V
b1000000 B
b1000 D
b1000000 F
b1000000 O
b1000000 <
1:
b100000000000000 9
b1000000 8
b10 ;
b11000011010011101 2
1(
#30000
b111111111111111111111111111100000 $
b111111111111111111111111111100000 4
b10 #
b10 3
b1 .
0(
#35000
b100000000 Q
b0 U
b111111111 R
b11111111 H
b11111111 L
b11111111 Z
b11111111 ^
b100000000 c
b0 g
b111111111 d
b11111111 l
b11111111 p
b100000000 u
b0 y
b111111111 v
b11100010 ?
b11100010 C
b11111111 T
b1000 V
b11111111 K
b1000 M
b11111111 ]
b1000 _
b11111111 f
b1000 h
b11111111 o
b1000 q
b11111111 x
b1000 z
1~
0%"
1&"
b11100010 B
b1000 D
b11100000 =
b11111111 F
b11111111 O
b11111111 X
b11111111 a
b11111111 j
b11111111 s
1|
1#"
b10 <
b100000001000000 !
b100000001000000 6
b111111111111111111111111111100000 9
b10 8
1"
b10 ;
b11000011010011100 2
1(
#40000
b111111111111111110000000000000000 $
b111111111111111110000000000000000 4
b10000000000000000000000000 #
b10000000000000000000000000 3
b10 .
0(
#45000
b0 H
b0 L
b1 Q
b1 U
b1 R
b0 ?
b0 C
b100000010 u
b10 y
b100000001 l
b1 p
b111111100 m
b0 K
b1000 M
b0 T
b1000 V
b0 B
b1000 D
b11111101 x
b10 w
b1000 z
b11111101 o
b10 n
b1000 q
b1 5
b111111111111111111111111111100010 !
b111111111111111111111111111100010 6
b0 =
b0 F
b0 O
b0 <
b10 i
b10 r
b111111111111111110000000000000000 9
b10000000000000000000000000 8
b10 ;
b11000011010011011 2
b1 /
1(
#50000
b1000 $
b1000 4
b10 #
b10 3
b11 .
0(
#55000
b10 5
b1 c
b1 g
b1 d
b0 Z
b0 ^
b1010 ?
b1010 C
b0 l
b0 p
b0 m
b1 u
b1 y
b1 v
b0 f
b1000 h
b0 ]
b1000 _
0~
1%"
0&"
b1010 B
b1000 D
b0 n
b0 o
b1000 q
b0 w
b0 x
b1000 z
b1000 =
b0 X
b0 a
b0 j
b0 s
0|
0#"
b10 <
b0 i
b0 r
b1000000001111111110000000000000000 !
b1000000001111111110000000000000000 6
b1000 9
b10 8
b10 ;
b10 /
b11000011010011010 2
1(
#60000
b111111111111111111111100000000000 $
b111111111111111111111100000000000 4
b100 #
b100 3
b100 .
0(
#65000
b11111001 Q
b11111001 U
b11111000 H
b11111000 L
b11111111 Z
b11111111 ^
b100000000 c
b0 g
b111111111 d
b100000000 u
b0 y
b111111111 v
b11111111 l
b11111111 p
b100 ?
b100 C
b11111000 T
b1000 V
b11111000 K
b1000 M
b11111111 ]
b1000 _
b11111111 f
b1000 h
b11111111 x
b1000 z
b11111111 o
b1000 q
1~
0%"
1&"
b100 B
b1000 D
b0 5
b1010 !
b1010 6
b0 =
b11111000 F
b11111000 O
b11111111 X
b11111111 a
b11111111 j
b11111111 s
1|
1#"
b100 <
b111111111111111111111100000000000 9
b100 8
b10 ;
b11000011010011001 2
b11 /
1(
#70000
b111111111111111111111111111111110 $
b111111111111111111111111111111110 4
b111111111111111111111111111100000 #
b111111111111111111111111111100000 3
b101 .
0(
#75000
b111011110 ?
b11011110 C
b111000000 @
b111111110 H
b11111110 L
b111111110 I
b111111111 Q
b11111111 U
b111111111 R
b111111111 c
b11111111 g
b111111110 Z
b11111110 ^
b111111110 [
b111111110 l
b11111110 p
b111111110 m
b111111111 u
b11111111 y
b11100000 A
b11110 B
b1000 D
b0 K
b11111111 J
b1000 M
b0 T
b11111111 S
b1000 V
b0 f
b11111111 e
b1000 h
b0 ]
b11111111 \
b1000 _
b0 o
b11111111 n
b1000 q
b0 x
b11111111 w
b1000 z
0~
1!"
1%"
b11111110 =
b11111111 F
b11111111 O
b11100000 <
b11111111 E
b11111111 N
b11111111 W
b11111111 `
b11111111 i
b11111111 r
1{
1""
b1 5
b111111111111111111111100000000100 !
b111111111111111111111100000000100 6
b111111111111111111111111111111110 9
b111111111111111111111111111100000 8
b10 ;
b100 /
b11000011010011000 2
1(
#80000
b111111111100000000000000000000000 $
b111111111100000000000000000000000 4
b111111111111111111111111100000000 #
b111111111111111111111111100000000 3
b110 .
0(
#85000
b100000000 Q
b0 U
b11111111 H
b11111111 L
b0 I
b101111111 Z
b1111111 ^
b100000000 [
b110000000 c
b10000000 g
b0 ?
b0 C
b0 @
b11111111 T
b0 S
b1000 V
b11111111 K
b0 J
b1000 M
b1111111 ]
b10000000 \
b1000 _
b1111111 f
b10000000 e
b1000 h
b0 A
b0 B
b1000 D
b11 5
b1111111111111111111111111111011110 !
b1111111111111111111111111111011110 6
b0 =
b0 F
b0 O
b10000000 X
b10000000 a
b0 <
b111111111100000000000000000000000 9
b111111111111111111111111100000000 8
b10 ;
b11000011010010111 2
b101 /
1(
#90000
b10000000000000000000000000 $
b10000000000000000000000000 4
b111111111111100000000000000000000 #
b111111111111100000000000000000000 3
b111 .
0(
#95000
b100000010 u
b10 y
b100000001 l
b1 p
b111111100 m
b0 H
b0 L
b1 Q
b1 U
b1 R
b11110001 c
b11110001 g
b1 d
b11110000 Z
b11110000 ^
b0 [
b11111101 x
b10 w
b1000 z
b11111101 o
b10 n
b1000 q
1~
0!"
0%"
b0 K
b1000 M
b0 T
b1000 V
b0 e
b11110000 f
b1000 h
b0 \
b11110000 ]
b1000 _
b0 X
b0 a
b10 j
b10 s
0|
0#"
b0 E
b0 N
b11110000 W
b11110000 `
b1111111111011111111111111100000000 !
b1111111111011111111111111100000000 6
b10000000000000000000000000 9
b111111111111100000000000000000000 8
b10 ;
b110 /
b11000011010010110 2
1(
#100000
b111111111100000000000000000000000 $
b111111111100000000000000000000000 4
b100000000000000000000000000000000 #
b100000000000000000000000000000000 3
b1000 .
0(
#105000
b10000000 Z
b10000000 ^
b10000001 c
b10000001 g
b11111111 l
b11111111 p
b0 m
b100000000 u
b0 y
0~
1!"
1%"
b10000000 ]
b1000 _
b10000000 f
b1000 h
b11111111 o
b0 n
b1000 q
b11111111 x
b0 w
b1000 z
b1000000001111100000000000000000000 !
b1000000001111100000000000000000000 6
b10 5
b10000000 X
b10000000 a
b11111111 j
b11111111 s
1|
1#"
b0 W
b0 `
b0 i
b0 r
b111111111100000000000000000000000 9
b100000000000000000000000000000000 8
b10 ;
b11000011010010101 2
b111 /
1(
#110000
b100000000000000000 $
b100000000000000000 4
b100000000000000 #
b100000000000000 3
b1001 .
0(
#115000
b11 c
b11 g
b10 Z
b10 ^
b1 u
b1 y
b1 v
b0 l
b0 p
b1000001 Q
b1000001 U
b1000000 H
b1000000 L
b10 f
b1000 h
b10 ]
b1000 _
b0 x
b1000 z
b0 o
b1000 q
0&"
b1000000 T
b1000 V
b1000000 K
b1000 M
0!"
b10 X
b10 a
b0 j
b0 s
0|
0#"
b1000000 E
b1000000 N
0{
0""
b1011111111100000000000000000000000 !
b1011111111100000000000000000000000 6
b10 5
b100000000000000000 9
b100000000000000 8
b10 ;
b1000 /
b11000011010010100 2
1(
#120000
b100000000000 $
b100000000000 4
b111111111100000000000000000000000 #
b111111111100000000000000000000000 3
b1010 .
0(
#125000
b1000 H
b1000 L
b1001 Q
b1001 U
b10000000 Z
b10000000 ^
b10000001 c
b10000001 g
b11111111 l
b11111111 p
b100000000 u
b0 y
b111111111 v
b1000 K
b1000 M
b1000 T
b1000 V
b10000000 ]
b1000 _
b10000000 f
b1000 h
b11111111 o
b1000 q
b11111111 x
b1000 z
1~
0%"
1&"
b100100000000000000 !
b100100000000000000 6
b0 5
b1000 F
b1000 O
b0 X
b0 a
b0 E
b0 N
b10000000 W
b10000000 `
b11111111 i
b11111111 r
1{
1""
b100000000000 9
b111111111100000000000000000000000 8
b10 ;
b11000011010010011 2
b1001 /
1(
#130000
b111111111111111111111111111000000 $
b111111111111111111111111111000000 4
b10000000000000000000000000000 #
b10000000000000000000000000000 3
b1011 .
0(
#135000
b11000000 ?
b11000000 C
b100000000 Q
b0 U
b111111111 R
b11111111 H
b11111111 L
b100000000 c
b0 g
b111111111 d
b11111111 Z
b11111111 ^
b100010000 u
b10000 y
b100001111 l
b1111 p
b111100000 m
b11000000 B
b1000 D
b11111111 T
b1000 V
b11111111 K
b1000 M
b11111111 f
b1000 h
b11111111 ]
b1000 _
b11101111 x
b10000 w
b1000 z
b11101111 o
b10000 n
b1000 q
b11000000 =
b11111111 F
b11111111 O
b11111111 X
b11111111 a
b11111111 j
b11111111 s
1|
1#"
b0 W
b0 `
b10000 i
b10000 r
0{
0""
b111111111100000000000100000000000 !
b111111111100000000000100000000000 6
b1 5
b111111111111111111111111111000000 9
b10000000000000000000000000000 8
b10 ;
b1010 /
b11000011010010010 2
1(
#140000
b111111111111111111100000000000000 $
b111111111111111111100000000000000 4
b100000000000000 #
b100000000000000 3
b1100 .
0(
#145000
b10 5
b0 ?
b0 C
b100000000 H
b0 L
b110000000 I
b100000001 Q
b1 U
b110000001 R
b11111111 l
b11111111 p
b0 m
b100000000 u
b0 y
b0 B
b1000 D
b1000000 J
b10000000 K
b1000 M
b1000000 S
b10000000 T
b1000 V
b11111111 o
b0 n
b1000 q
b11111111 x
b0 w
b1000 z
b1000001111111111111111111111000000 !
b1000001111111111111111111111000000 6
b0 =
b11000000 F
b11000000 O
b1000000 E
b1000000 N
b0 i
b0 r
b111111111111111111100000000000000 9
b100000000000000 8
b10 ;
b11000011010010001 2
b1011 /
1(
#150000
b111111111111111100000000000000000 $
b111111111111111100000000000000000 4
b1 #
b1 3
b1101 .
0(
#155000
b1 Q
b0 H
b10 5
b11111110 Z
b11111110 ^
b11111111 c
b11111111 g
b1 d
b1 ?
b1 C
b1 R
b0 I
b11111110 ]
b1000 _
b11111110 f
b1000 h
b1 B
b1000 D
b0 T
b0 S
b1000 V
b0 K
b0 J
b1000 M
b0 F
b0 O
b11111110 X
b11111110 a
b1 <
b0 E
b0 N
b1000000000000000000000000000000000 !
b1000000000000000000000000000000000 6
b111111111111111100000000000000000 9
b1 8
b10 ;
b1100 /
b11000011010010000 2
1(
#160000
b100000000000000000000000000000000 $
b100000000000000000000000000000000 4
b111111111111111111100000000000000 #
b111111111111111111100000000000000 3
b1110 .
0(
#165000
b1 5
b0 ?
b0 C
b11000000 H
b11000000 L
b11000001 Q
b11000001 U
b100000000 c
b0 g
b111111111 d
b11111111 Z
b11111111 ^
b0 B
b1000 D
b11000000 K
b1000 M
b11000000 T
b1000 V
b11111111 f
b1000 h
b11111111 ]
b1000 _
b1000 z
b1000 q
0~
1!"
1%"
b111111111111111100000000000000001 !
b111111111111111100000000000000001 6
b0 X
b0 a
b0 j
b0 s
b0 <
b11000000 E
b11000000 N
b11111111 W
b11111111 `
b11111111 i
b11111111 r
1{
1""
b100000000000000000000000000000000 9
b111111111111111111100000000000000 8
b10 ;
b11000011010001111 2
b1101 /
1(
#170000
b111111111111111100000000000000000 $
b111111111111111100000000000000000 4
b100000000000000000000000000000000 #
b100000000000000000000000000000000 3
b1111 .
0(
#175000
b1 Q
b1 U
b0 H
b0 L
b11111110 Z
b11111110 ^
b11111111 c
b11111111 g
b1 d
b0 T
b1000 V
b0 K
b1000 M
b11111110 ]
b1000 _
b11111110 f
b1000 h
b1000 q
b1000 z
b11111110 X
b11111110 a
b11111111 j
b11111111 s
b0 E
b0 N
b0 W
b0 `
b0 i
b0 r
b10 5
b1011111111111111111100000000000000 !
b1011111111111111111100000000000000 6
b111111111111111100000000000000000 9
b100000000000000000000000000000000 8
b10 ;
b1110 /
b11000011010001110 2
1(
#180000
b10000000 $
b10000000 4
b111111111110000000000000000000000 #
b111111111110000000000000000000000 3
b10000 .
0(
#185000
b10000000 ?
b10000000 C
b11000001 c
b11000001 g
b11000000 Z
b11000000 ^
b1011111111111111100000000000000000 !
b1011111111111111100000000000000000 6
b10000000 B
b1000 D
1~
0!"
0%"
b11000000 f
b1000 h
b11000000 ]
b1000 _
b1000 z
b1000 q
b10000000 =
b0 X
b0 a
b0 j
b0 s
0|
0#"
b11000000 W
b11000000 `
b11111111 i
b11111111 r
b10000000 9
b111111111110000000000000000000000 8
b10 ;
b11000011010001101 2
b1111 /
1(
#190000
b111111111111111111111111111110000 $
b111111111111111111111111111110000 4
b111111111111111111111110000000000 #
b111111111111111111111110000000000 3
b10001 .
0(
#195000
b11110000 ?
b11110000 C
b111111110 l
b11111110 p
b111111110 m
b111111111 u
b11111111 y
b111111011 H
b11111011 L
b111111000 I
b111111100 Q
b11111100 U
b111111111 R
b111111110 Z
b11111110 ^
b111111110 [
b111111111 c
b11111111 g
b111111111 d
b11110000 B
b1000 D
b0 o
b11111111 n
b1000 q
b0 x
b11111111 w
b1000 z
0~
1!"
1%"
b11111100 J
b11 K
b1000 M
b11111100 S
b11 T
b1000 V
b0 ]
b11111111 \
b1000 _
b0 f
b11111111 e
b1000 h
b11110000 =
b11111111 F
b11111111 O
b11111111 X
b11111111 a
b11111111 j
b11111111 s
1|
1#"
b11111100 E
b11111100 N
b11111111 W
b11111111 `
b1 5
b111111111110000000000000010000000 !
b111111111110000000000000010000000 6
b111111111111111111111111111110000 9
b111111111111111111111110000000000 8
b10 ;
b10000 /
b11000011010001100 2
1(
#200000
b111111111111110000000000000000000 $
b111111111111110000000000000000000 4
b100000000000000000 #
b100000000000000000 3
b10010 .
0(
#205000
b0 ?
b0 C
b1 Q
b1 U
b1 R
b0 H
b0 L
b0 I
b11111011 c
b11111011 g
b1 d
b11111010 Z
b11111010 ^
b0 [
b100000000 u
b0 y
b11111111 l
b11111111 p
b0 m
b0 B
b1000 D
b0 S
b0 T
b1000 V
b0 J
b0 K
b1000 M
b11111010 f
b0 e
b1000 h
b11111010 ]
b0 \
b1000 _
b11111111 x
b0 w
b1000 z
b11111111 o
b0 n
b1000 q
1~
0!"
0%"
b11 5
b1111111111111111111111101111110000 !
b1111111111111111111111101111110000 6
b0 =
b0 F
b0 O
b11111000 X
b11111000 a
b0 E
b0 N
b10 W
b10 `
b0 i
b0 r
0{
0""
b111111111111110000000000000000000 9
b100000000000000000 8
b10 ;
b11000011010001011 2
b10001 /
1(
#210000
b100000 $
b100000 4
b10000000000000000000000 #
b10000000000000000000000 3
b10011 .
0(
#215000
b100000 ?
b100000 C
b0 l
b0 p
b1 u
b1 y
b1 v
b1000000 Z
b1000000 ^
b1000001 c
b1000001 g
b100000 B
b1000 D
b0 o
b1000 q
b0 x
b1000 z
0~
1%"
0&"
b1000000 ]
b1000 _
b1000000 f
b1000 h
b100000 =
b0 X
b0 a
b0 j
b0 s
0|
0#"
b1000000 W
b1000000 `
b1 5
b111111111111110100000000000000000 !
b111111111111110100000000000000000 6
b100000 9
b10000000000000000000000 8
b10 ;
b10010 /
b11000011010001010 2
1(
#220000
b100000000000000000000000000000000 $
b100000000000000000000000000000000 4
b111111111111111111110000000000000 #
b111111111111111111110000000000000 3
b10100 .
0(
#225000
b0 ?
b0 C
b11100000 H
b11100000 L
b11100001 Q
b11100001 U
b100000000 c
b0 g
b111111111 d
b11111111 Z
b11111111 ^
b100000000 u
b0 y
b111111111 v
b11111111 l
b11111111 p
b0 B
b1000 D
1!"
b11100000 K
b1000 M
b11100000 T
b1000 V
b11111111 f
b1000 h
b11111111 ]
b1000 _
b11111111 x
b1000 z
b11111111 o
b1000 q
1&"
b0 5
b10000000000000000100000 !
b10000000000000000100000 6
b0 =
1|
1#"
b11100000 E
b11100000 N
b11111111 W
b11111111 `
b11111111 i
b11111111 r
1{
1""
b100000000000000000000000000000000 9
b111111111111111111110000000000000 8
b10 ;
b11000011010001001 2
b10011 /
1(
#230000
b111111111100000000000000000000000 $
b111111111100000000000000000000000 4
b111111111111111111111111111111110 #
b111111111111111111111111111111110 3
b10101 .
0(
#235000
b101111111 Z
b1111111 ^
b100000000 [
b110000000 c
b10000000 g
b111111110 l
b11111110 p
b111111110 m
b111111111 u
b11111111 y
b11111110 ?
b11111110 C
b100000000 Q
b0 U
b111111111 R
b11111111 H
b11111111 L
b1111111 ]
b10000000 \
b1000 _
b1111111 f
b10000000 e
b1000 h
b0 o
b11111111 n
b1000 q
b0 x
b11111111 w
b1000 z
b11111110 B
b1000 D
b11111111 T
b1000 V
b11111111 K
b1000 M
b10000000 X
b10000000 a
b11111111 j
b11111111 s
b11111110 <
b11111111 E
b11111111 N
b10 5
b1011111111111111111110000000000000 !
b1011111111111111111110000000000000 6
b111111111100000000000000000000000 9
b111111111111111111111111111111110 8
b10 ;
b10100 /
b11000011010001000 2
1(
#240000
b111100000000000000000000000000000 $
b111100000000000000000000000000000 4
b1000000000000 #
b1000000000000 3
b10110 .
0(
#245000
b11 5
b0 ?
b0 C
b10000 H
b10000 L
b10001 Q
b10001 U
b1 R
b1 c
b1 g
b1 d
b0 Z
b0 ^
b0 [
b11100001 u
b11100001 y
b1 v
b11100000 l
b11100000 p
b0 m
b0 B
b1000 D
b10000 K
b1000 M
b10000 T
b1000 V
b0 e
b0 f
b1000 h
b0 \
b0 ]
b1000 _
b11100000 x
b0 w
b1000 z
b11100000 o
b0 n
b1000 q
1~
0!"
0%"
b1111111111011111111111111111111110 !
b1111111111011111111111111111111110 6
b0 X
b0 a
b11100000 j
b11100000 s
b0 <
b10000 E
b10000 N
b0 W
b0 `
b0 i
b0 r
0{
0""
b111100000000000000000000000000000 9
b1000000000000 8
b10 ;
b11000011010000111 2
b10101 /
1(
#250000
b111111111111111111111100000000000 $
b111111111111111111111100000000000 4
b111111111111111111100000000000000 #
b111111111111111111100000000000000 3
b10111 .
0(
#255000
b111111110 Z
b11111110 ^
b111111111 c
b11111111 g
b110111001 Q
b10111001 U
b110000001 R
b110111000 H
b10111000 L
b110000000 I
b111111110 [
b111111111 d
b111111110 l
b11111110 p
b111111110 m
b111111111 u
b11111111 y
b111111111 v
b11000000 S
b111000 T
b1000 V
b11000000 J
b111000 K
b1000 M
b11111111 \
b1000 _
b11111111 e
b1000 h
b0 o
b11111111 n
b1000 q
b0 x
b11111111 w
b1000 z
0~
1!"
1%"
b11111000 F
b11111000 O
b11111111 X
b11111111 a
b11111111 j
b11111111 s
b11000000 E
b11000000 N
b11111111 W
b11111111 `
b11111111 i
b11111111 r
1{
1""
b1 5
b111100000000000000001000000000000 !
b111100000000000000001000000000000 6
b111111111111111111111100000000000 9
b111111111111111111100000000000000 8
b10 ;
b10110 /
b11000011010000110 2
1(
#260000
b111111110000000000000000000000000 $
b111111110000000000000000000000000 4
b111111111111111111111111100000000 #
b111111111111111111111111100000000 3
b11000 .
0(
#265000
b100000000 c
b0 g
b11111111 Z
b11111111 ^
b0 [
b111111110 u
b11111110 y
b111111101 l
b11111101 p
b111111100 m
b11111111 H
b11111111 L
b0 I
b100000000 Q
b0 U
b111111111 R
b11111111 f
b0 e
b1000 h
b11111111 ]
b0 \
b1000 _
b1 x
b11111110 w
b1000 z
b1 o
b11111110 n
b1000 q
b0 J
b11111111 K
b1000 M
b0 S
b11111111 T
b1000 V
b1111111111111111111011100000000000 !
b1111111111111111111011100000000000 6
b11 5
b0 F
b0 O
b0 X
b0 a
b11111110 j
b11111110 s
b11111111 E
b11111111 N
b111111110000000000000000000000000 9
b111111111111111111111111100000000 8
b10 ;
b11000011010000101 2
b10111 /
1(
#270000
b100000000000000000 $
b100000000000000000 4
b100 #
b100 3
b11001 .
0(
#275000
b100 ?
b100 C
b1 Q
b1 U
b1 R
b0 H
b0 L
b10 Z
b10 ^
b11 c
b11 g
b1 d
b0 l
b0 p
b0 m
b1 u
b1 y
b1 v
0&"
b100 B
b1000 D
b0 T
b1000 V
b0 K
b1000 M
b10 ]
b1000 _
b10 f
b1000 h
b0 n
b0 o
b1000 q
b0 w
b0 x
b1000 z
0!"
b1111111101111111111111111100000000 !
b1111111101111111111111111100000000 6
b10 X
b10 a
b0 j
b0 s
0|
0#"
b100 <
b0 E
b0 N
b0 W
b0 `
b0 i
b0 r
0{
0""
b100000000000000000 9
b100 8
b10 ;
b11000 /
b11000011010000100 2
1(
#280000
b100000 $
b100000 4
b111111111111111111111110000000000 #
b111111111111111111111110000000000 3
b11010 .
0(
#285000
b100000 ?
b100000 C
b11111100 H
b11111100 L
b11111101 Q
b11111101 U
b100000000 c
b0 g
b111111111 d
b11111111 Z
b11111111 ^
b100000000 u
b0 y
b111111111 v
b11111111 l
b11111111 p
b100000 B
b1000 D
b11111100 K
b1000 M
b11111100 T
b1000 V
b11111111 f
b1000 h
b11111111 ]
b1000 _
b11111111 x
b1000 z
b11111111 o
b1000 q
1~
0%"
1&"
b0 5
b100000000000000100 !
b100000000000000100 6
b100000 =
b0 X
b0 a
b0 <
b11111100 E
b11111100 N
b11111111 W
b11111111 `
b11111111 i
b11111111 r
1{
1""
b100000 9
b111111111111111111111110000000000 8
b10 ;
b11000011010000011 2
b11001 /
1(
#290000
b111111111111110000000000000000000 $
b111111111111110000000000000000000 4
b111111111111110000000000000000000 #
b111111111111110000000000000000000 3
b11011 .
0(
#295000
b0 ?
b0 C
b111111110 l
b11111110 p
b111111110 m
b111111111 u
b11111111 y
b1 Q
b1 U
b0 H
b0 L
b111110000 Z
b11110000 ^
b111110000 [
b111110001 c
b11110001 g
b111110001 d
b0 B
b1000 D
b0 o
b11111111 n
b1000 q
b0 x
b11111111 w
b1000 z
0~
1!"
1%"
b0 T
b1000 V
b0 K
b1000 M
b11111000 \
b0 ]
b1000 _
b11111000 e
b0 f
b1000 h
b0 =
b11111000 X
b11111000 a
b11111111 j
b11111111 s
1|
1#"
b0 E
b0 N
b11111000 W
b11111000 `
b1 5
b111111111111111111111110000100000 !
b111111111111111111111110000100000 6
b111111111111110000000000000000000 9
b111111111111110000000000000000000 8
b10 ;
b11010 /
b11000011010000010 2
1(
#300000
b111111111111111111111111111111111 $
b111111111111111111111111111111111 4
b10000000 #
b10000000 3
b11100 .
0(
#305000
b11111111 H
b11111111 L
b100000000 Q
b0 U
b111111111 R
b101111111 ?
b1111111 C
b100000000 @
b100000000 c
b0 g
b111111111 d
b11111111 Z
b11111111 ^
b0 [
b100000000 u
b0 y
b11111111 l
b11111111 p
b0 m
b11111111 K
b1000 M
b11111111 T
b1000 V
b10000000 A
b1111111 B
b1000 D
b0 e
b11111111 f
b1000 h
b0 \
b11111111 ]
b1000 _
b11111111 x
b0 w
b1000 z
b11111111 o
b0 n
b1000 q
1~
0!"
0%"
b11 5
b1111111111111100000000000000000000 !
b1111111111111100000000000000000000 6
b11111111 =
b11111111 F
b11111111 O
b11111111 X
b11111111 a
b10000000 <
b0 W
b0 `
b0 i
b0 r
0{
0""
b111111111111111111111111111111111 9
b10000000 8
b10 ;
b11000011010000001 2
b11011 /
1(
#310000
b1000000000000000000000000000 $
b1000000000000000000000000000 4
b111111111111111111111111100000000 #
b111111111111111111111111100000000 3
b11101 .
0(
#315000
b0 ?
b0 C
b0 @
b100000111 l
b111 p
b111110000 m
b100001000 u
b1000 y
b0 A
b0 B
b1000 D
b1000 V
b1000 M
b1000 _
b1000 h
b11110111 o
b1000 n
b1000 q
b11110111 x
b1000 w
b1000 z
b0 =
b0 F
b0 O
b0 X
b0 a
b1000 j
b1000 s
0|
0#"
b0 <
b11111111 E
b11111111 N
b11111111 W
b11111111 `
b11111111 i
b11111111 r
1{
1""
b10 5
b1000000000000000000000000001111111 !
b1000000000000000000000000001111111 6
b1000000000000000000000000000 9
b111111111111111111111111100000000 8
b10 ;
b11100 /
b11000011010000000 2
1(
#320000
b100000 $
b100000 4
b10 #
b10 3
b11110 .
0(
#325000
b100010 ?
b100010 C
b0 H
b0 L
b1 Q
b1 U
b1 R
b1 c
b1 g
b1 d
b0 Z
b0 ^
b1 u
b1 y
b1 v
b0 l
b0 p
b0 m
b100010 B
b1000 D
b0 K
b1000 M
b0 T
b1000 V
b0 f
b1000 h
b0 ]
b1000 _
b0 w
b0 x
b1000 z
b0 n
b0 o
b1000 q
0~
1%"
0&"
b1000000111111111111111111100000000 !
b1000000111111111111111111100000000 6
b100000 =
b0 j
b0 s
b10 <
b0 E
b0 N
b0 W
b0 `
b0 i
b0 r
0{
0""
b100000 9
b10 8
b10 ;
b11000011001111111 2
b11101 /
1(
#330000
b111000000000000000000000000000000 $
b111000000000000000000000000000000 4
b10000 #
b10000 3
b11111 .
0(
